,temp,year,id,name
0,15.1,1969,65103779001,GREENWICH/MARITIME MUK
1,16.0,1968,65103779001,GREENWICH/MARITIME MUK
2,15.4,1967,65103779001,GREENWICH/MARITIME MUK
3,14.5,1962,65103779001,GREENWICH/MARITIME MUK
4,16.1,1961,65103779001,GREENWICH/MARITIME MUK
5,16.8,1960,65103779001,GREENWICH/MARITIME MUK
6,16.4,1959,65103779001,GREENWICH/MARITIME MUK
7,14.9,1958,65103779001,GREENWICH/MARITIME MUK
8,17.1,1957,65103779001,GREENWICH/MARITIME MUK
9,14.2,1956,65103779001,GREENWICH/MARITIME MUK
10,15.3,1955,65103779001,GREENWICH/MARITIME MUK
11,14.7,1954,65103779001,GREENWICH/MARITIME MUK
12,15.3,1953,65103779001,GREENWICH/MARITIME MUK
13,16.4,1952,65103779001,GREENWICH/MARITIME MUK
14,15.5,1951,65103779001,GREENWICH/MARITIME MUK
15,18.3,1950,65103779001,GREENWICH/MARITIME MUK
16,16.17,1949,65103779001,GREENWICH/MARITIME MUK
17,14.97,1948,65103779001,GREENWICH/MARITIME MUK
18,17.27,1947,65103779001,GREENWICH/MARITIME MUK
19,14.37,1946,65103779001,GREENWICH/MARITIME MUK
20,16.07,1945,65103779001,GREENWICH/MARITIME MUK
21,14.87,1944,65103779001,GREENWICH/MARITIME MUK
22,15.57,1943,65103779001,GREENWICH/MARITIME MUK
23,16.17,1942,65103779001,GREENWICH/MARITIME MUK
24,16.27,1941,65103779001,GREENWICH/MARITIME MUK
25,17.37,1940,65103779001,GREENWICH/MARITIME MUK
26,15.17,1939,65103779001,GREENWICH/MARITIME MUK
27,16.47,1938,65103779001,GREENWICH/MARITIME MUK
28,15.77,1937,65103779001,GREENWICH/MARITIME MUK
29,16.27,1936,65103779001,GREENWICH/MARITIME MUK
30,16.27,1935,65103779001,GREENWICH/MARITIME MUK
31,16.47,1934,65103779001,GREENWICH/MARITIME MUK
32,16.57,1933,65103779001,GREENWICH/MARITIME MUK
33,15.17,1932,65103779001,GREENWICH/MARITIME MUK
34,15.97,1931,65103779001,GREENWICH/MARITIME MUK
35,16.57,1930,65103779001,GREENWICH/MARITIME MUK
36,14.77,1929,65103779001,GREENWICH/MARITIME MUK
37,14.47,1928,65103779001,GREENWICH/MARITIME MUK
38,14.07,1927,65103779001,GREENWICH/MARITIME MUK
39,14.47,1926,65103779001,GREENWICH/MARITIME MUK
40,16.37,1925,65103779001,GREENWICH/MARITIME MUK
41,15.47,1924,65103779001,GREENWICH/MARITIME MUK
42,13.47,1923,65103779001,GREENWICH/MARITIME MUK
43,15.57,1922,65103779001,GREENWICH/MARITIME MUK
44,15.87,1921,65103779001,GREENWICH/MARITIME MUK
45,15.77,1920,65103779001,GREENWICH/MARITIME MUK
46,15.67,1919,65103779001,GREENWICH/MARITIME MUK
47,14.37,1918,65103779001,GREENWICH/MARITIME MUK
48,17.17,1917,65103779001,GREENWICH/MARITIME MUK
49,12.37,1916,65103779001,GREENWICH/MARITIME MUK
50,15.17,1915,65103779001,GREENWICH/MARITIME MUK
51,15.47,1914,65103779001,GREENWICH/MARITIME MUK
52,15.27,1913,65103779001,GREENWICH/MARITIME MUK
53,14.97,1912,65103779001,GREENWICH/MARITIME MUK
54,15.67,1911,65103779001,GREENWICH/MARITIME MUK
55,16.07,1910,65103779001,GREENWICH/MARITIME MUK
56,12.57,1909,65103779001,GREENWICH/MARITIME MUK
57,15.67,1908,65103779001,GREENWICH/MARITIME MUK
58,13.97,1907,65103779001,GREENWICH/MARITIME MUK
59,14.87,1906,65103779001,GREENWICH/MARITIME MUK
60,15.67,1905,65103779001,GREENWICH/MARITIME MUK
61,14.67,1904,65103779001,GREENWICH/MARITIME MUK
62,13.77,1903,65103779001,GREENWICH/MARITIME MUK
63,14.57,1902,65103779001,GREENWICH/MARITIME MUK
64,15.17,1901,65103779001,GREENWICH/MARITIME MUK
65,15.57,1900,65103779001,GREENWICH/MARITIME MUK
66,16.17,1899,65103779001,GREENWICH/MARITIME MUK
67,14.67,1898,65103779001,GREENWICH/MARITIME MUK
68,16.67,1897,65103779001,GREENWICH/MARITIME MUK
69,17.77,1896,65103779001,GREENWICH/MARITIME MUK
70,16.67,1895,65103779001,GREENWICH/MARITIME MUK
71,15.17,1894,65103779001,GREENWICH/MARITIME MUK
72,16.77,1893,65103779001,GREENWICH/MARITIME MUK
73,14.87,1892,65103779001,GREENWICH/MARITIME MUK
74,16.07,1891,65103779001,GREENWICH/MARITIME MUK
75,14.97,1890,65103779001,GREENWICH/MARITIME MUK
76,16.67,1889,65103779001,GREENWICH/MARITIME MUK
77,14.97,1888,65103779001,GREENWICH/MARITIME MUK
78,16.47,1887,65103779001,GREENWICH/MARITIME MUK
79,14.67,1886,65103779001,GREENWICH/MARITIME MUK
80,15.67,1885,65103779001,GREENWICH/MARITIME MUK
81,14.87,1884,65103779001,GREENWICH/MARITIME MUK
82,15.27,1883,65103779001,GREENWICH/MARITIME MUK
83,14.07,1882,65103779001,GREENWICH/MARITIME MUK
84,15.17,1881,65103779001,GREENWICH/MARITIME MUK
85,14.57,1880,65103779001,GREENWICH/MARITIME MUK
86,14.27,1879,65103779001,GREENWICH/MARITIME MUK
87,16.07,1878,65103779001,GREENWICH/MARITIME MUK
88,17.17,1877,65103779001,GREENWICH/MARITIME MUK
89,15.67,1876,65103779001,GREENWICH/MARITIME MUK
90,15.97,1875,65103779001,GREENWICH/MARITIME MUK
91,15.27,1874,65103779001,GREENWICH/MARITIME MUK
92,15.57,1873,65103779001,GREENWICH/MARITIME MUK
93,15.97,1872,65103779001,GREENWICH/MARITIME MUK
94,13.47,1871,65103779001,GREENWICH/MARITIME MUK
95,17.17,1870,65103779001,GREENWICH/MARITIME MUK
96,13.77,1869,65103779001,GREENWICH/MARITIME MUK
97,17.67,1868,65103779001,GREENWICH/MARITIME MUK
98,15.47,1867,65103779001,GREENWICH/MARITIME MUK
99,16.97,1866,65103779001,GREENWICH/MARITIME MUK
100,16.87,1865,65103779001,GREENWICH/MARITIME MUK
101,14.97,1864,65103779001,GREENWICH/MARITIME MUK
102,15.27,1863,65103779001,GREENWICH/MARITIME MUK
103,14.27,1862,65103779001,GREENWICH/MARITIME MUK
104,15.87,1861,65103779001,GREENWICH/MARITIME MUK
105,13.57,1860,65103779001,GREENWICH/MARITIME MUK
106,17.17,1859,65103779001,GREENWICH/MARITIME MUK
107,19.07,1858,65103779001,GREENWICH/MARITIME MUK
108,17.27,1857,65103779001,GREENWICH/MARITIME MUK
109,15.77,1856,65103779001,GREENWICH/MARITIME MUK
110,14.67,1855,65103779001,GREENWICH/MARITIME MUK
111,13.97,1854,65103779001,GREENWICH/MARITIME MUK
112,15.37,1853,65103779001,GREENWICH/MARITIME MUK
113,14.17,1852,65103779001,GREENWICH/MARITIME MUK
114,15.77,1851,65103779001,GREENWICH/MARITIME MUK
115,16.57,1850,65103779001,GREENWICH/MARITIME MUK
116,15.57,1849,65103779001,GREENWICH/MARITIME MUK
117,15.07,1848,65103779001,GREENWICH/MARITIME MUK
118,14.77,1847,65103779001,GREENWICH/MARITIME MUK
119,18.97,1846,65103779001,GREENWICH/MARITIME MUK
120,16.17,1845,65103779001,GREENWICH/MARITIME MUK
121,16.27,1844,65103779001,GREENWICH/MARITIME MUK
122,13.87,1843,65103779001,GREENWICH/MARITIME MUK
123,17.57,1842,65103779001,GREENWICH/MARITIME MUK
124,13.77,1841,65103779001,GREENWICH/MARITIME MUK
125,15.17,1840,65103779001,GREENWICH/MARITIME MUK
126,15.47,1839,65103779001,GREENWICH/MARITIME MUK
127,14.47,1838,65103779001,GREENWICH/MARITIME MUK
128,15.97,1837,65103779001,GREENWICH/MARITIME MUK
129,16.17,1836,65103779001,GREENWICH/MARITIME MUK
130,15.37,1835,65103779001,GREENWICH/MARITIME MUK
131,16.07,1834,65103779001,GREENWICH/MARITIME MUK
132,15.27,1833,65103779001,GREENWICH/MARITIME MUK
133,15.07,1832,65103779001,GREENWICH/MARITIME MUK
134,14.77,1831,65103779001,GREENWICH/MARITIME MUK
135,13.57,1830,65103779001,GREENWICH/MARITIME MUK
136,15.77,1829,65103779001,GREENWICH/MARITIME MUK
137,16.17,1828,65103779001,GREENWICH/MARITIME MUK
138,14.67,1827,65103779001,GREENWICH/MARITIME MUK
139,17.77,1826,65103779001,GREENWICH/MARITIME MUK
140,15.47,1825,65103779001,GREENWICH/MARITIME MUK
141,13.67,1824,65103779001,GREENWICH/MARITIME MUK
142,13.27,1823,65103779001,GREENWICH/MARITIME MUK
143,18.07,1822,65103779001,GREENWICH/MARITIME MUK
144,12.57,1821,65103779001,GREENWICH/MARITIME MUK
145,13.97,1820,65103779001,GREENWICH/MARITIME MUK
146,14.27,1819,65103779001,GREENWICH/MARITIME MUK
147,17.37,1818,65103779001,GREENWICH/MARITIME MUK
148,15.87,1817,65103779001,GREENWICH/MARITIME MUK
149,13.17,1816,65103779001,GREENWICH/MARITIME MUK
150,15.27,1815,65103779001,GREENWICH/MARITIME MUK
151,11.77,1814,65103779001,GREENWICH/MARITIME MUK
152,14.17,1813,65103779001,GREENWICH/MARITIME MUK
153,13.57,1812,65103779001,GREENWICH/MARITIME MUK
154,15.14,1811,65103779001,GREENWICH/MARITIME MUK
155,15.14,1810,65103779001,GREENWICH/MARITIME MUK
156,14.64,1809,65103779001,GREENWICH/MARITIME MUK
157,15.14,1808,65103779001,GREENWICH/MARITIME MUK
158,14.54,1807,65103779001,GREENWICH/MARITIME MUK
159,15.84,1806,65103779001,GREENWICH/MARITIME MUK
160,13.24,1805,65103779001,GREENWICH/MARITIME MUK
161,16.94,1804,65103779001,GREENWICH/MARITIME MUK
162,14.14,1803,65103779001,GREENWICH/MARITIME MUK
163,15.14,1802,65103779001,GREENWICH/MARITIME MUK
164,15.64,1801,65103779001,GREENWICH/MARITIME MUK
165,13.74,1800,65103779001,GREENWICH/MARITIME MUK
166,14.24,1799,65103779001,GREENWICH/MARITIME MUK
167,16.84,1798,65103779001,GREENWICH/MARITIME MUK
168,14.14,1797,65103779001,GREENWICH/MARITIME MUK
169,15.14,1796,65103779001,GREENWICH/MARITIME MUK
170,13.84,1795,65103779001,GREENWICH/MARITIME MUK
171,16.04,1794,65103779001,GREENWICH/MARITIME MUK
172,14.94,1793,65103779001,GREENWICH/MARITIME MUK
173,14.04,1792,65103779001,GREENWICH/MARITIME MUK
174,15.24,1791,65103779001,GREENWICH/MARITIME MUK
175,15.94,1790,65103779001,GREENWICH/MARITIME MUK
176,14.74,1789,65103779001,GREENWICH/MARITIME MUK
177,15.94,1788,65103779001,GREENWICH/MARITIME MUK
178,15.54,1787,65103779001,GREENWICH/MARITIME MUK
179,16.04,1786,65103779001,GREENWICH/MARITIME MUK
180,16.54,1785,65103779001,GREENWICH/MARITIME MUK
181,15.94,1784,65103779001,GREENWICH/MARITIME MUK
182,17.54,1783,65103779001,GREENWICH/MARITIME MUK
183,17.24,1782,65103779001,GREENWICH/MARITIME MUK
184,17.94,1781,65103779001,GREENWICH/MARITIME MUK
185,15.64,1780,65103779001,GREENWICH/MARITIME MUK
186,15.14,1779,65103779001,GREENWICH/MARITIME MUK
187,17.24,1778,65103779001,GREENWICH/MARITIME MUK
188,14.54,1777,65103779001,GREENWICH/MARITIME MUK
189,15.34,1776,65103779001,GREENWICH/MARITIME MUK
190,17.74,1775,65103779001,GREENWICH/MARITIME MUK
191,16.34,1774,65103779001,GREENWICH/MARITIME MUK
192,15.34,1773,65103779001,GREENWICH/MARITIME MUK
193,17.44,1772,65103779001,GREENWICH/MARITIME MUK
194,14.74,1771,65103779001,GREENWICH/MARITIME MUK
195,13.64,1770,65103779001,GREENWICH/MARITIME MUK
196,12.54,1769,65103779001,GREENWICH/MARITIME MUK
197,14.74,1768,65103779001,GREENWICH/MARITIME MUK
198,14.74,1766,65103779001,GREENWICH/MARITIME MUK
199,14.14,1765,65103779001,GREENWICH/MARITIME MUK
200,13.64,1764,65103779001,GREENWICH/MARITIME MUK
201,14.14,1763,65103779001,GREENWICH/MARITIME MUK
