,temp,year,id,name
0,17.8,2000,61507150000,PARIS/LE BOURGET    FRANCE
1,17.0,1999,61507150000,PARIS/LE BOURGET    FRANCE
2,17.8,1998,61507150000,PARIS/LE BOURGET    FRANCE
3,17.2,1997,61507150000,PARIS/LE BOURGET    FRANCE
4,17.9,1996,61507150000,PARIS/LE BOURGET    FRANCE
5,16.2,1995,61507150000,PARIS/LE BOURGET    FRANCE
6,17.46,1994,61507150000,PARIS/LE BOURGET    FRANCE
7,17.96,1993,61507150000,PARIS/LE BOURGET    FRANCE
8,16.86,1992,61507150000,PARIS/LE BOURGET    FRANCE
9,14.96,1991,61507150000,PARIS/LE BOURGET    FRANCE
10,15.96,1990,61507150000,PARIS/LE BOURGET    FRANCE
11,17.26,1989,61507150000,PARIS/LE BOURGET    FRANCE
12,16.46,1988,61507150000,PARIS/LE BOURGET    FRANCE
13,15.46,1987,61507150000,PARIS/LE BOURGET    FRANCE
14,18.16,1986,61507150000,PARIS/LE BOURGET    FRANCE
15,15.46,1985,61507150000,PARIS/LE BOURGET    FRANCE
16,16.56,1984,61507150000,PARIS/LE BOURGET    FRANCE
17,17.86,1983,61507150000,PARIS/LE BOURGET    FRANCE
18,18.36,1982,61507150000,PARIS/LE BOURGET    FRANCE
19,16.06,1981,61507150000,PARIS/LE BOURGET    FRANCE
20,15.96,1980,61507150000,PARIS/LE BOURGET    FRANCE
21,16.56,1979,61507150000,PARIS/LE BOURGET    FRANCE
22,15.56,1978,61507150000,PARIS/LE BOURGET    FRANCE
23,15.86,1977,61507150000,PARIS/LE BOURGET    FRANCE
24,20.56,1976,61507150000,PARIS/LE BOURGET    FRANCE
25,16.56,1975,61507150000,PARIS/LE BOURGET    FRANCE
26,16.86,1974,61507150000,PARIS/LE BOURGET    FRANCE
27,17.96,1973,61507150000,PARIS/LE BOURGET    FRANCE
28,14.36,1972,61507150000,PARIS/LE BOURGET    FRANCE
29,15.46,1971,61507150000,PARIS/LE BOURGET    FRANCE
30,18.36,1970,61507150000,PARIS/LE BOURGET    FRANCE
31,15.86,1969,61507150000,PARIS/LE BOURGET    FRANCE
32,16.36,1968,61507150000,PARIS/LE BOURGET    FRANCE
33,16.06,1967,61507150000,PARIS/LE BOURGET    FRANCE
34,18.06,1966,61507150000,PARIS/LE BOURGET    FRANCE
35,16.76,1965,61507150000,PARIS/LE BOURGET    FRANCE
36,16.66,1964,61507150000,PARIS/LE BOURGET    FRANCE
37,16.46,1963,61507150000,PARIS/LE BOURGET    FRANCE
38,16.16,1962,61507150000,PARIS/LE BOURGET    FRANCE
39,17.16,1961,61507150000,PARIS/LE BOURGET    FRANCE
40,17.86,1960,61507150000,PARIS/LE BOURGET    FRANCE
41,17.96,1959,61507150000,PARIS/LE BOURGET    FRANCE
42,15.76,1958,61507150000,PARIS/LE BOURGET    FRANCE
43,18.16,1957,61507150000,PARIS/LE BOURGET    FRANCE
44,14.56,1956,61507150000,PARIS/LE BOURGET    FRANCE
45,16.96,1955,61507150000,PARIS/LE BOURGET    FRANCE
46,16.36,1954,61507150000,PARIS/LE BOURGET    FRANCE
47,16.16,1953,61507150000,PARIS/LE BOURGET    FRANCE
48,17.86,1952,61507150000,PARIS/LE BOURGET    FRANCE
49,16.56,1951,61507150000,PARIS/LE BOURGET    FRANCE
50,20.06,1950,61507150000,PARIS/LE BOURGET    FRANCE
51,17.46,1949,61507150000,PARIS/LE BOURGET    FRANCE
52,16.86,1948,61507150000,PARIS/LE BOURGET    FRANCE
53,19.16,1947,61507150000,PARIS/LE BOURGET    FRANCE
54,16.16,1946,61507150000,PARIS/LE BOURGET    FRANCE
55,19.16,1945,61507150000,PARIS/LE BOURGET    FRANCE
56,16.36,1944,61507150000,PARIS/LE BOURGET    FRANCE
57,17.06,1943,61507150000,PARIS/LE BOURGET    FRANCE
58,17.56,1942,61507150000,PARIS/LE BOURGET    FRANCE
59,18.46,1941,61507150000,PARIS/LE BOURGET    FRANCE
60,19.06,1940,61507150000,PARIS/LE BOURGET    FRANCE
61,18.16,1939,61507150000,PARIS/LE BOURGET    FRANCE
62,18.66,1938,61507150000,PARIS/LE BOURGET    FRANCE
63,17.56,1937,61507150000,PARIS/LE BOURGET    FRANCE
64,17.86,1936,61507150000,PARIS/LE BOURGET    FRANCE
65,19.16,1935,61507150000,PARIS/LE BOURGET    FRANCE
66,18.66,1934,61507150000,PARIS/LE BOURGET    FRANCE
67,16.76,1933,61507150000,PARIS/LE BOURGET    FRANCE
68,17.36,1932,61507150000,PARIS/LE BOURGET    FRANCE
69,18.36,1931,61507150000,PARIS/LE BOURGET    FRANCE
70,19.06,1930,61507150000,PARIS/LE BOURGET    FRANCE
71,16.86,1929,61507150000,PARIS/LE BOURGET    FRANCE
72,16.76,1928,61507150000,PARIS/LE BOURGET    FRANCE
73,15.86,1927,61507150000,PARIS/LE BOURGET    FRANCE
74,14.96,1926,61507150000,PARIS/LE BOURGET    FRANCE
75,17.26,1925,61507150000,PARIS/LE BOURGET    FRANCE
76,16.56,1924,61507150000,PARIS/LE BOURGET    FRANCE
77,14.46,1923,61507150000,PARIS/LE BOURGET    FRANCE
78,17.36,1922,61507150000,PARIS/LE BOURGET    FRANCE
79,17.96,1921,61507150000,PARIS/LE BOURGET    FRANCE
80,16.76,1920,61507150000,PARIS/LE BOURGET    FRANCE
81,17.36,1919,61507150000,PARIS/LE BOURGET    FRANCE
82,15.66,1918,61507150000,PARIS/LE BOURGET    FRANCE
83,19.06,1917,61507150000,PARIS/LE BOURGET    FRANCE
84,13.96,1916,61507150000,PARIS/LE BOURGET    FRANCE
85,18.16,1915,61507150000,PARIS/LE BOURGET    FRANCE
86,15.86,1914,61507150000,PARIS/LE BOURGET    FRANCE
87,16.26,1913,61507150000,PARIS/LE BOURGET    FRANCE
88,16.56,1912,61507150000,PARIS/LE BOURGET    FRANCE
89,16.96,1911,61507150000,PARIS/LE BOURGET    FRANCE
90,16.76,1910,61507150000,PARIS/LE BOURGET    FRANCE
91,14.86,1909,61507150000,PARIS/LE BOURGET    FRANCE
92,18.26,1908,61507150000,PARIS/LE BOURGET    FRANCE
93,15.46,1907,61507150000,PARIS/LE BOURGET    FRANCE
94,16.46,1906,61507150000,PARIS/LE BOURGET    FRANCE
95,17.46,1905,61507150000,PARIS/LE BOURGET    FRANCE
96,16.66,1904,61507150000,PARIS/LE BOURGET    FRANCE
97,15.56,1903,61507150000,PARIS/LE BOURGET    FRANCE
98,15.86,1902,61507150000,PARIS/LE BOURGET    FRANCE
99,17.96,1901,61507150000,PARIS/LE BOURGET    FRANCE
100,18.06,1900,61507150000,PARIS/LE BOURGET    FRANCE
101,17.66,1899,61507150000,PARIS/LE BOURGET    FRANCE
102,15.46,1898,61507150000,PARIS/LE BOURGET    FRANCE
103,18.66,1897,61507150000,PARIS/LE BOURGET    FRANCE
104,17.76,1896,61507150000,PARIS/LE BOURGET    FRANCE
105,16.86,1895,61507150000,PARIS/LE BOURGET    FRANCE
106,16.66,1894,61507150000,PARIS/LE BOURGET    FRANCE
107,17.96,1893,61507150000,PARIS/LE BOURGET    FRANCE
108,17.36,1892,61507150000,PARIS/LE BOURGET    FRANCE
109,16.86,1891,61507150000,PARIS/LE BOURGET    FRANCE
110,15.86,1890,61507150000,PARIS/LE BOURGET    FRANCE
111,18.86,1889,61507150000,PARIS/LE BOURGET    FRANCE
112,16.76,1888,61507150000,PARIS/LE BOURGET    FRANCE
113,17.66,1887,61507150000,PARIS/LE BOURGET    FRANCE
114,15.56,1886,61507150000,PARIS/LE BOURGET    FRANCE
115,18.46,1885,61507150000,PARIS/LE BOURGET    FRANCE
116,14.86,1884,61507150000,PARIS/LE BOURGET    FRANCE
117,16.66,1883,61507150000,PARIS/LE BOURGET    FRANCE
118,15.36,1882,61507150000,PARIS/LE BOURGET    FRANCE
119,16.26,1881,61507150000,PARIS/LE BOURGET    FRANCE
120,15.86,1880,61507150000,PARIS/LE BOURGET    FRANCE
121,16.16,1879,61507150000,PARIS/LE BOURGET    FRANCE
122,16.86,1878,61507150000,PARIS/LE BOURGET    FRANCE
123,19.26,1877,61507150000,PARIS/LE BOURGET    FRANCE
124,16.56,1876,61507150000,PARIS/LE BOURGET    FRANCE
125,17.06,1875,61507150000,PARIS/LE BOURGET    FRANCE
126,17.46,1874,61507150000,PARIS/LE BOURGET    FRANCE
127,16.86,1873,61507150000,PARIS/LE BOURGET    FRANCE
128,16.86,1872,61507150000,PARIS/LE BOURGET    FRANCE
129,14.16,1871,61507150000,PARIS/LE BOURGET    FRANCE
130,17.86,1870,61507150000,PARIS/LE BOURGET    FRANCE
131,14.36,1869,61507150000,PARIS/LE BOURGET    FRANCE
132,18.36,1868,61507150000,PARIS/LE BOURGET    FRANCE
133,15.86,1867,61507150000,PARIS/LE BOURGET    FRANCE
134,18.36,1866,61507150000,PARIS/LE BOURGET    FRANCE
135,17.16,1865,61507150000,PARIS/LE BOURGET    FRANCE
136,15.66,1864,61507150000,PARIS/LE BOURGET    FRANCE
137,16.66,1863,61507150000,PARIS/LE BOURGET    FRANCE
138,15.66,1862,61507150000,PARIS/LE BOURGET    FRANCE
139,18.46,1861,61507150000,PARIS/LE BOURGET    FRANCE
140,15.46,1860,61507150000,PARIS/LE BOURGET    FRANCE
141,17.96,1859,61507150000,PARIS/LE BOURGET    FRANCE
142,20.46,1858,61507150000,PARIS/LE BOURGET    FRANCE
143,18.06,1857,61507150000,PARIS/LE BOURGET    FRANCE
144,17.36,1856,61507150000,PARIS/LE BOURGET    FRANCE
145,15.66,1855,61507150000,PARIS/LE BOURGET    FRANCE
146,14.66,1854,61507150000,PARIS/LE BOURGET    FRANCE
147,16.16,1853,61507150000,PARIS/LE BOURGET    FRANCE
148,16.06,1852,61507150000,PARIS/LE BOURGET    FRANCE
149,16.96,1851,61507150000,PARIS/LE BOURGET    FRANCE
150,17.64,1850,61507150000,PARIS/LE BOURGET    FRANCE
151,17.64,1849,61507150000,PARIS/LE BOURGET    FRANCE
152,17.24,1848,61507150000,PARIS/LE BOURGET    FRANCE
153,15.04,1847,61507150000,PARIS/LE BOURGET    FRANCE
154,20.24,1846,61507150000,PARIS/LE BOURGET    FRANCE
155,17.04,1845,61507150000,PARIS/LE BOURGET    FRANCE
156,16.94,1844,61507150000,PARIS/LE BOURGET    FRANCE
157,15.14,1843,61507150000,PARIS/LE BOURGET    FRANCE
158,19.64,1842,61507150000,PARIS/LE BOURGET    FRANCE
159,14.74,1841,61507150000,PARIS/LE BOURGET    FRANCE
160,18.04,1840,61507150000,PARIS/LE BOURGET    FRANCE
161,18.84,1839,61507150000,PARIS/LE BOURGET    FRANCE
162,15.94,1838,61507150000,PARIS/LE BOURGET    FRANCE
163,18.24,1837,61507150000,PARIS/LE BOURGET    FRANCE
164,18.14,1836,61507150000,PARIS/LE BOURGET    FRANCE
165,17.04,1835,61507150000,PARIS/LE BOURGET    FRANCE
166,18.44,1834,61507150000,PARIS/LE BOURGET    FRANCE
167,18.14,1833,61507150000,PARIS/LE BOURGET    FRANCE
168,17.04,1832,61507150000,PARIS/LE BOURGET    FRANCE
169,16.64,1831,61507150000,PARIS/LE BOURGET    FRANCE
170,15.84,1830,61507150000,PARIS/LE BOURGET    FRANCE
171,16.94,1829,61507150000,PARIS/LE BOURGET    FRANCE
172,17.24,1828,61507150000,PARIS/LE BOURGET    FRANCE
173,16.74,1827,61507150000,PARIS/LE BOURGET    FRANCE
174,18.54,1826,61507150000,PARIS/LE BOURGET    FRANCE
175,16.74,1825,61507150000,PARIS/LE BOURGET    FRANCE
176,16.24,1824,61507150000,PARIS/LE BOURGET    FRANCE
177,14.74,1823,61507150000,PARIS/LE BOURGET    FRANCE
178,20.94,1822,61507150000,PARIS/LE BOURGET    FRANCE
179,14.24,1821,61507150000,PARIS/LE BOURGET    FRANCE
180,15.34,1820,61507150000,PARIS/LE BOURGET    FRANCE
181,15.74,1819,61507150000,PARIS/LE BOURGET    FRANCE
182,18.94,1818,61507150000,PARIS/LE BOURGET    FRANCE
183,17.54,1817,61507150000,PARIS/LE BOURGET    FRANCE
184,14.54,1816,61507150000,PARIS/LE BOURGET    FRANCE
185,15.74,1815,61507150000,PARIS/LE BOURGET    FRANCE
186,15.34,1814,61507150000,PARIS/LE BOURGET    FRANCE
187,15.34,1813,61507150000,PARIS/LE BOURGET    FRANCE
188,15.84,1812,61507150000,PARIS/LE BOURGET    FRANCE
189,17.14,1811,61507150000,PARIS/LE BOURGET    FRANCE
190,16.74,1810,61507150000,PARIS/LE BOURGET    FRANCE
191,15.14,1809,61507150000,PARIS/LE BOURGET    FRANCE
192,16.04,1808,61507150000,PARIS/LE BOURGET    FRANCE
193,16.34,1807,61507150000,PARIS/LE BOURGET    FRANCE
194,17.74,1806,61507150000,PARIS/LE BOURGET    FRANCE
195,14.84,1805,61507150000,PARIS/LE BOURGET    FRANCE
196,18.44,1804,61507150000,PARIS/LE BOURGET    FRANCE
197,16.04,1803,61507150000,PARIS/LE BOURGET    FRANCE
198,16.44,1802,61507150000,PARIS/LE BOURGET    FRANCE
199,15.84,1801,61507150000,PARIS/LE BOURGET    FRANCE
200,14.24,1800,61507150000,PARIS/LE BOURGET    FRANCE
201,14.94,1799,61507150000,PARIS/LE BOURGET    FRANCE
202,18.24,1798,61507150000,PARIS/LE BOURGET    FRANCE
203,13.54,1797,61507150000,PARIS/LE BOURGET    FRANCE
204,15.24,1796,61507150000,PARIS/LE BOURGET    FRANCE
205,16.56,1795,61507150000,PARIS/LE BOURGET    FRANCE
206,18.66,1794,61507150000,PARIS/LE BOURGET    FRANCE
207,15.16,1793,61507150000,PARIS/LE BOURGET    FRANCE
208,15.71,1792,61507150000,PARIS/LE BOURGET    FRANCE
209,16.81,1791,61507150000,PARIS/LE BOURGET    FRANCE
210,17.51,1790,61507150000,PARIS/LE BOURGET    FRANCE
211,15.11,1789,61507150000,PARIS/LE BOURGET    FRANCE
212,17.51,1788,61507150000,PARIS/LE BOURGET    FRANCE
213,18.21,1787,61507150000,PARIS/LE BOURGET    FRANCE
214,18.11,1786,61507150000,PARIS/LE BOURGET    FRANCE
215,16.91,1785,61507150000,PARIS/LE BOURGET    FRANCE
216,16.61,1784,61507150000,PARIS/LE BOURGET    FRANCE
217,16.41,1783,61507150000,PARIS/LE BOURGET    FRANCE
218,18.01,1782,61507150000,PARIS/LE BOURGET    FRANCE
219,18.41,1781,61507150000,PARIS/LE BOURGET    FRANCE
220,18.01,1780,61507150000,PARIS/LE BOURGET    FRANCE
221,15.71,1779,61507150000,PARIS/LE BOURGET    FRANCE
222,16.91,1778,61507150000,PARIS/LE BOURGET    FRANCE
223,15.41,1777,61507150000,PARIS/LE BOURGET    FRANCE
224,16.72,1776,61507150000,PARIS/LE BOURGET    FRANCE
225,19.82,1775,61507150000,PARIS/LE BOURGET    FRANCE
226,18.02,1774,61507150000,PARIS/LE BOURGET    FRANCE
227,16.82,1773,61507150000,PARIS/LE BOURGET    FRANCE
228,19.32,1772,61507150000,PARIS/LE BOURGET    FRANCE
229,16.12,1771,61507150000,PARIS/LE BOURGET    FRANCE
230,16.02,1770,61507150000,PARIS/LE BOURGET    FRANCE
231,15.72,1769,61507150000,PARIS/LE BOURGET    FRANCE
232,16.42,1768,61507150000,PARIS/LE BOURGET    FRANCE
233,15.52,1767,61507150000,PARIS/LE BOURGET    FRANCE
234,17.22,1766,61507150000,PARIS/LE BOURGET    FRANCE
235,17.82,1765,61507150000,PARIS/LE BOURGET    FRANCE
236,17.82,1764,61507150000,PARIS/LE BOURGET    FRANCE
237,17.32,1763,61507150000,PARIS/LE BOURGET    FRANCE
238,18.32,1762,61507150000,PARIS/LE BOURGET    FRANCE
239,17.92,1761,61507150000,PARIS/LE BOURGET    FRANCE
240,18.42,1760,61507150000,PARIS/LE BOURGET    FRANCE
241,17.82,1759,61507150000,PARIS/LE BOURGET    FRANCE
242,18.72,1758,61507150000,PARIS/LE BOURGET    FRANCE
243,17.42,1757,61507150000,PARIS/LE BOURGET    FRANCE
