,temp,year,id,name
0,22.0,2017,21047662000,TOKYO
1,22.4,2016,21047662000,TOKYO
2,22.1,2015,21047662000,TOKYO
3,22.68,2014,21047662000,TOKYO
4,22.18,2013,21047662000,TOKYO
5,20.68,2012,21047662000,TOKYO
6,22.08,2011,21047662000,TOKYO
7,22.88,2010,21047662000,TOKYO
8,21.78,2009,21047662000,TOKYO
9,20.58,2008,21047662000,TOKYO
10,22.48,2007,21047662000,TOKYO
11,21.78,2006,21047662000,TOKYO
12,22.48,2005,21047662000,TOKYO
13,22.98,2004,21047662000,TOKYO
14,22.48,2003,21047662000,TOKYO
15,20.88,2002,21047662000,TOKYO
16,22.38,2001,21047662000,TOKYO
17,21.78,2000,21047662000,TOKYO
18,22.08,1999,21047662000,TOKYO
19,20.78,1998,21047662000,TOKYO
20,21.98,1997,21047662000,TOKYO
21,21.88,1996,21047662000,TOKYO
22,19.68,1995,21047662000,TOKYO
23,21.68,1994,21047662000,TOKYO
24,20.98,1993,21047662000,TOKYO
25,19.88,1992,21047662000,TOKYO
26,22.88,1991,21047662000,TOKYO
27,22.78,1990,21047662000,TOKYO
28,19.98,1989,21047662000,TOKYO
29,21.58,1988,21047662000,TOKYO
30,21.38,1987,21047662000,TOKYO
31,20.38,1986,21047662000,TOKYO
32,19.48,1985,21047662000,TOKYO
33,21.08,1984,21047662000,TOKYO
34,19.78,1983,21047662000,TOKYO
35,20.68,1982,21047662000,TOKYO
36,19.48,1981,21047662000,TOKYO
37,22.88,1980,21047662000,TOKYO
38,23.68,1979,21047662000,TOKYO
39,23.08,1978,21047662000,TOKYO
40,20.18,1977,21047662000,TOKYO
41,20.78,1976,21047662000,TOKYO
42,20.88,1975,21047662000,TOKYO
43,21.18,1974,21047662000,TOKYO
44,19.57,1973,21047662000,TOKYO
45,21.17,1972,21047662000,TOKYO
46,21.07,1971,21047662000,TOKYO
47,21.04,1969,21047662000,TOKYO
48,21.24,1968,21047662000,TOKYO
49,22.24,1967,21047662000,TOKYO
50,21.53,1964,21047662000,TOKYO
51,21.83,1963,21047662000,TOKYO
52,20.93,1962,21047662000,TOKYO
53,22.63,1961,21047662000,TOKYO
54,21.53,1960,21047662000,TOKYO
55,20.43,1959,21047662000,TOKYO
56,21.93,1958,21047662000,TOKYO
57,19.83,1957,21047662000,TOKYO
58,22.33,1956,21047662000,TOKYO
59,22.73,1955,21047662000,TOKYO
60,18.33,1954,21047662000,TOKYO
61,20.63,1953,21047662000,TOKYO
62,21.33,1952,21047662000,TOKYO
63,21.23,1951,21047662000,TOKYO
64,21.83,1950,21047662000,TOKYO
65,19.43,1949,21047662000,TOKYO
66,21.63,1948,21047662000,TOKYO
67,19.23,1947,21047662000,TOKYO
68,23.33,1946,21047662000,TOKYO
69,20.43,1945,21047662000,TOKYO
70,22.33,1944,21047662000,TOKYO
71,21.53,1943,21047662000,TOKYO
72,22.23,1942,21047662000,TOKYO
73,20.83,1941,21047662000,TOKYO
74,20.13,1940,21047662000,TOKYO
75,20.73,1939,21047662000,TOKYO
76,20.83,1938,21047662000,TOKYO
77,19.63,1937,21047662000,TOKYO
78,21.43,1936,21047662000,TOKYO
79,21.53,1935,21047662000,TOKYO
80,22.03,1934,21047662000,TOKYO
81,21.93,1933,21047662000,TOKYO
82,19.83,1932,21047662000,TOKYO
83,20.43,1931,21047662000,TOKYO
84,21.53,1930,21047662000,TOKYO
85,20.63,1929,21047662000,TOKYO
86,20.68,1928,21047662000,TOKYO
87,20.88,1927,21047662000,TOKYO
88,19.38,1926,21047662000,TOKYO
89,20.48,1925,21047662000,TOKYO
90,19.78,1924,21047662000,TOKYO
91,20.78,1923,21047662000,TOKYO
92,22.08,1922,21047662000,TOKYO
93,19.18,1921,21047662000,TOKYO
94,20.68,1920,21047662000,TOKYO
95,20.28,1919,21047662000,TOKYO
96,20.48,1918,21047662000,TOKYO
97,19.98,1917,21047662000,TOKYO
98,22.98,1916,21047662000,TOKYO
99,22.28,1915,21047662000,TOKYO
100,21.88,1914,21047662000,TOKYO
101,20.68,1913,21047662000,TOKYO
102,20.48,1912,21047662000,TOKYO
103,21.18,1911,21047662000,TOKYO
104,21.08,1910,21047662000,TOKYO
105,20.68,1909,21047662000,TOKYO
106,21.28,1908,21047662000,TOKYO
107,19.58,1907,21047662000,TOKYO
108,18.78,1906,21047662000,TOKYO
109,21.18,1905,21047662000,TOKYO
110,22.18,1904,21047662000,TOKYO
111,20.08,1903,21047662000,TOKYO
112,20.18,1902,21047662000,TOKYO
113,20.98,1901,21047662000,TOKYO
114,19.68,1900,21047662000,TOKYO
115,21.88,1899,21047662000,TOKYO
116,19.58,1898,21047662000,TOKYO
117,19.18,1897,21047662000,TOKYO
118,21.98,1896,21047662000,TOKYO
119,20.78,1895,21047662000,TOKYO
120,23.98,1894,21047662000,TOKYO
121,20.78,1893,21047662000,TOKYO
122,21.48,1892,21047662000,TOKYO
123,20.68,1891,21047662000,TOKYO
124,22.38,1890,21047662000,TOKYO
125,21.28,1889,21047662000,TOKYO
126,18.98,1888,21047662000,TOKYO
127,20.68,1887,21047662000,TOKYO
128,21.18,1886,21047662000,TOKYO
129,20.68,1885,21047662000,TOKYO
130,20.08,1884,21047662000,TOKYO
131,20.08,1883,21047662000,TOKYO
132,20.68,1882,21047662000,TOKYO
133,21.58,1881,21047662000,TOKYO
134,20.08,1880,21047662000,TOKYO
135,21.78,1879,21047662000,TOKYO
136,20.28,1878,21047662000,TOKYO
137,22.28,1877,21047662000,TOKYO
138,18.78,1876,21047662000,TOKYO
