,temp,year,id,name
0,23.0,2017,13060155000,CASABLANCA
1,22.3,2016,13060155000,CASABLANCA
2,22.4,2015,13060155000,CASABLANCA
3,21.2,2014,13060155000,CASABLANCA
4,20.6,2013,13060155000,CASABLANCA
5,22.3,2012,13060155000,CASABLANCA
6,23.1,2011,13060155000,CASABLANCA
7,20.7,2010,13060155000,CASABLANCA
8,23.1,2009,13060155000,CASABLANCA
9,20.9,2007,13060155000,CASABLANCA
10,22.5,2005,13060155000,CASABLANCA
11,22.0,2004,13060155000,CASABLANCA
12,22.2,2003,13060155000,CASABLANCA
13,20.4,2002,13060155000,CASABLANCA
14,21.5,2001,13060155000,CASABLANCA
15,21.5,2000,13060155000,CASABLANCA
16,21.2,1999,13060155000,CASABLANCA
17,21.2,1998,13060155000,CASABLANCA
18,21.2,1997,13060155000,CASABLANCA
19,22.3,1996,13060155000,CASABLANCA
20,20.8,1995,13060155000,CASABLANCA
21,19.4,1992,13060155000,CASABLANCA
22,19.4,1990,13060155000,CASABLANCA
23,21.0,1989,13060155000,CASABLANCA
24,20.0,1988,13060155000,CASABLANCA
25,20.6,1987,13060155000,CASABLANCA
26,19.7,1986,13060155000,CASABLANCA
27,20.6,1985,13060155000,CASABLANCA
28,19.9,1984,13060155000,CASABLANCA
29,20.7,1983,13060155000,CASABLANCA
30,20.3,1980,13060155000,CASABLANCA
31,19.6,1979,13060155000,CASABLANCA
32,18.7,1978,13060155000,CASABLANCA
33,18.7,1977,13060155000,CASABLANCA
34,21.0,1976,13060155000,CASABLANCA
35,19.2,1975,13060155000,CASABLANCA
36,20.0,1974,13060155000,CASABLANCA
37,19.69,1973,13060155000,CASABLANCA
38,17.89,1972,13060155000,CASABLANCA
39,18.79,1971,13060155000,CASABLANCA
40,19.59,1970,13060155000,CASABLANCA
41,19.29,1969,13060155000,CASABLANCA
42,19.89,1968,13060155000,CASABLANCA
43,19.69,1967,13060155000,CASABLANCA
44,19.69,1966,13060155000,CASABLANCA
45,20.59,1965,13060155000,CASABLANCA
46,20.49,1964,13060155000,CASABLANCA
47,19.69,1963,13060155000,CASABLANCA
48,20.19,1962,13060155000,CASABLANCA
49,20.69,1961,13060155000,CASABLANCA
50,20.59,1960,13060155000,CASABLANCA
51,19.69,1959,13060155000,CASABLANCA
52,19.39,1958,13060155000,CASABLANCA
53,19.29,1957,13060155000,CASABLANCA
54,19.89,1956,13060155000,CASABLANCA
55,22.29,1955,13060155000,CASABLANCA
56,19.29,1954,13060155000,CASABLANCA
57,19.69,1953,13060155000,CASABLANCA
58,20.79,1952,13060155000,CASABLANCA
59,20.29,1951,13060155000,CASABLANCA
60,19.79,1950,13060155000,CASABLANCA
61,20.09,1949,13060155000,CASABLANCA
62,21.09,1948,13060155000,CASABLANCA
63,20.39,1947,13060155000,CASABLANCA
64,20.19,1946,13060155000,CASABLANCA
65,21.79,1945,13060155000,CASABLANCA
66,21.39,1944,13060155000,CASABLANCA
67,21.89,1943,13060155000,CASABLANCA
68,20.49,1942,13060155000,CASABLANCA
69,19.79,1941,13060155000,CASABLANCA
70,20.09,1940,13060155000,CASABLANCA
71,19.59,1939,13060155000,CASABLANCA
72,21.09,1938,13060155000,CASABLANCA
73,19.79,1937,13060155000,CASABLANCA
74,18.49,1936,13060155000,CASABLANCA
75,19.29,1935,13060155000,CASABLANCA
76,19.99,1934,13060155000,CASABLANCA
77,19.29,1933,13060155000,CASABLANCA
78,18.99,1932,13060155000,CASABLANCA
79,20.29,1931,13060155000,CASABLANCA
80,18.69,1930,13060155000,CASABLANCA
81,19.49,1929,13060155000,CASABLANCA
82,20.29,1928,13060155000,CASABLANCA
83,20.09,1927,13060155000,CASABLANCA
84,19.99,1926,13060155000,CASABLANCA
85,19.79,1925,13060155000,CASABLANCA
86,21.09,1924,13060155000,CASABLANCA
