,temp,year,id,name
0,19.4,2017,41476680000,MEXICO (CENTR
1,18.1,2016,41476680000,MEXICO (CENTR
2,18.2,2015,41476680000,MEXICO (CENTR
3,18.0,2014,41476680000,MEXICO (CENTR
4,18.5,2013,41476680000,MEXICO (CENTR
5,18.4,2012,41476680000,MEXICO (CENTR
6,19.0,2011,41476680000,MEXICO (CENTR
7,19.1,2009,41476680000,MEXICO (CENTR
8,17.4,2008,41476680000,MEXICO (CENTR
9,17.8,2006,41476680000,MEXICO (CENTR
10,20.6,2005,41476680000,MEXICO (CENTR
11,17.2,2004,41476680000,MEXICO (CENTR
12,18.3,2002,41476680000,MEXICO (CENTR
13,17.6,2001,41476680000,MEXICO (CENTR
14,19.7,1999,41476680000,MEXICO (CENTR
15,20.8,1998,41476680000,MEXICO (CENTR
16,17.5,1994,41476680000,MEXICO (CENTR
17,17.7,1990,41476680000,MEXICO (CENTR
18,18.2,1989,41476680000,MEXICO (CENTR
19,17.8,1988,41476680000,MEXICO (CENTR
20,18.0,1987,41476680000,MEXICO (CENTR
21,16.6,1986,41476680000,MEXICO (CENTR
22,16.9,1985,41476680000,MEXICO (CENTR
23,16.9,1984,41476680000,MEXICO (CENTR
24,18.9,1982,41476680000,MEXICO (CENTR
25,17.2,1981,41476680000,MEXICO (CENTR
26,17.33,1979,41476680000,MEXICO (CENTR
27,16.73,1978,41476680000,MEXICO (CENTR
28,17.13,1977,41476680000,MEXICO (CENTR
29,16.33,1974,41476680000,MEXICO (CENTR
30,17.23,1973,41476680000,MEXICO (CENTR
31,17.13,1972,41476680000,MEXICO (CENTR
32,16.23,1970,41476680000,MEXICO (CENTR
33,19.33,1969,41476680000,MEXICO (CENTR
34,17.03,1965,41476680000,MEXICO (CENTR
35,15.73,1964,41476680000,MEXICO (CENTR
36,17.23,1963,41476680000,MEXICO (CENTR
37,17.03,1962,41476680000,MEXICO (CENTR
38,15.93,1961,41476680000,MEXICO (CENTR
39,17.93,1960,41476680000,MEXICO (CENTR
40,15.03,1956,41476680000,MEXICO (CENTR
41,17.33,1955,41476680000,MEXICO (CENTR
42,16.43,1954,41476680000,MEXICO (CENTR
43,17.63,1953,41476680000,MEXICO (CENTR
44,15.53,1952,41476680000,MEXICO (CENTR
45,17.03,1951,41476680000,MEXICO (CENTR
46,16.03,1950,41476680000,MEXICO (CENTR
47,16.93,1949,41476680000,MEXICO (CENTR
48,17.03,1948,41476680000,MEXICO (CENTR
49,17.43,1947,41476680000,MEXICO (CENTR
50,15.63,1946,41476680000,MEXICO (CENTR
51,17.13,1945,41476680000,MEXICO (CENTR
52,16.83,1944,41476680000,MEXICO (CENTR
53,15.53,1943,41476680000,MEXICO (CENTR
54,16.43,1942,41476680000,MEXICO (CENTR
55,16.76,1941,41476680000,MEXICO (CENTR
56,16.96,1940,41476680000,MEXICO (CENTR
57,16.26,1939,41476680000,MEXICO (CENTR
58,16.26,1938,41476680000,MEXICO (CENTR
59,16.26,1937,41476680000,MEXICO (CENTR
60,17.76,1936,41476680000,MEXICO (CENTR
61,16.06,1935,41476680000,MEXICO (CENTR
62,17.56,1934,41476680000,MEXICO (CENTR
63,16.76,1933,41476680000,MEXICO (CENTR
64,17.36,1932,41476680000,MEXICO (CENTR
65,16.96,1931,41476680000,MEXICO (CENTR
66,16.06,1930,41476680000,MEXICO (CENTR
67,16.36,1929,41476680000,MEXICO (CENTR
68,17.66,1928,41476680000,MEXICO (CENTR
69,16.66,1927,41476680000,MEXICO (CENTR
70,16.66,1926,41476680000,MEXICO (CENTR
71,15.76,1925,41476680000,MEXICO (CENTR
72,16.46,1924,41476680000,MEXICO (CENTR
73,17.06,1923,41476680000,MEXICO (CENTR
74,15.66,1922,41476680000,MEXICO (CENTR
75,17.26,1921,41476680000,MEXICO (CENTR
76,15.86,1920,41476680000,MEXICO (CENTR
77,17.26,1919,41476680000,MEXICO (CENTR
78,15.66,1918,41476680000,MEXICO (CENTR
79,15.06,1917,41476680000,MEXICO (CENTR
