,temp,year,id,name
0,26.3,2017,15260715000,TUNIS-CARTHAG
1,25.0,2016,15260715000,TUNIS-CARTHAG
2,25.1,2015,15260715000,TUNIS-CARTHAG
3,26.1,2014,15260715000,TUNIS-CARTHAG
4,23.6,2013,15260715000,TUNIS-CARTHAG
5,27.3,2012,15260715000,TUNIS-CARTHAG
6,24.5,2011,15260715000,TUNIS-CARTHAG
7,24.4,2010,15260715000,TUNIS-CARTHAG
8,25.6,2009,15260715000,TUNIS-CARTHAG
9,25.3,2008,15260715000,TUNIS-CARTHAG
10,25.7,2007,15260715000,TUNIS-CARTHAG
11,25.5,2006,15260715000,TUNIS-CARTHAG
12,25.8,2005,15260715000,TUNIS-CARTHAG
13,24.2,2004,15260715000,TUNIS-CARTHAG
14,27.6,2003,15260715000,TUNIS-CARTHAG
15,25.6,2002,15260715000,TUNIS-CARTHAG
16,25.5,2001,15260715000,TUNIS-CARTHAG
17,26.1,1999,15260715000,TUNIS-CARTHAG
18,26.4,1998,15260715000,TUNIS-CARTHAG
19,26.47,1997,15260715000,TUNIS-CARTHAG
20,23.37,1996,15260715000,TUNIS-CARTHAG
21,24.07,1995,15260715000,TUNIS-CARTHAG
22,24.87,1994,15260715000,TUNIS-CARTHAG
23,22.57,1993,15260715000,TUNIS-CARTHAG
24,23.37,1992,15260715000,TUNIS-CARTHAG
25,22.87,1991,15260715000,TUNIS-CARTHAG
26,23.37,1990,15260715000,TUNIS-CARTHAG
27,23.57,1987,15260715000,TUNIS-CARTHAG
28,23.17,1986,15260715000,TUNIS-CARTHAG
29,24.07,1985,15260715000,TUNIS-CARTHAG
30,23.07,1984,15260715000,TUNIS-CARTHAG
31,23.67,1983,15260715000,TUNIS-CARTHAG
32,26.37,1982,15260715000,TUNIS-CARTHAG
33,23.67,1981,15260715000,TUNIS-CARTHAG
34,22.77,1980,15260715000,TUNIS-CARTHAG
35,24.77,1979,15260715000,TUNIS-CARTHAG
36,23.17,1978,15260715000,TUNIS-CARTHAG
37,22.57,1977,15260715000,TUNIS-CARTHAG
38,22.37,1976,15260715000,TUNIS-CARTHAG
39,22.17,1975,15260715000,TUNIS-CARTHAG
40,23.87,1974,15260715000,TUNIS-CARTHAG
41,24.17,1973,15260715000,TUNIS-CARTHAG
42,22.87,1972,15260715000,TUNIS-CARTHAG
43,23.07,1971,15260715000,TUNIS-CARTHAG
44,23.71,1966,15260715000,TUNIS-CARTHAG
45,23.31,1965,15260715000,TUNIS-CARTHAG
46,23.81,1964,15260715000,TUNIS-CARTHAG
47,22.31,1963,15260715000,TUNIS-CARTHAG
48,22.11,1962,15260715000,TUNIS-CARTHAG
49,23.51,1961,15260715000,TUNIS-CARTHAG
50,23.59,1960,15260715000,TUNIS-CARTHAG
51,22.89,1959,15260715000,TUNIS-CARTHAG
52,23.59,1958,15260715000,TUNIS-CARTHAG
53,22.99,1957,15260715000,TUNIS-CARTHAG
54,21.49,1956,15260715000,TUNIS-CARTHAG
55,23.79,1955,15260715000,TUNIS-CARTHAG
56,24.89,1954,15260715000,TUNIS-CARTHAG
57,22.59,1953,15260715000,TUNIS-CARTHAG
58,24.53,1950,15260715000,TUNIS-CARTHAG
59,23.93,1949,15260715000,TUNIS-CARTHAG
60,22.63,1948,15260715000,TUNIS-CARTHAG
61,24.43,1947,15260715000,TUNIS-CARTHAG
62,23.23,1946,15260715000,TUNIS-CARTHAG
63,25.43,1945,15260715000,TUNIS-CARTHAG
64,23.43,1942,15260715000,TUNIS-CARTHAG
65,22.33,1941,15260715000,TUNIS-CARTHAG
66,21.93,1940,15260715000,TUNIS-CARTHAG
67,22.03,1939,15260715000,TUNIS-CARTHAG
68,23.13,1938,15260715000,TUNIS-CARTHAG
69,24.43,1937,15260715000,TUNIS-CARTHAG
70,21.53,1936,15260715000,TUNIS-CARTHAG
71,23.43,1935,15260715000,TUNIS-CARTHAG
72,23.53,1934,15260715000,TUNIS-CARTHAG
73,21.33,1933,15260715000,TUNIS-CARTHAG
74,22.03,1932,15260715000,TUNIS-CARTHAG
75,25.93,1931,15260715000,TUNIS-CARTHAG
76,24.03,1930,15260715000,TUNIS-CARTHAG
77,22.93,1929,15260715000,TUNIS-CARTHAG
78,23.23,1928,15260715000,TUNIS-CARTHAG
79,24.93,1927,15260715000,TUNIS-CARTHAG
80,21.83,1926,15260715000,TUNIS-CARTHAG
81,23.93,1925,15260715000,TUNIS-CARTHAG
82,23.83,1924,15260715000,TUNIS-CARTHAG
83,19.43,1923,15260715000,TUNIS-CARTHAG
84,23.93,1922,15260715000,TUNIS-CARTHAG
85,22.73,1921,15260715000,TUNIS-CARTHAG
86,22.33,1920,15260715000,TUNIS-CARTHAG
87,21.83,1919,15260715000,TUNIS-CARTHAG
88,20.63,1918,15260715000,TUNIS-CARTHAG
89,23.13,1917,15260715000,TUNIS-CARTHAG
90,23.03,1916,15260715000,TUNIS-CARTHAG
91,22.73,1915,15260715000,TUNIS-CARTHAG
92,21.93,1914,15260715000,TUNIS-CARTHAG
93,22.13,1913,15260715000,TUNIS-CARTHAG
94,20.83,1912,15260715000,TUNIS-CARTHAG
95,22.33,1911,15260715000,TUNIS-CARTHAG
96,21.43,1910,15260715000,TUNIS-CARTHAG
97,22.83,1908,15260715000,TUNIS-CARTHAG
98,22.53,1907,15260715000,TUNIS-CARTHAG
99,21.63,1906,15260715000,TUNIS-CARTHAG
100,21.93,1905,15260715000,TUNIS-CARTHAG
101,23.23,1904,15260715000,TUNIS-CARTHAG
102,20.03,1903,15260715000,TUNIS-CARTHAG
103,21.33,1902,15260715000,TUNIS-CARTHAG
104,23.73,1901,15260715000,TUNIS-CARTHAG
105,21.83,1900,15260715000,TUNIS-CARTHAG
106,21.13,1899,15260715000,TUNIS-CARTHAG
107,22.13,1898,15260715000,TUNIS-CARTHAG
108,23.93,1897,15260715000,TUNIS-CARTHAG
109,22.33,1896,15260715000,TUNIS-CARTHAG
110,22.93,1892,15260715000,TUNIS-CARTHAG
111,22.13,1890,15260715000,TUNIS-CARTHAG
112,22.63,1889,15260715000,TUNIS-CARTHAG
113,23.43,1887,15260715000,TUNIS-CARTHAG
