,date,home_team,away_team,home_score,away_score,tournament,city,country,neutral
30827,2009-05-20,Argentina,Panama,3,1,Friendly,Santa Fe,Argentina,False
37410,2016-06-10,Argentina,Panama,5,0,Copa América,Chicago,USA,True
