,date,home_team,away_team,home_score,away_score,tournament,city,country,neutral
2459,1945-02-07,Argentina,Colombia,9,1,Copa América,Santiago,Chile,True
2725,1947-12-18,Argentina,Colombia,6,0,Copa América,Guayaquil,Ecuador,True
4037,1957-03-13,Argentina,Colombia,8,2,Copa América,Lima,Peru,True
5262,1963-03-10,Argentina,Colombia,4,2,Copa América,Cochabamba,Bolivia,True
8149,1972-06-22,Argentina,Colombia,4,1,Brazil Independence Cup,Salvador,Brazil,True
13078,1984-08-24,Colombia,Argentina,1,0,Friendly,Bogotá,Colombia,False
13648,1985-06-02,Colombia,Argentina,1,3,FIFA World Cup qualification,Bogotá,Colombia,False
13674,1985-06-16,Argentina,Colombia,1,0,FIFA World Cup qualification,Buenos Aires,Argentina,False
14492,1987-07-11,Argentina,Colombia,1,2,Copa América,Buenos Aires,Argentina,False
15291,1989-03-09,Colombia,Argentina,1,0,Friendly,Barranquilla,Colombia,False
16492,1991-07-21,Argentina,Colombia,2,1,Copa América,Santiago,Chile,True
17696,1993-06-23,Argentina,Colombia,1,1,Copa América,Guayaquil,Ecuador,True
17716,1993-07-01,Colombia,Argentina,0,0,Copa América,Guayaquil,Ecuador,True
17803,1993-08-15,Colombia,Argentina,2,1,FIFA World Cup qualification,Barranquilla,Colombia,False
17819,1993-09-05,Argentina,Colombia,0,5,FIFA World Cup qualification,Buenos Aires,Argentina,False
19001,1995-10-11,Argentina,Colombia,0,0,Friendly,Buenos Aires,Argentina,False
20050,1997-02-12,Colombia,Argentina,0,1,FIFA World Cup qualification,Barranquilla,Colombia,False
20766,1997-11-16,Argentina,Colombia,1,1,FIFA World Cup qualification,Buenos Aires,Argentina,False
21913,1999-07-04,Argentina,Colombia,0,3,Copa América,Luque,Paraguay,True
22115,1999-10-13,Argentina,Colombia,2,1,Friendly,Córdoba,Argentina,False
22846,2000-06-29,Colombia,Argentina,1,3,FIFA World Cup qualification,Bogotá,Colombia,False
23782,2001-06-03,Argentina,Colombia,3,0,FIFA World Cup qualification,Buenos Aires,Argentina,False
25801,2003-11-19,Colombia,Argentina,1,1,FIFA World Cup qualification,Barranquilla,Colombia,False
26402,2004-06-27,Argentina,Colombia,0,2,Friendly,Miami,USA,True
26467,2004-07-20,Argentina,Colombia,3,0,Copa América,Lima,Peru,True
27132,2005-03-30,Argentina,Colombia,1,0,FIFA World Cup qualification,Buenos Aires,Argentina,False
28986,2007-07-02,Argentina,Colombia,4,2,Copa América,Maracaibo,Venezuela,True
29402,2007-11-20,Colombia,Argentina,2,1,FIFA World Cup qualification,Bogotá,Colombia,False
30861,2009-06-06,Argentina,Colombia,1,0,FIFA World Cup qualification,Buenos Aires,Argentina,False
32661,2011-07-06,Argentina,Colombia,0,0,Copa América,Santa Fe,Argentina,False
33182,2011-11-15,Colombia,Argentina,1,2,FIFA World Cup qualification,Barranquilla,Colombia,False
34631,2013-06-07,Argentina,Colombia,0,0,FIFA World Cup qualification,Buenos Aires,Argentina,False
36502,2015-06-26,Argentina,Colombia,0,0,Copa América,Viña del Mar,Chile,True
36944,2015-11-17,Colombia,Argentina,0,1,FIFA World Cup qualification,Barranquilla,Colombia,False
37856,2016-11-15,Argentina,Colombia,3,0,FIFA World Cup qualification,San Juan,Argentina,False
