,date,home_team,away_team,home_score,away_score,tournament,city,country,neutral
568,1921-05-21,Belgium,England,0,2,Friendly,Brussels,Belgium,False
681,1923-03-19,England,Belgium,6,1,Friendly,London,England,False
736,1923-11-01,Belgium,England,2,2,Friendly,Antwerp,Belgium,False
831,1924-12-08,England,Belgium,4,0,Friendly,West Bromwich,England,False
939,1926-05-24,Belgium,England,3,5,Friendly,Antwerp,Belgium,False
1014,1927-05-11,Belgium,England,1,9,Friendly,Brussels,Belgium,False
1104,1928-05-19,Belgium,England,1,3,Friendly,Antwerp,Belgium,False
1173,1929-05-11,Belgium,England,1,5,Friendly,Forest,Belgium,False
1362,1931-05-16,Belgium,England,1,4,Friendly,Brussels,Belgium,False
1837,1936-05-09,Belgium,England,3,2,Friendly,Brussels,Belgium,False
2516,1946-01-19,England,Belgium,2,0,Friendly,London,England,False
2677,1947-09-21,Belgium,England,2,5,Friendly,Brussels,Belgium,False
3046,1950-05-18,Belgium,England,1,4,Friendly,Brussels,Belgium,False
3348,1952-11-26,England,Belgium,5,0,Friendly,London,England,False
3590,1954-06-17,Belgium,England,4,4,FIFA World Cup,Basel,Switzerland,True
5637,1964-10-21,England,Belgium,2,2,Friendly,London,England,False
7312,1970-02-25,Belgium,England,1,3,Friendly,Brussels,Belgium,False
11184,1980-06-12,Belgium,England,1,1,UEFA Euro,Turin,Italy,True
16028,1990-06-26,England,Belgium,1,0,FIFA World Cup,Bologna,Italy,True
21086,1998-05-29,Belgium,England,0,0,King Hassan II Tournament,Casablanca,Morocco,True
22110,1999-10-10,England,Belgium,2,1,Friendly,Sunderland,England,False
33564,2012-06-02,England,Belgium,1,0,Friendly,London,England,False
