,date,home_team,away_team,home_score,away_score,tournament,city,country,neutral
26793,2004-11-17,Belgium,Serbia,0,2,FIFA World Cup qualification,Brussels,Belgium,False
27230,2005-06-04,Serbia,Belgium,0,0,FIFA World Cup qualification,Belgrade,Serbia and Montenegro,True
28342,2006-10-07,Serbia,Belgium,1,0,UEFA Euro qualification,Belgrade,Serbia,False
29065,2007-08-22,Belgium,Serbia,3,2,UEFA Euro qualification,Brussels,Belgium,False
34019,2012-10-12,Serbia,Belgium,0,3,FIFA World Cup qualification,Belgrade,Serbia,False
34635,2013-06-07,Belgium,Serbia,2,1,FIFA World Cup qualification,Brussels,Belgium,False
