,date,home_team,away_team,home_score,away_score,tournament,city,country,neutral
18262,1994-06-29,Belgium,Saudi Arabia,0,1,FIFA World Cup,Washington,USA,True
27920,2006-05-11,Belgium,Saudi Arabia,2,1,Friendly,Sittard,Netherlands,True
38876,2018-03-27,Belgium,Saudi Arabia,4,0,Friendly,Brussels,Belgium,False
