,date,home_team,away_team,home_score,away_score,tournament,city,country,neutral
5336,1963-05-05,Germany,Brazil,1,2,Friendly,Hamburg,Germany,False
5810,1965-06-06,Brazil,Germany,2,0,Friendly,Rio de Janeiro,Brazil,False
6737,1968-06-16,Germany,Brazil,2,1,Friendly,Stuttgart,Germany,False
6926,1968-12-14,Brazil,Germany,2,2,Friendly,Rio de Janeiro,Brazil,False
8552,1973-06-16,Germany,Brazil,0,1,Friendly,Berlin,Germany,False
10082,1977-06-12,Brazil,Germany,1,1,Friendly,Rio de Janeiro,Brazil,False
10365,1978-04-05,Germany,Brazil,0,1,Friendly,Hamburg,Germany,False
11514,1981-01-07,Brazil,Germany,4,1,Mundialito,Montevideo,Uruguay,True
11683,1981-05-19,Germany,Brazil,1,2,Friendly,Stuttgart,Germany,False
12072,1982-03-21,Brazil,Germany,1,0,Friendly,Rio de Janeiro,Brazil,False
14000,1986-03-12,Germany,Brazil,2,0,Friendly,Frankfurt am Main,Germany,False
14614,1987-12-12,Brazil,Germany,1,1,Friendly,Brasília,Brazil,False
17234,1992-12-16,Brazil,Germany,3,1,Friendly,Porto Alegre,Brazil,False
17649,1993-06-10,Brazil,Germany,3,3,USA Cup,Washington,USA,True
17929,1993-11-17,Germany,Brazil,2,1,Friendly,Cologne,Germany,False
20988,1998-03-25,Germany,Brazil,1,2,Friendly,Stuttgart,Germany,False
21944,1999-07-24,Brazil,Germany,4,0,Confederations Cup,Guadalajara,Mexico,True
24599,2002-06-30,Germany,Brazil,0,2,FIFA World Cup,Yokohama,Japan,True
26612,2004-09-08,Germany,Brazil,1,1,Friendly,Berlin,Germany,False
27321,2005-06-25,Germany,Brazil,2,3,Confederations Cup,Nuremberg,Germany,False
32756,2011-08-10,Germany,Brazil,3,2,Friendly,Stuttgart,Germany,False
35591,2014-07-08,Brazil,Germany,1,7,FIFA World Cup,Belo Horizonte,Brazil,False
38883,2018-03-27,Germany,Brazil,0,1,Friendly,Berlin,Germany,False
