,date,home_team,away_team,home_score,away_score,tournament,city,country,neutral
27382,2005-08-17,Croatia,Brazil,1,1,Friendly,Split,Croatia,False
28032,2006-06-13,Brazil,Croatia,1,0,FIFA World Cup,Berlin,Germany,True
35524,2014-06-12,Brazil,Croatia,3,1,FIFA World Cup,São Paulo,Brazil,False
38997,2018-06-03,Croatia,Brazil,0,2,Friendly,Liverpool,England,True
