,date,home_team,away_team,home_score,away_score,tournament,city,country,neutral
18156,1994-05-04,Brazil,Iceland,3,0,Friendly,Florianópolis,Brazil,False
24374,2002-03-07,Brazil,Iceland,6,1,Friendly,Cuiabá,Brazil,False
