,date,home_team,away_team,home_score,away_score,tournament,city,country,neutral
2086,1938-08-08,Colombia,Peru,2,4,Friendly,Bogotá,Colombia,False
2730,1947-12-23,Colombia,Peru,1,5,Copa América,Guayaquil,Ecuador,True
2878,1949-04-10,Colombia,Peru,0,4,Copa América,Rio de Janeiro,Brazil,True
4049,1957-03-27,Peru,Colombia,4,1,Copa América,Lima,Peru,False
4845,1961-04-30,Colombia,Peru,1,0,FIFA World Cup qualification,Bogotá,Colombia,False
4854,1961-05-07,Peru,Colombia,1,1,FIFA World Cup qualification,Lima,Peru,False
5281,1963-03-24,Colombia,Peru,1,1,Copa América,La Paz,Bolivia,True
7026,1969-05-08,Colombia,Peru,1,3,Friendly,Bogotá,Colombia,False
7063,1969-06-18,Peru,Colombia,1,1,Friendly,Lima,Peru,False
8033,1972-03-29,Colombia,Peru,1,1,Friendly,Bogotá,Colombia,False
8565,1973-07-01,Peru,Colombia,3,1,Friendly,Lima,Peru,False
9425,1975-10-16,Colombia,Peru,1,0,Copa América,Bogotá,Colombia,False
9430,1975-10-22,Peru,Colombia,2,0,Copa América,Lima,Peru,False
9433,1975-10-28,Colombia,Peru,0,1,Copa América,Caracas,Venezuela,True
10810,1979-07-18,Peru,Colombia,0,1,Friendly,Lima,Peru,False
10821,1979-07-25,Colombia,Peru,1,2,Friendly,Bogotá,Colombia,False
11767,1981-07-26,Colombia,Peru,1,1,FIFA World Cup qualification,Bogotá,Colombia,False
11790,1981-08-16,Peru,Colombia,2,0,FIFA World Cup qualification,Lima,Peru,False
12613,1983-08-17,Peru,Colombia,1,0,Copa América,Lima,Peru,False
12631,1983-08-28,Colombia,Peru,2,2,Copa América,Bogotá,Colombia,False
13056,1984-08-09,Peru,Colombia,0,0,Friendly,Lima,Peru,False
13637,1985-05-26,Colombia,Peru,1,0,FIFA World Cup qualification,Bogotá,Colombia,False
13668,1985-06-09,Peru,Colombia,0,0,FIFA World Cup qualification,Lima,Peru,False
15244,1989-02-03,Colombia,Peru,1,0,Friendly,Pereira,Colombia,False
15558,1989-07-09,Colombia,Peru,1,1,Copa América,Recife,Brazil,True
17796,1993-08-08,Peru,Colombia,0,1,FIFA World Cup qualification,Lima,Peru,False
17816,1993-08-29,Colombia,Peru,4,0,FIFA World Cup qualification,Barranquilla,Colombia,False
18152,1994-05-03,Colombia,Peru,1,0,Friendly,Miami,USA,True
18852,1995-07-07,Colombia,Peru,1,1,Copa América,Rivera,Uruguay,True
19461,1996-06-02,Peru,Colombia,1,1,FIFA World Cup qualification,Lima,Peru,False
20282,1997-04-30,Colombia,Peru,0,1,FIFA World Cup qualification,Barranquilla,Colombia,False
20588,1997-08-24,Peru,Colombia,2,1,Friendly,Lima,Peru,False
21868,1999-06-17,Colombia,Peru,3,3,Friendly,Manizales,Colombia,False
22378,2000-02-23,Colombia,Peru,2,1,Gold Cup,San Diego,USA,True
22910,2000-07-19,Peru,Colombia,0,1,FIFA World Cup qualification,Lima,Peru,False
23926,2001-07-23,Colombia,Peru,3,0,Copa América,Armenia,Colombia,False
23988,2001-08-16,Colombia,Peru,0,1,FIFA World Cup qualification,Bogotá,Colombia,False
26093,2004-03-31,Peru,Colombia,0,2,FIFA World Cup qualification,Lima,Peru,False
26447,2004-07-12,Peru,Colombia,2,2,Copa América,Trujillo,Peru,False
27213,2005-06-04,Colombia,Peru,5,0,FIFA World Cup qualification,Barranquilla,Colombia,False
29160,2007-09-08,Peru,Colombia,2,2,Friendly,Lima,Peru,False
29952,2008-06-14,Peru,Colombia,1,1,FIFA World Cup qualification,Lima,Peru,False
30906,2009-06-10,Colombia,Peru,1,0,FIFA World Cup qualification,Medellín,Colombia,False
32119,2010-11-17,Colombia,Peru,1,1,Friendly,Bogotá,Colombia,False
32693,2011-07-16,Colombia,Peru,0,2,Copa América,Córdoba,Argentina,True
33591,2012-06-03,Peru,Colombia,0,1,FIFA World Cup qualification,Lima,Peru,False
34682,2013-06-11,Colombia,Peru,2,0,FIFA World Cup qualification,Barranquilla,Colombia,False
36490,2015-06-21,Colombia,Peru,0,0,Copa América,Temuco,Chile,True
36702,2015-10-08,Colombia,Peru,2,0,FIFA World Cup qualification,Barranquilla,Colombia,False
37455,2016-06-17,Peru,Colombia,0,0,Copa América,East Rutherford,USA,True
38589,2017-10-10,Peru,Colombia,1,1,FIFA World Cup qualification,Lima,Peru,False
