,date,home_team,away_team,home_score,away_score,tournament,city,country,neutral
11235,1980-07-09,Colombia,Poland,1,4,Friendly,Bogotá,Colombia,False
13379,1985-02-10,Colombia,Poland,1,2,Friendly,Bogotá,Colombia,False
13391,1985-02-14,Colombia,Poland,1,0,Friendly,Cali,Colombia,False
15920,1990-05-04,Colombia,Poland,2,1,Friendly,Chicago,USA,True
27976,2006-05-30,Poland,Colombia,1,2,Friendly,Chorzów,Poland,False
