,date,home_team,away_team,home_score,away_score,tournament,city,country,neutral
25258,2003-04-30,Sweden,Croatia,1,2,Friendly,Solna,Sweden,False
26639,2004-09-08,Sweden,Croatia,0,1,FIFA World Cup qualification,Gothenburg,Sweden,False
27519,2005-10-08,Croatia,Sweden,1,0,FIFA World Cup qualification,Zagreb,Croatia,False
33383,2012-02-29,Croatia,Sweden,1,3,Friendly,Zagreb,Croatia,False
