,date,home_team,away_team,home_score,away_score,tournament,city,country,neutral
7776,1971-07-28,Denmark,Japan,3,2,Friendly,Copenhagen,Denmark,False
31713,2010-06-24,Denmark,Japan,1,3,FIFA World Cup,Rustenburg,South Africa,True
