,date,home_team,away_team,home_score,away_score,tournament,city,country,neutral
2566,1946-07-17,Iceland,Denmark,0,3,Friendly,Reykjavík,Iceland,False
2953,1949-08-07,Denmark,Iceland,5,1,Friendly,Århus,Denmark,False
3456,1953-08-09,Denmark,Iceland,4,0,Friendly,Copenhagen,Denmark,False
3734,1955-07-03,Iceland,Denmark,0,4,Friendly,Reykjavík,Iceland,False
4132,1957-07-10,Iceland,Denmark,2,6,Friendly,Reykjavík,Iceland,False
5831,1965-07-05,Iceland,Denmark,1,3,Friendly,Reykjavík,Iceland,False
6503,1967-08-23,Denmark,Iceland,14,2,Friendly,Copenhagen,Denmark,False
7424,1970-07-07,Iceland,Denmark,0,0,Friendly,Reykjavík,Iceland,False
8168,1972-07-03,Iceland,Denmark,2,5,Friendly,Reykjavík,Iceland,False
9045,1974-10-09,Denmark,Iceland,2,1,Friendly,Aalborg,Denmark,False
10475,1978-06-28,Iceland,Denmark,0,0,Friendly,Reykjavík,Iceland,False
11798,1981-08-26,Denmark,Iceland,3,0,Friendly,Copenhagen,Denmark,False
15031,1988-09-28,Denmark,Iceland,1,0,Friendly,Copenhagen,Denmark,False
16519,1991-09-04,Iceland,Denmark,0,0,Friendly,Reykjavík,Iceland,False
23000,2000-09-02,Iceland,Denmark,1,2,FIFA World Cup qualification,Reykjavík,Iceland,False
24091,2001-10-06,Denmark,Iceland,6,0,FIFA World Cup qualification,Copenhagen,Denmark,False
28248,2006-09-06,Iceland,Denmark,0,2,UEFA Euro qualification,Reykjavík,Iceland,False
29414,2007-11-21,Denmark,Iceland,3,0,UEFA Euro qualification,Copenhagen,Denmark,False
31873,2010-09-07,Denmark,Iceland,1,0,UEFA Euro qualification,Copenhagen,Denmark,False
32546,2011-06-04,Iceland,Denmark,0,2,UEFA Euro qualification,Reykjavík,Iceland,False
37102,2016-03-24,Denmark,Iceland,2,1,Friendly,Herning,Denmark,False
