,date,home_team,away_team,home_score,away_score,tournament,city,country,neutral
9027,1974-09-25,Denmark,Spain,1,2,UEFA Euro qualification,Copenhagen,Denmark,False
9419,1975-10-12,Spain,Denmark,2,0,UEFA Euro qualification,Barcelona,Spain,False
10979,1979-11-14,Spain,Denmark,1,3,Friendly,Cádiz,Spain,False
11154,1980-05-21,Denmark,Spain,2,2,Friendly,Copenhagen,Denmark,False
12929,1984-04-11,Spain,Denmark,2,1,Friendly,Valencia,Spain,False
13002,1984-06-24,Denmark,Spain,1,1,UEFA Euro,Lyon,France,True
14147,1986-06-18,Denmark,Spain,1,5,FIFA World Cup,Querétaro,Mexico,True
14886,1988-06-11,Denmark,Spain,2,3,UEFA Euro,Hanover,Germany,True
17403,1993-03-31,Denmark,Spain,1,0,FIFA World Cup qualification,Copenhagen,Denmark,False
17936,1993-11-17,Spain,Denmark,1,0,FIFA World Cup qualification,Seville,Spain,False
18476,1994-11-16,Spain,Denmark,3,0,UEFA Euro qualification,Seville,Spain,False
19006,1995-10-11,Denmark,Spain,1,1,UEFA Euro qualification,Copenhagen,Denmark,False
26101,2004-03-31,Spain,Denmark,2,0,Friendly,Gijón,Spain,False
28705,2007-03-24,Spain,Denmark,2,1,UEFA Euro qualification,Madrid,Spain,False
29249,2007-10-13,Denmark,Spain,1,3,UEFA Euro qualification,Århus,Denmark,False
30122,2008-08-20,Denmark,Spain,0,3,Friendly,Copenhagen,Denmark,False
