,date,home_team,away_team,home_score,away_score,tournament,city,country,neutral
8751,1973-11-21,France,Denmark,3,0,Friendly,Paris,France,False
9732,1976-09-01,Denmark,France,1,1,Friendly,Copenhagen,Denmark,False
12646,1983-09-07,Denmark,France,3,1,Friendly,Copenhagen,Denmark,False
12976,1984-06-12,France,Denmark,1,0,UEFA Euro,Paris,France,False
16870,1992-06-17,France,Denmark,1,2,UEFA Euro,Malmö,Sweden,True
19852,1996-11-09,Denmark,France,1,0,Friendly,Copenhagen,Denmark,False
21163,1998-06-24,France,Denmark,2,1,FIFA World Cup,Lyon,France,False
22768,2000-06-11,France,Denmark,3,0,UEFA Euro,Bruges,Belgium,True
23973,2001-08-15,France,Denmark,1,0,Friendly,Nantes,France,False
24565,2002-06-11,Denmark,France,2,0,FIFA World Cup,Incheon,Korea Republic,True
27980,2006-05-31,France,Denmark,2,0,Friendly,Lens,France,False
36236,2015-03-29,France,Denmark,2,0,Friendly,Saint-Étienne,France,False
36760,2015-10-11,Denmark,France,1,2,Friendly,Copenhagen,Denmark,False
