,date,home_team,away_team,home_score,away_score,tournament,city,country,neutral
9547,1976-03-09,Egypt,Morocco,1,2,African Cup of Nations,Addis Abeba,Ethiopia,True
11094,1980-03-21,Egypt,Morocco,0,2,African Cup of Nations,Lagos,Nigeria,True
11650,1981-04-26,Morocco,Egypt,1,0,FIFA World Cup qualification,Casablanca,Morocco,False
11670,1981-05-08,Egypt,Morocco,0,0,FIFA World Cup qualification,Cairo,Egypt,False
13717,1985-07-12,Egypt,Morocco,0,0,FIFA World Cup qualification,Cairo,Egypt,False
13728,1985-07-28,Morocco,Egypt,2,0,FIFA World Cup qualification,Casablanca,Morocco,False
14012,1986-03-17,Egypt,Morocco,1,0,African Cup of Nations,Cairo,Egypt,False
15168,1988-12-06,Morocco,Egypt,0,0,Friendly,Casablanca,Morocco,False
17164,1992-11-08,Morocco,Egypt,0,0,African Cup of Nations qualification,Casablanca,Morocco,False
17741,1993-07-11,Egypt,Morocco,1,1,African Cup of Nations qualification,Alexandria,Egypt,False
18002,1994-02-02,Egypt,Morocco,1,1,United Arab Emirates Friendship Tournament,Sharjah,United Arab Emirates,True
18747,1995-05-18,Morocco,Egypt,0,0,Friendly,Marrakech,Morocco,False
19282,1996-03-20,Egypt,Morocco,0,2,United Arab Emirates Friendship Tournament,Dubai,United Arab Emirates,True
20452,1997-06-21,Morocco,Egypt,1,0,African Cup of Nations qualification,Rabat,Morocco,False
20929,1998-02-17,Egypt,Morocco,0,1,African Cup of Nations,Ouagadougou,Burkina Faso,True
23308,2001-01-28,Egypt,Morocco,0,0,FIFA World Cup qualification,Cairo,Egypt,False
23866,2001-06-30,Morocco,Egypt,1,0,FIFA World Cup qualification,Rabat,Morocco,False
27744,2006-01-24,Egypt,Morocco,0,0,African Cup of Nations,Cairo,Egypt,False
37971,2017-01-29,Egypt,Morocco,1,0,African Cup of Nations,Port-Gentil,Gabon,True
