,date,home_team,away_team,home_score,away_score,tournament,city,country,neutral
2633,1947-05-25,Portugal,England,0,10,Friendly,Oeiras,Portugal,False
3045,1950-05-14,Portugal,England,3,5,Friendly,Oeiras,Portugal,False
3170,1951-05-19,England,Portugal,5,2,Friendly,Liverpool,England,False
3717,1955-05-22,Portugal,England,3,1,Friendly,Porto,Portugal,False
4272,1958-05-07,England,Portugal,2,1,Friendly,London,England,False
4868,1961-05-21,Portugal,England,1,1,FIFA World Cup qualification,Oeiras,Portugal,False
4955,1961-10-25,England,Portugal,2,0,FIFA World Cup qualification,London,England,False
5544,1964-05-17,Portugal,England,3,4,Friendly,Oeiras,Portugal,False
5561,1964-06-04,England,Portugal,1,1,Friendly,São Paulo,Brazil,True
6170,1966-07-26,England,Portugal,2,1,FIFA World Cup,London,England,False
7275,1969-12-10,England,Portugal,1,0,Friendly,London,England,False
8873,1974-04-03,Portugal,England,0,0,Friendly,Lisbon,Portugal,False
9090,1974-11-20,England,Portugal,0,0,UEFA Euro qualification,London,England,False
9456,1975-11-19,Portugal,England,1,1,UEFA Euro qualification,Lisbon,Portugal,False
14107,1986-06-03,Portugal,England,1,0,FIFA World Cup,Monterrey,Mexico,True
19144,1995-12-12,England,Portugal,1,1,Friendly,London,England,False
21028,1998-04-22,England,Portugal,3,0,Friendly,London,England,False
22779,2000-06-12,Portugal,England,3,2,UEFA Euro,Eindhoven,Netherlands,True
24724,2002-09-07,England,Portugal,1,1,Friendly,Birmingham,England,False
26006,2004-02-18,Portugal,England,1,1,Friendly,Faro,Portugal,False
26397,2004-06-24,Portugal,England,2,2,UEFA Euro,Lisbon,Portugal,False
28087,2006-07-01,England,Portugal,0,0,FIFA World Cup,Gelsenkirchen,Germany,True
37315,2016-06-02,England,Portugal,1,0,Friendly,London,England,False
