,date,home_team,away_team,home_score,away_score,tournament,city,country,neutral
690,1923-05-10,France,England,1,4,Friendly,Vincennes,France,False
773,1924-05-17,France,England,1,3,Friendly,Vincennes,France,False
855,1925-05-21,France,England,2,3,Friendly,Colombes,France,False
1020,1927-05-26,France,England,0,6,Friendly,Colombes,France,False
1103,1928-05-17,France,England,1,5,Friendly,Colombes,France,False
1171,1929-05-09,France,England,1,4,Friendly,Colombes,France,False
1360,1931-05-14,France,England,5,2,Friendly,Colombes,France,False
1603,1933-12-06,England,France,4,1,Friendly,London,England,False
2046,1938-05-26,France,England,2,4,Friendly,Colombes,France,False
2477,1945-05-26,England,France,2,2,Friendly,London,England,False
2553,1946-05-19,France,England,2,1,Friendly,Colombes,France,False
2620,1947-05-03,England,France,3,0,Friendly,London,England,False
2929,1949-05-22,France,England,1,3,Friendly,Colombes,France,False
3211,1951-10-03,England,France,2,2,Friendly,London,England,False
3710,1955-05-15,France,England,1,0,Friendly,Colombes,France,False
4230,1957-11-27,England,France,4,0,Friendly,London,England,False
5156,1962-10-03,England,France,1,1,UEFA Euro qualification,Sheffield,England,False
5251,1963-02-27,France,England,5,2,UEFA Euro qualification,Paris,France,False
6162,1966-07-20,England,France,2,0,FIFA World Cup,London,England,False
6983,1969-03-12,England,France,5,0,Friendly,London,England,False
12179,1982-06-16,England,France,3,1,FIFA World Cup,Bilbao,Spain,True
12863,1984-02-29,France,England,2,0,Friendly,Paris,France,False
16710,1992-02-19,England,France,2,0,Friendly,London,England,False
16861,1992-06-14,France,England,0,0,UEFA Euro,Malmö,Sweden,True
20366,1997-06-07,France,England,0,1,Tournoi de France,Montpellier,France,False
21570,1999-02-10,England,France,0,2,Friendly,London,England,False
22996,2000-09-02,France,England,1,1,Friendly,Saint-Denis,France,False
26338,2004-06-13,France,England,2,1,UEFA Euro,Lisbon,Portugal,True
29667,2008-03-26,France,England,1,0,Friendly,Saint-Denis,France,False
32124,2010-11-17,England,France,1,2,Friendly,London,England,False
33664,2012-06-11,France,England,1,1,UEFA Euro,Donets'k,Ukraine,True
36949,2015-11-17,England,France,2,0,Friendly,London,England,False
38243,2017-06-13,France,England,3,2,Friendly,Saint-Denis,France,False
