,date,home_team,away_team,home_score,away_score,tournament,city,country,neutral
1538,1933-05-20,Switzerland,England,0,4,Friendly,Berne,Switzerland,False
2043,1938-05-21,Switzerland,England,2,1,Friendly,Zürich,Switzerland,False
2484,1945-07-21,Switzerland,England,3,1,Friendly,Berne,Switzerland,False
2550,1946-05-11,England,Switzerland,4,1,Friendly,London,England,False
2629,1947-05-18,Switzerland,England,1,0,Friendly,Zürich,Switzerland,False
2853,1948-12-02,England,Switzerland,6,0,Friendly,London,England,False
3289,1952-05-28,Switzerland,England,0,3,Friendly,Zürich,Switzerland,False
3601,1954-06-20,Switzerland,England,0,2,FIFA World Cup,Berne,Switzerland,False
5045,1962-05-09,England,Switzerland,3,1,Friendly,London,England,False
5359,1963-06-05,Switzerland,England,1,8,Friendly,Basel,Switzerland,False
7865,1971-10-13,Switzerland,England,2,3,UEFA Euro qualification,Basel,Switzerland,False
7888,1971-11-10,England,Switzerland,1,1,UEFA Euro qualification,London,England,False
9393,1975-09-03,Switzerland,England,1,2,Friendly,Basel,Switzerland,False
10159,1977-09-07,England,Switzerland,0,0,Friendly,London,England,False
11432,1980-11-19,England,Switzerland,2,1,FIFA World Cup qualification,London,England,False
11696,1981-05-30,Switzerland,England,2,1,FIFA World Cup qualification,Basel,Switzerland,False
14857,1988-05-28,Switzerland,England,0,1,Friendly,Basel,Switzerland,False
19061,1995-11-15,England,Switzerland,3,1,Friendly,London,England,False
19480,1996-06-08,England,Switzerland,1,1,UEFA Euro,London,England,False
20996,1998-03-25,Switzerland,England,1,1,Friendly,Berne,Switzerland,False
26352,2004-06-17,England,Switzerland,3,0,UEFA Euro,Coimbra,Portugal,True
29578,2008-02-06,England,Switzerland,2,1,Friendly,London,England,False
31896,2010-09-07,Switzerland,England,1,3,UEFA Euro qualification,Basel,Switzerland,False
32544,2011-06-04,England,Switzerland,2,2,UEFA Euro qualification,London,England,False
35721,2014-09-08,Switzerland,England,0,2,UEFA Euro qualification,Basel,Switzerland,False
36662,2015-09-08,England,Switzerland,2,0,UEFA Euro qualification,London,England,False
