,date,home_team,away_team,home_score,away_score,tournament,city,country,neutral
4468,1959-05-24,Mexico,England,2,1,Friendly,Mexico City,Mexico,False
4856,1961-05-10,England,Mexico,8,0,Friendly,London,England,False
6153,1966-07-16,England,Mexico,2,0,FIFA World Cup,London,England,False
7048,1969-06-01,Mexico,England,0,0,Friendly,Mexico City,Mexico,False
7050,1969-06-03,Mexico,England,0,4,Friendly,Guadalajara,Mexico,False
13666,1985-06-09,Mexico,England,1,0,Friendly,Mexico City,Mexico,False
14088,1986-05-17,Mexico,England,0,3,Friendly,Los Angeles,USA,True
20156,1997-03-29,England,Mexico,2,0,Friendly,London,England,False
23722,2001-05-25,England,Mexico,4,0,Friendly,Derby,England,False
31587,2010-05-24,England,Mexico,3,1,Friendly,London,England,False
