,date,home_team,away_team,home_score,away_score,tournament,city,country,neutral
602,1921-12-18,Spain,Portugal,3,1,Friendly,Madrid,Spain,False
667,1922-12-17,Portugal,Spain,1,2,Friendly,Lisbon,Portugal,False
753,1923-12-16,Spain,Portugal,3,0,Friendly,Seville,Spain,False
1076,1928-01-08,Portugal,Spain,2,2,Friendly,Lisbon,Portugal,False
1155,1929-03-17,Spain,Portugal,5,0,Friendly,Seville,Spain,False
1324,1930-11-30,Portugal,Spain,0,1,Friendly,Porto,Portugal,False
1527,1933-04-02,Spain,Portugal,3,0,Friendly,Vigo,Spain,False
1618,1934-03-11,Spain,Portugal,9,0,FIFA World Cup qualification,Madrid,Spain,False
1623,1934-03-18,Portugal,Spain,1,2,FIFA World Cup qualification,Lisbon,Portugal,False
1735,1935-05-05,Portugal,Spain,3,3,Friendly,Lisbon,Portugal,False
2001,1937-11-28,Spain,Portugal,1,2,Friendly,Vigo,Spain,False
2012,1938-01-30,Portugal,Spain,1,0,Friendly,Lisbon,Portugal,False
2277,1941-01-12,Portugal,Spain,2,2,Friendly,Lisbon,Portugal,False
2296,1941-03-16,Spain,Portugal,5,1,Friendly,Bilbao,Spain,False
2471,1945-03-11,Portugal,Spain,2,2,Friendly,Oeiras,Portugal,False
2474,1945-05-06,Spain,Portugal,4,2,Friendly,La Coruña,Spain,False
2601,1947-01-26,Portugal,Spain,4,1,Friendly,Oeiras,Portugal,False
2762,1948-03-21,Spain,Portugal,2,0,Friendly,Madrid,Spain,False
2869,1949-03-20,Portugal,Spain,1,1,Friendly,Oeiras,Portugal,False
3026,1950-04-02,Spain,Portugal,5,1,FIFA World Cup qualification,Madrid,Spain,False
3029,1950-04-09,Portugal,Spain,2,2,FIFA World Cup qualification,Oeiras,Portugal,False
3900,1956-06-03,Portugal,Spain,3,1,Friendly,Oeiras,Portugal,False
4254,1958-04-13,Spain,Portugal,1,0,Friendly,Madrid,Spain,False
5658,1964-11-15,Portugal,Spain,2,1,Friendly,Porto,Portugal,False
10910,1979-09-26,Spain,Portugal,1,1,Friendly,Vigo,Spain,False
11724,1981-06-20,Portugal,Spain,2,0,Friendly,Porto,Portugal,False
12989,1984-06-17,Portugal,Spain,1,1,UEFA Euro,Marseille,France,True
16222,1991-01-16,Spain,Portugal,1,1,Friendly,Castellón de la Plana,Spain,False
16681,1992-01-15,Portugal,Spain,0,0,Friendly,Torres Novas,Portugal,False
17978,1994-01-19,Spain,Portugal,2,2,Friendly,Vigo,Spain,False
24361,2002-02-13,Spain,Portugal,1,1,Friendly,Barcelona,Spain,False
25560,2003-09-06,Portugal,Spain,0,3,Friendly,Guimarães,Portugal,False
26381,2004-06-20,Portugal,Spain,1,0,UEFA Euro,Lisbon,Portugal,False
31728,2010-06-29,Spain,Portugal,1,0,FIFA World Cup,Cape Town,South Africa,True
32147,2010-11-17,Portugal,Spain,4,0,Friendly,Lisbon,Portugal,False
33723,2012-06-27,Portugal,Spain,0,0,UEFA Euro,Donets'k,Ukraine,True
