,date,home_team,away_team,home_score,away_score,tournament,city,country,neutral
14690,1988-02-05,France,Morocco,2,1,Tournoi de France,Monaco,Monaco,True
21087,1998-05-29,Morocco,France,2,2,King Hassan II Tournament,Casablanca,Morocco,False
21529,1999-01-20,France,Morocco,1,0,Friendly,Marseille,France,False
22749,2000-06-06,Morocco,France,1,5,King Hassan II Tournament,Casablanca,Morocco,False
29354,2007-11-16,France,Morocco,2,2,Friendly,Saint-Denis,France,False
