,date,home_team,away_team,home_score,away_score,tournament,city,country,neutral
928,1926-04-18,France,Portugal,4,2,Friendly,Toulouse,France,False
1002,1927-03-16,Portugal,France,4,0,Friendly,Lisbon,Portugal,False
1098,1928-04-29,France,Portugal,1,1,Friendly,Paris,France,False
1156,1929-03-24,France,Portugal,2,0,Friendly,Colombes,France,False
1237,1930-02-23,Portugal,France,2,0,Friendly,Porto,Portugal,False
2219,1940-01-28,France,Portugal,3,2,Friendly,Paris,France,False
2547,1946-04-14,Portugal,France,2,1,Friendly,Oeiras,Portugal,False
2613,1947-03-23,France,Portugal,1,0,Friendly,Colombes,France,False
2705,1947-11-23,Portugal,France,2,4,Friendly,Oeiras,Portugal,False
3272,1952-04-20,France,Portugal,3,0,Friendly,Colombes,France,False
4550,1959-11-11,France,Portugal,5,3,Friendly,Colombes,France,False
8423,1973-03-03,France,Portugal,1,2,Friendly,Paris,France,False
9221,1975-04-26,France,Portugal,0,2,Friendly,Colombes,France,False
10334,1978-03-08,France,Portugal,2,0,Friendly,Paris,France,False
12371,1983-02-16,Portugal,France,0,3,Friendly,Guimarães,Portugal,False
13000,1984-06-23,France,Portugal,3,2,UEFA Euro,Marseille,France,False
20018,1997-01-22,Portugal,France,0,2,Friendly,Braga,Portugal,False
22840,2000-06-28,France,Portugal,2,1,UEFA Euro,Brussels,Belgium,True
23622,2001-04-25,France,Portugal,4,0,Friendly,Saint-Denis,France,False
28091,2006-07-05,Portugal,France,0,1,FIFA World Cup,Munich,Germany,True
35809,2014-10-11,France,Portugal,2,1,Friendly,Saint-Denis,France,False
36601,2015-09-04,Portugal,France,0,1,Friendly,Lisbon,Portugal,False
37510,2016-07-10,France,Portugal,0,1,UEFA Euro,Saint-Denis,France,False
