,date,home_team,away_team,home_score,away_score,tournament,city,country,neutral
209,1908-04-05,Switzerland,Germany,5,3,Friendly,Basel,Switzerland,False
234,1909-04-04,Germany,Switzerland,1,0,Friendly,Karlsruhe,Germany,False
253,1910-04-03,Switzerland,Germany,2,3,Friendly,Basel,Switzerland,False
281,1911-03-26,Germany,Switzerland,6,2,Friendly,Stuttgart,Germany,False
320,1912-05-05,Switzerland,Germany,1,2,Friendly,St. Gallen,Switzerland,False
354,1913-05-18,Germany,Switzerland,1,2,Friendly,Freiburg,Germany,False
533,1920-06-27,Switzerland,Germany,4,1,Friendly,Zürich,Switzerland,False
610,1922-03-26,Germany,Switzerland,2,2,Friendly,Frankfurt am Main,Germany,False
700,1923-06-03,Switzerland,Germany,1,2,Friendly,Basel,Switzerland,False
832,1924-12-14,Germany,Switzerland,1,1,Friendly,Stuttgart,Germany,False
897,1925-10-25,Switzerland,Germany,0,4,Friendly,Basel,Switzerland,False
993,1926-12-12,Germany,Switzerland,2,3,Friendly,Munich,Germany,False
1093,1928-04-15,Switzerland,Germany,2,3,Friendly,Berne,Switzerland,False
1149,1929-02-10,Germany,Switzerland,7,1,Friendly,Mannheim,Germany,False
1250,1930-05-04,Switzerland,Germany,0,5,Friendly,Zürich,Switzerland,False
1426,1932-03-06,Germany,Switzerland,2,0,Friendly,Leipzig,Germany,False
1598,1933-11-19,Switzerland,Germany,0,2,Friendly,Zürich,Switzerland,False
1718,1935-01-27,Germany,Switzerland,4,0,Friendly,Stuttgart,Germany,False
1933,1937-05-02,Switzerland,Germany,0,1,Friendly,Zürich,Switzerland,False
2013,1938-02-06,Germany,Switzerland,1,1,Friendly,Cologne,Germany,False
2049,1938-06-04,Germany,Switzerland,1,1,FIFA World Cup,Paris,France,True
2057,1938-06-09,Germany,Switzerland,2,4,FIFA World Cup,Paris,France,True
2295,1941-03-09,Germany,Switzerland,4,2,Friendly,Stuttgart,Germany,False
2301,1941-04-20,Switzerland,Germany,2,1,Friendly,Berne,Switzerland,False
2346,1942-02-01,Germany,Switzerland,1,2,Friendly,Vienna,Germany,False
2378,1942-10-18,Switzerland,Germany,3,5,Friendly,Berne,Switzerland,False
3133,1950-11-22,Germany,Switzerland,1,0,Friendly,Stuttgart,Germany,False
3160,1951-04-15,Switzerland,Germany,2,3,Friendly,Zürich,Switzerland,False
3343,1952-11-09,Germany,Switzerland,5,1,Friendly,Augsburg,Germany,False
3556,1954-04-25,Switzerland,Germany,3,5,Friendly,Basel,Switzerland,False
3999,1956-11-21,Germany,Switzerland,1,3,Friendly,Frankfurt am Main,Germany,False
4527,1959-10-04,Switzerland,Germany,0,4,Friendly,Berne,Switzerland,False
5077,1962-06-03,Germany,Switzerland,2,1,FIFA World Cup,Santiago,Chile,True
5225,1962-12-23,Germany,Switzerland,5,1,Friendly,Karlsruhe,Germany,False
5800,1965-05-26,Switzerland,Germany,0,1,Friendly,Basel,Switzerland,False
6141,1966-07-12,Germany,Switzerland,5,0,FIFA World Cup,Sheffield,England,True
6690,1968-04-17,Switzerland,Germany,0,0,Friendly,Basel,Switzerland,False
8309,1972-11-15,Germany,Switzerland,5,1,Friendly,Düsseldorf,Germany,False
9016,1974-09-04,Switzerland,Germany,1,2,Friendly,Basel,Switzerland,False
10268,1977-11-16,Germany,Switzerland,4,1,Friendly,Stuttgart,Germany,False
11296,1980-09-10,Switzerland,Germany,2,3,Friendly,Berne,Switzerland,False
14049,1986-04-09,Switzerland,Germany,0,1,Friendly,Basel,Switzerland,False
14806,1988-04-27,Germany,Switzerland,1,0,Friendly,Kaiserslautern,Germany,False
16206,1990-12-19,Germany,Switzerland,4,0,Friendly,Stuttgart,Germany,False
18837,1995-06-23,Switzerland,Germany,1,2,Friendly,Berne,Switzerland,False
22615,2000-04-26,Germany,Switzerland,1,1,Friendly,Kaiserslautern,Germany,False
26262,2004-06-02,Switzerland,Germany,0,2,Friendly,Basel,Switzerland,False
28616,2007-02-07,Germany,Switzerland,3,1,Friendly,Düsseldorf,Germany,False
29698,2008-03-26,Switzerland,Germany,0,4,Friendly,Basel,Switzerland,False
33514,2012-05-26,Switzerland,Germany,5,3,Friendly,Basel,Switzerland,False
