,date,home_team,away_team,home_score,away_score,tournament,city,country,neutral
291,1911-06-18,Sweden,Germany,2,4,Friendly,Solna,Sweden,False
299,1911-10-29,Germany,Sweden,1,3,Friendly,Hamburg,Germany,False
711,1923-06-29,Sweden,Germany,2,1,Friendly,Stockholm,Sweden,False
805,1924-08-31,Germany,Sweden,1,4,Friendly,Berlin,Germany,False
868,1925-06-21,Sweden,Germany,1,0,Friendly,Stockholm,Sweden,False
953,1926-06-20,Germany,Sweden,3,3,Friendly,Nuremberg,Germany,False
1133,1928-09-30,Sweden,Germany,2,0,Friendly,Stockholm,Sweden,False
1189,1929-06-23,Germany,Sweden,3,0,Friendly,Cologne,Germany,False
1376,1931-06-17,Sweden,Germany,0,0,Friendly,Stockholm,Sweden,False
1493,1932-09-25,Germany,Sweden,4,3,Friendly,Nuremberg,Germany,False
1659,1934-05-31,Germany,Sweden,2,1,FIFA World Cup,Milan,Italy,True
1765,1935-06-30,Sweden,Germany,3,1,Friendly,Stockholm,Sweden,False
1999,1937-11-21,Germany,Sweden,5,0,FIFA World Cup qualification,Altona,Germany,False
2320,1941-10-05,Sweden,Germany,4,2,Friendly,Solna,Sweden,False
2375,1942-09-20,Germany,Sweden,2,3,Friendly,Berlin,Germany,False
3917,1956-06-30,Sweden,Germany,2,2,Friendly,Solna,Sweden,False
4227,1957-11-20,Germany,Sweden,1,0,Friendly,Hamburg,Germany,False
4328,1958-06-24,Sweden,Germany,3,1,FIFA World Cup,Gothenburg,Sweden,False
5440,1963-11-03,Sweden,Germany,2,1,Friendly,Solna,Sweden,False
5649,1964-11-04,Germany,Sweden,1,1,FIFA World Cup qualification,Berlin,Germany,False
5910,1965-09-26,Sweden,Germany,1,2,FIFA World Cup qualification,Solna,Sweden,False
7737,1971-06-27,Sweden,Germany,1,0,Friendly,Gothenburg,Sweden,False
8894,1974-05-01,Germany,Sweden,2,0,Friendly,Hamburg,Germany,False
8971,1974-06-30,Germany,Sweden,4,2,FIFA World Cup,Düsseldorf,Germany,False
10378,1978-04-19,Sweden,Germany,3,1,Friendly,Solna,Sweden,False
13171,1984-10-17,Germany,Sweden,2,0,FIFA World Cup qualification,Cologne,Germany,False
13789,1985-09-25,Sweden,Germany,2,2,FIFA World Cup qualification,Solna,Sweden,False
14548,1987-10-14,Germany,Sweden,1,1,Friendly,Gelsenkirchen,Germany,False
14781,1988-03-31,Germany,Sweden,1,1,Friendly,Berlin,Germany,False
16128,1990-10-10,Sweden,Germany,1,3,Friendly,Solna,Sweden,False
16882,1992-06-21,Sweden,Germany,2,3,UEFA Euro,Solna,Sweden,False
28070,2006-06-24,Germany,Sweden,2,0,FIFA World Cup,Munich,Germany,False
28143,2006-08-16,Germany,Sweden,3,0,Friendly,Gelsenkirchen,Germany,False
32153,2010-11-17,Sweden,Germany,0,0,Friendly,Gothenburg,Sweden,False
34051,2012-10-16,Germany,Sweden,4,4,FIFA World Cup qualification,Berlin,Germany,False
35096,2013-10-15,Sweden,Germany,3,5,FIFA World Cup qualification,Solna,Sweden,False
