,date,home_team,away_team,home_score,away_score,tournament,city,country,neutral
20856,1998-01-28,Iran,Nigeria,0,1,Lunar New Year Cup,So Kon Po,Hong Kong,True
35537,2014-06-16,Iran,Nigeria,0,0,FIFA World Cup,Curitiba,Brazil,True
