,date,home_team,away_team,home_score,away_score,tournament,city,country,neutral
6431,1967-05-28,Russia,Mexico,2,0,Friendly,Leningrad,Soviet Union,False
6434,1967-06-01,Russia,Mexico,0,1,Friendly,Volgograd,Soviet Union,False
6667,1968-03-03,Mexico,Russia,0,0,Friendly,Mexico City,Mexico,False
6670,1968-03-07,Mexico,Russia,1,1,Friendly,León,Mexico,False
6671,1968-03-10,Mexico,Russia,0,0,Friendly,Mexico City,Mexico,False
7314,1970-02-26,Mexico,Russia,0,0,Friendly,Mexico City,Mexico,False
7375,1970-05-31,Mexico,Russia,0,0,FIFA World Cup,Mexico City,Mexico,False
7612,1971-02-17,Mexico,Russia,0,0,Friendly,Guadalajara,Mexico,False
7614,1971-02-20,Mexico,Russia,0,0,Friendly,Mexico City,Mexico,False
13074,1984-08-19,Russia,Mexico,3,0,Friendly,Leningrad,Soviet Union,False
13951,1986-02-19,Mexico,Russia,1,0,Friendly,Mexico City,Mexico,False
16725,1992-03-08,Mexico,Russia,4,0,Friendly,Mexico City,Mexico,False
16726,1992-03-11,Mexico,Russia,1,1,Friendly,Ciudad Madero,Mexico,False
18003,1994-02-02,Mexico,Russia,1,4,Friendly,Oakland,USA,True
38277,2017-06-24,Russia,Mexico,1,2,Confederations Cup,Kazan,Russia,False
