,date,home_team,away_team,home_score,away_score,tournament,city,country,neutral
18160,1994-05-05,Sweden,Nigeria,3,1,Friendly,Solna,Sweden,False
24552,2002-06-07,Sweden,Nigeria,2,1,FIFA World Cup,Kobe,Japan,True
