,date,home_team,away_team,home_score,away_score,tournament,city,country,neutral
13947,1986-02-16,Uruguay,Poland,2,2,Friendly,Montevideo,Uruguay,False
17213,1992-11-29,Uruguay,Poland,0,1,Friendly,Montevideo,Uruguay,False
34145,2012-11-14,Poland,Uruguay,1,3,Friendly,Gdańsk,Poland,False
38628,2017-11-10,Poland,Uruguay,0,0,Friendly,Warsaw,Poland,False
