,date,home_team,away_team,home_score,away_score,tournament,city,country,neutral
18663,1995-03-31,Serbia,Uruguay,1,0,Friendly,Belgrade,Yugoslavia,False
27958,2006-05-27,Serbia,Uruguay,1,1,Friendly,Belgrade,Serbia and Montenegro,False
