fifa_code,iso,name,capital,color1,color2,gdp_cap,gni_cap
ARG,ARG,Argentina,Buenos Aires,#67b4e0,#000000,16071.8964007697,179507.554718714
AUS,AUS,Australia,Canberra,#fbd706,#132d18,68636.2442494177,67156.5332657822
BEL,BEL,Belgium,Brussels,#d60303,#f8cb14,34331.6756325982,37548.3706981432
BRA,BRA,Brazil,Brasilia,#fbd627,#2635c5,8436.76071649674,29546.9027118889
COL,COL,Colombia,Bogota,#fbd706,#191d7e,11133338.8512737,17410086.8709894
CRC,CRI,Costa Rica,San José,#f2220c,#ffffff,5572903.42883683,6107355.17119273
CRO,HRV,Croatia,Zagreb,#b70000,#000000,79457.8823668074,79906.6312375894
DEN,DNK,Denmark,Copenhagen,#be2626,#ffffff,341213.964361096,369787.762242035
EGY,EGY,Egypt,Cairo,#d32a1d,#ffffff,20035.8075789549,27922.9930832677
ENG,GBR,England,London,#ffffff,#e20000,27207.2490678295,29217.0362432277
FRA,FRA,France,Paris,#092c53,#ffffff,31723.7711030755,33850.311856217
GER,DEU,Germany,Berlin,#ffffff,#167065,34615.4333871409,38759.5544080302
ISL,ISL,Iceland,Reykjavik,#1a1a90,#ffffff,5989258.11637883,7373210.66587266
IRN,IRN,Iran,Teheran,#ffffff,#981a1a,86152249.4218425,164332424.800655
JPN,JPN,Japan,Tokyo,#0c2765,#ffffff,4183667.23335389,4375456.03841098
MEX,MEX,Mexico,Mexico City,#0b6446,#ffffff,113392.768526415,152187.177637007
MAR,MAR,Morocco,Rabat,#921111,#ffffff,25519.9738348222,27853.9140313419
NGA,NGA,Nigeria,Abuja,#46eb56,#153930,369119.64754967,539655.438764552
PAN,PAN,Panama,Panama City,#c21010,#ffffff,9289.76066397645,12475.0903728918
PER,PER,Peru,Lima,#ffffff,#c20000,15770.7729305231,19574.2163860023
POL,POL,Poland,Warsaw,#ffffff,#c20000,45434.4494917802,47013.1395801121
POR,PRT,Portugal,Lisbon,#9b1406,#ffffff,16946.2825743609,17546.308287521
RUS,RUS,Russia,Moscow,#ef2f2f,#ffffff,423520.307479946,570805.666091704
KSA,SAU,Saudi Arabia,Riad,#ffffff,#0c5b23,80232.599175968,76943.5346426553
SEN,SEN,Senegal,Dakar,#ffffff,#0f9962,411797.362047869,546127.065737566
SRB,SRB,Serbia,Belgrade,#c20000,#ffffff,454899.393935272,569776.179184285
KOR,KOR,South Korea,Seoul,#ff0a0a,#ffffff,29432026.3744239,31984464.5718323
ESP,ESP,Spain,Madrid,#d30606,#b8d3e9,23787.9124223965,24056.7760463464
SWE,SWE,Sweden,Stockholm,#e0ca38,#04136f,407030.676447899,450936.377144809
SUI,CHE,Switzerland,Bern,#b80404,#ffffff,79981.5987338417,79441.3099664338
TUN,TUN,Tunisia,Tunis,#ffffff,#c20000,6105.45346378505,7618.96961286819
URU,URY,Uruguay,Montevideo,#82c3f4,#ffffff,197447.355608556,447809.641475654
