fifa_code,iso,name,capital,color1,color2,lat,lng,capital_lat,capital_lng,income_level,population,gdp
ARG,ARG,Argentina,Buenos Aires,#67b4e0,#000000,-38.416097,-63.61667199999999,-34.6036844,-58.3815591,Upper middle income,43847430,545476103427247
AUS,AUS,Australia,Canberra,#fbd706,#132d18,-25.274398,133.775136,-35.2809368,149.1300092,High income,24210809,1204616439828.41
BEL,BEL,Belgium,Brussels,#d60303,#f8cb14,50.503887,4.469936,50.8503463,4.3517211,High income,11338476,467955709817539
BRA,BRA,Brazil,Brasilia,#fbd627,#2635c5,-14.235004,-51.92528,-15.7942287,-47.8821658,Upper middle income,207652865,1796186586414.45
COL,COL,Colombia,Bogota,#fbd706,#191d7e,4.570868,-74.297333,4.710988599999999,-74.072092,Upper middle income,48653419,282462551366878
CRC,CRI,Costa Rica,San José,#f2220c,#ffffff,9.748916999999999,-83.753428,9.9280694,-84.0907246,Upper middle income,4857274,57435507212256
CRO,HRV,Croatia,Zagreb,#b70000,#000000,45.1,15.2000001,45.8150108,15.9819189,Upper middle income,4174349,50714957390.5378
DEN,DNK,Denmark,Copenhagen,#be2626,#ffffff,56.26392,9.501785,55.6760968,12.5683372,High income,5728010,306899653409601
EGY,EGY,Egypt,Cairo,#d32a1d,#ffffff,26.820553,30.802498,30.0444196,31.2357116,Lower middle income,95688681,332791045963807
ENG,GBR,England,London,#ffffff,#e20000,52.3555177,-1.1743197,51.5073509,-0.1277583,High income,65595565,2650850178102.14
FRA,FRA,France,Paris,#092c53,#ffffff,46.227638,2.213749,48.856614,2.3522219,High income,66892205,2465453975282.24
GER,DEU,Germany,Berlin,#ffffff,#167065,51.165691,10.451526,52.52000659999999,13.404954,High income,82487842,3477796274496.8
ISL,ISL,Iceland,Reykjavik,#1a1a90,#ffffff,64.963051,-19.020835,64.12652059999999,-21.8174392,High income,335439,20304098101.4115
IRN,IRN,Iran,Teheran,#ffffff,#981a1a,32.427908,53.688046,35.6891975,51.3889736,Upper middle income,80277428,418976679728567
JPN,JPN,Japan,Tokyo,#0c2765,#ffffff,36.204824,138.252924,35.6894875,139.6917064,High income,126994511,4949273341993.88
MEX,MEX,Mexico,Mexico City,#0b6446,#ffffff,35.907757,127.766922,37.566535,126.9779692,High income,51245707,1411245589976.63
MAR,MAR,Morocco,Rabat,#921111,#ffffff,23.634501,-102.552784,19.4326077,-99.133208,Upper middle income,127540423,1046922702460.87
NGA,NGA,Nigeria,Abuja,#46eb56,#153930,31.791702,-7.092619999999999,33.9715904,-6.8498129,Lower middle income,35276786,103606321692582
PAN,PAN,Panama,Panama City,#c21010,#ffffff,9.081999,8.675277,9.0764785,7.398574,Lower middle income,185989640,404652720164859
PER,PER,Peru,Lima,#ffffff,#c20000,8.537981,-80.782127,8.9823792,-79.51986959999999,Upper middle income,4034119,55187700000
POL,POL,Poland,Warsaw,#ffffff,#c20000,-9.189967,-75.015152,-12.0463731,-77.042754,Upper middle income,31773839,192207342004681
POR,PRT,Portugal,Lisbon,#9b1406,#ffffff,51.919438,19.145136,52.2296756,21.0122287,High income,37970087,471364408713956
RUS,RUS,Russia,Moscow,#ef2f2f,#ffffff,39.39987199999999,-8.224454,38.7222524,-9.1393366,High income,10325452,205184480409024
KSA,SAU,Saudi Arabia,Riad,#ffffff,#0c5b23,61.52401,105.318756,55.755826,37.6172999,Upper middle income,144342396,1283162985989.3
SEN,SEN,Senegal,Dakar,#ffffff,#0f9962,23.885942,45.079162,24.7135517,46.6752957,High income,32275687,646438380560
SRB,SRB,Serbia,Belgrade,#c20000,#ffffff,14.497401,-14.452362,14.716677,-17.4676861,Low income,15411614,14683697630.9
KOR,KOR,South Korea,Seoul,#ff0a0a,#ffffff,44.016521,21.005859,44.786568,20.4489216,Upper middle income,7058322,38299854688.1277
ESP,ESP,Spain,Madrid,#d30606,#b8d3e9,40.46366700000001,-3.74922,40.4167754,-3.7037902,High income,46484533,1237255019653.86
SWE,SWE,Sweden,Stockholm,#e0ca38,#04136f,60.12816100000001,18.643501,59.32932349999999,18.0685808,High income,9923085,514459972806171
SUI,CHE,Switzerland,Bern,#b80404,#ffffff,46.818188,8.227511999999999,46.9479739,7.4474468,High income,8372413,668851296244236
TUN,TUN,Tunisia,Tunis,#ffffff,#c20000,33.886917,9.537499,36.8064948,10.1815316,Lower middle income,11403248,42062549394.7859
URU,URY,Uruguay,Montevideo,#82c3f4,#ffffff,-32.522779,-55.765835,-34.9011127,-56.16453139999999,High income,3444006,52419720713.7316
