,date,home_team,away_team,home_score,away_score,tournament,city,country,neutral
6156,1966-07-19,Argentina,Switzerland,2,0,FIFA World Cup,Sheffield,England,True
11486,1980-12-16,Argentina,Switzerland,5,0,Friendly,Córdoba,Argentina,False
13093,1984-09-01,Switzerland,Argentina,0,2,Friendly,Berne,Switzerland,False
15926,1990-05-08,Switzerland,Argentina,1,1,Friendly,Berne,Switzerland,False
28837,2007-06-02,Switzerland,Argentina,1,1,Friendly,Basel,Switzerland,False
33432,2012-02-29,Switzerland,Argentina,1,3,Friendly,Berne,Switzerland,False
35584,2014-07-01,Argentina,Switzerland,1,0,FIFA World Cup,São Paulo,Brazil,True
