,date,home_team,away_team,home_score,away_score,tournament,city,country,neutral
1649,1934-05-27,Argentina,Sweden,2,3,FIFA World Cup,Bologna,Italy,True
24571,2002-06-12,Sweden,Argentina,1,1,FIFA World Cup,Rifu,Japan,True
34418,2013-02-06,Sweden,Argentina,2,3,Friendly,Solna,Sweden,False
