,date,home_team,away_team,home_score,away_score,tournament,city,country,neutral
16695,1992-01-26,Australia,Sweden,0,0,Friendly,Sydney,Australia,False
16698,1992-01-29,Australia,Sweden,1,0,Friendly,Adelaide,Australia,False
16700,1992-02-02,Australia,Sweden,1,0,Friendly,Melbourne,Australia,False
19260,1996-02-25,Australia,Sweden,0,2,Friendly,Brisbane,Australia,False
19263,1996-02-28,Australia,Sweden,0,0,Friendly,Sydney,Australia,False
