,date,home_team,away_team,home_score,away_score,tournament,city,country,neutral
28594,2007-02-06,Australia,Denmark,1,3,Friendly,London,England,True
31633,2010-06-01,Australia,Denmark,1,0,Friendly,Roodepoort,South Africa,True
33563,2012-06-02,Denmark,Australia,2,0,Friendly,Copenhagen,Denmark,False
