,date,home_team,away_team,home_score,away_score,tournament,city,country,neutral
3268,1952-04-13,Brazil,Panama,5,0,Pan American Championship,Santiago,Chile,True
23958,2001-08-09,Brazil,Panama,5,0,Friendly,Curitiba,Brazil,False
35485,2014-06-03,Brazil,Panama,4,0,Friendly,Goiânia,Brazil,False
