,date,home_team,away_team,home_score,away_score,tournament,city,country,neutral
3873,1956-04-08,Portugal,Brazil,0,1,Friendly,Oeiras,Portugal,False
4103,1957-06-11,Brazil,Portugal,2,1,Friendly,Rio de Janeiro,Brazil,False
4106,1957-06-16,Brazil,Portugal,3,0,Friendly,São Paulo,Brazil,False
5043,1962-05-06,Brazil,Portugal,2,1,Friendly,São Paulo,Brazil,False
5044,1962-05-09,Brazil,Portugal,1,0,Friendly,Rio de Janeiro,Brazil,False
5322,1963-04-21,Portugal,Brazil,1,0,Friendly,Lisbon,Portugal,False
5565,1964-06-07,Brazil,Portugal,4,1,Friendly,Rio de Janeiro,Brazil,False
5824,1965-06-24,Portugal,Brazil,0,0,Friendly,Porto,Portugal,False
6157,1966-07-19,Brazil,Portugal,1,3,FIFA World Cup,Liverpool,England,True
6747,1968-06-30,Portugal,Brazil,0,2,Friendly,Lourenço Marques,Mozambique,True
8178,1972-07-09,Brazil,Portugal,1,0,Brazil Independence Cup,Rio de Janeiro,Brazil,False
9172,1975-03-09,Brazil,Portugal,2,1,Friendly,Goiânia,Brazil,False
12126,1982-05-05,Brazil,Portugal,3,1,Friendly,São Luís,Brazil,False
12515,1983-06-08,Portugal,Brazil,0,4,Friendly,Coimbra,Portugal,False
15487,1989-06-08,Brazil,Portugal,4,0,Friendly,Rio de Janeiro,Brazil,False
24459,2002-04-17,Portugal,Brazil,1,1,Friendly,Lisbon,Portugal,False
25166,2003-03-29,Portugal,Brazil,2,1,Friendly,Porto,Portugal,False
28603,2007-02-06,Portugal,Brazil,2,0,Friendly,London,England,True
30466,2008-11-19,Brazil,Portugal,6,2,Friendly,Gama,Brazil,False
31718,2010-06-25,Portugal,Brazil,0,0,FIFA World Cup,Durban,South Africa,True
34967,2013-09-10,Brazil,Portugal,3,1,Friendly,Foxborough,USA,True
