,date,home_team,away_team,home_score,away_score,tournament,city,country,neutral
2452,1945-01-21,Brazil,Colombia,3,0,Copa América,Santiago,Chile,True
2885,1949-04-17,Brazil,Colombia,5,0,Copa América,São Paulo,Brazil,False
4047,1957-03-24,Brazil,Colombia,9,0,Copa América,Lima,Peru,True
5268,1963-03-14,Brazil,Colombia,5,1,Copa América,La Paz,Bolivia,True
7099,1969-08-06,Colombia,Brazil,0,2,FIFA World Cup qualification,Bogotá,Colombia,False
7117,1969-08-21,Brazil,Colombia,6,2,FIFA World Cup qualification,Rio de Janeiro,Brazil,False
9941,1977-02-20,Colombia,Brazil,0,0,FIFA World Cup qualification,Bogotá,Colombia,False
9977,1977-03-09,Brazil,Colombia,6,0,FIFA World Cup qualification,Rio de Janeiro,Brazil,False
11526,1981-02-01,Colombia,Brazil,1,1,Friendly,Bogotá,Colombia,False
13576,1985-04-25,Brazil,Colombia,2,1,Friendly,Belo Horizonte,Brazil,False
13622,1985-05-15,Colombia,Brazil,1,0,Friendly,Bogotá,Colombia,False
15551,1989-07-07,Brazil,Colombia,0,0,Copa América,Salvador,Brazil,False
16473,1991-07-13,Brazil,Colombia,0,2,Copa América,Viña del Mar,Chile,True
16490,1991-07-19,Brazil,Colombia,2,0,Copa América,Santiago,Chile,True
18863,1995-07-13,Brazil,Colombia,3,0,Copa América,Rivera,Uruguay,True
19149,1995-12-20,Brazil,Colombia,3,1,Friendly,Manaus,Brazil,False
20446,1997-06-19,Brazil,Colombia,2,0,Copa América,Santa Cruz,Bolivia,True
22466,2000-03-28,Colombia,Brazil,0,0,FIFA World Cup qualification,Bogotá,Colombia,False
23194,2000-11-15,Brazil,Colombia,1,0,FIFA World Cup qualification,São Paulo,Brazil,False
25479,2003-07-19,Colombia,Brazil,0,2,Gold Cup,Miami,USA,True
25569,2003-09-07,Colombia,Brazil,1,2,FIFA World Cup qualification,Barranquilla,Colombia,False
26718,2004-10-13,Brazil,Colombia,0,0,FIFA World Cup qualification,Maceió,Brazil,False
29272,2007-10-14,Colombia,Brazil,0,0,FIFA World Cup qualification,Bogotá,Colombia,False
30382,2008-10-15,Brazil,Colombia,0,0,FIFA World Cup qualification,Rio de Janeiro,Brazil,False
34112,2012-11-14,Brazil,Colombia,1,1,Friendly,East Rutherford,USA,True
35587,2014-07-04,Brazil,Colombia,2,1,FIFA World Cup,Fortaleza,Brazil,False
36480,2015-06-17,Brazil,Colombia,0,1,Copa América,Santiago,Chile,True
37607,2016-09-06,Brazil,Colombia,2,1,FIFA World Cup qualification,Manaus,Brazil,False
37968,2017-01-26,Brazil,Colombia,1,0,Friendly,Rio de Janeiro,Brazil,False
38452,2017-09-05,Colombia,Brazil,1,1,FIFA World Cup qualification,Barranquilla,Colombia,False
