,date,home_team,away_team,home_score,away_score,tournament,city,country,neutral
4313,1958-06-15,Brazil,Russia,2,0,FIFA World Cup,Gothenburg,Sweden,True
5830,1965-07-04,Russia,Brazil,0,3,Friendly,Moscow,Soviet Union,False
5962,1965-11-21,Brazil,Russia,2,2,Friendly,Rio de Janeiro,Brazil,False
8557,1973-06-21,Russia,Brazil,0,1,Friendly,Moscow,Soviet Union,False
9866,1976-12-01,Brazil,Russia,2,0,Friendly,Rio de Janeiro,Brazil,False
11195,1980-06-15,Brazil,Russia,1,2,Friendly,Rio de Janeiro,Brazil,False
12173,1982-06-14,Brazil,Russia,2,1,FIFA World Cup,Seville,Spain,True
18237,1994-06-20,Brazil,Russia,2,0,FIFA World Cup,Palo Alto,USA,True
19651,1996-08-28,Russia,Brazil,2,2,Friendly,Moscow,Russia,False
21490,1998-11-18,Brazil,Russia,5,1,Friendly,Fortaleza,Brazil,False
27851,2006-03-01,Russia,Brazil,0,1,Friendly,Moscow,Russia,False
34533,2013-03-25,Russia,Brazil,1,1,Friendly,London,England,True
38830,2018-03-23,Russia,Brazil,0,3,Friendly,Moscow,Russia,False
