,date,home_team,away_team,home_score,away_score,tournament,city,country,neutral
25393,2003-06-22,Japan,Colombia,0,1,Confederations Cup,Saint-Étienne,France,True
28858,2007-06-05,Japan,Colombia,0,0,Kirin Cup,Saitama,Japan,False
35567,2014-06-24,Japan,Colombia,1,4,FIFA World Cup,Cuiabá,Brazil,True
