,date,home_team,away_team,home_score,away_score,tournament,city,country,neutral
27329,2005-07-06,Colombia,Panama,0,1,Gold Cup,Miami,USA,True
27351,2005-07-21,Colombia,Panama,2,3,Gold Cup,East Rutherford,USA,True
28772,2007-05-09,Panama,Colombia,0,4,Friendly,Panama City,Panama,False
