,date,home_team,away_team,home_score,away_score,tournament,city,country,neutral
7373,1970-05-20,Colombia,England,0,4,Friendly,Bogotá,Colombia,False
14848,1988-05-24,England,Colombia,1,1,Rous Cup,London,England,False
18969,1995-09-06,England,Colombia,0,0,Friendly,London,England,False
21174,1998-06-26,Colombia,England,0,2,FIFA World Cup,Lens,France,True
27194,2005-05-31,Colombia,England,2,3,Friendly,East Rutherford,USA,True
