,date,home_team,away_team,home_score,away_score,tournament,city,country,neutral
16013,1990-06-19,Germany,Colombia,1,1,FIFA World Cup,Milan,Italy,True
21090,1998-05-30,Germany,Colombia,3,1,Friendly,Frankfurt am Main,Germany,False
21565,1999-02-09,Colombia,Germany,3,3,Friendly,Miami,USA,True
27993,2006-06-02,Germany,Colombia,3,0,Friendly,Mönchengladbach,Germany,False
