,date,home_team,away_team,home_score,away_score,tournament,city,country,neutral
3865,1956-03-17,Costa Rica,Peru,4,2,Pan American Championship,Mexico City,Mexico,True
19628,1996-08-14,Peru,Costa Rica,3,0,Friendly,Arequipa,Peru,False
29069,2007-08-22,Costa Rica,Peru,1,1,Friendly,San José,Costa Rica,False
29684,2008-03-26,Peru,Costa Rica,3,1,Friendly,Iquitos,Peru,False
31980,2010-10-08,Peru,Costa Rica,2,0,Friendly,Lima,Peru,False
33767,2012-08-15,Costa Rica,Peru,0,1,Friendly,San José,Costa Rica,False
