,date,home_team,away_team,home_score,away_score,tournament,city,country,neutral
18923,1995-08-06,Japan,Costa Rica,3,0,Friendly,Kyoto,Japan,False
24450,2002-04-17,Japan,Costa Rica,1,1,Friendly,Yokohama,Japan,False
35483,2014-06-02,Costa Rica,Japan,1,3,Friendly,Tampa,USA,True
