,date,home_team,away_team,home_score,away_score,tournament,city,country,neutral
27091,2005-03-26,Croatia,Iceland,4,0,FIFA World Cup qualification,Zagreb,Croatia,False
27434,2005-09-03,Iceland,Croatia,1,3,FIFA World Cup qualification,Reykjavík,Iceland,False
35123,2013-11-15,Iceland,Croatia,0,0,FIFA World Cup qualification,Reykjavík,Iceland,False
35166,2013-11-19,Croatia,Iceland,2,0,FIFA World Cup qualification,Zagreb,Croatia,False
37821,2016-11-12,Croatia,Iceland,2,0,FIFA World Cup qualification,Zagreb,Croatia,False
38223,2017-06-11,Iceland,Croatia,1,0,FIFA World Cup qualification,Reykjavík,Iceland,False
