,date,home_team,away_team,home_score,away_score,tournament,city,country,neutral
356,1913-05-25,Denmark,Sweden,8,0,Friendly,Copenhagen,Denmark,False
365,1913-10-05,Sweden,Denmark,0,10,Friendly,Stockholm,Sweden,False
406,1915-06-06,Denmark,Sweden,2,0,Friendly,Copenhagen,Denmark,False
414,1915-10-31,Sweden,Denmark,0,2,Friendly,Stockholm,Sweden,False
417,1916-06-04,Denmark,Sweden,2,0,Friendly,Copenhagen,Denmark,False
438,1916-10-08,Sweden,Denmark,4,0,Friendly,Stockholm,Sweden,False
444,1917-06-03,Denmark,Sweden,1,1,Friendly,Copenhagen,Denmark,False
460,1917-10-14,Sweden,Denmark,1,2,Friendly,Stockholm,Sweden,False
471,1918-06-02,Denmark,Sweden,3,0,Friendly,Copenhagen,Denmark,False
482,1918-10-20,Sweden,Denmark,1,2,Friendly,Gothenburg,Sweden,False
498,1919-06-05,Denmark,Sweden,3,0,Friendly,Copenhagen,Denmark,False
511,1919-10-12,Sweden,Denmark,3,0,Friendly,Stockholm,Sweden,False
546,1920-10-10,Sweden,Denmark,0,2,Friendly,Stockholm,Sweden,False
589,1921-10-09,Sweden,Denmark,0,0,Friendly,Stockholm,Sweden,False
649,1922-10-01,Denmark,Sweden,1,2,Friendly,Copenhagen,Denmark,False
729,1923-10-14,Sweden,Denmark,1,3,Friendly,Stockholm,Sweden,False
786,1924-06-15,Denmark,Sweden,2,3,Nordic Championship,Copenhagen,Denmark,False
865,1925-06-14,Sweden,Denmark,0,2,Nordic Championship,Stockholm,Sweden,False
971,1926-10-03,Denmark,Sweden,2,0,Nordic Championship,Copenhagen,Denmark,False
1031,1927-06-19,Sweden,Denmark,0,0,Nordic Championship,Stockholm,Sweden,False
1135,1928-10-07,Denmark,Sweden,3,1,Nordic Championship,Copenhagen,Denmark,False
1185,1929-06-16,Sweden,Denmark,3,2,Nordic Championship,Gothenburg,Sweden,False
1273,1930-06-22,Denmark,Sweden,6,1,Nordic Championship,Copenhagen,Denmark,False
1378,1931-06-28,Sweden,Denmark,3,1,Nordic Championship,Stockholm,Sweden,False
1468,1932-06-19,Denmark,Sweden,3,1,Nordic Championship,Copenhagen,Denmark,False
1555,1933-06-18,Sweden,Denmark,2,3,Nordic Championship,Stockholm,Sweden,False
1668,1934-06-17,Denmark,Sweden,3,5,Nordic Championship,Copenhagen,Denmark,False
1756,1935-06-16,Sweden,Denmark,3,1,Nordic Championship,Gothenburg,Sweden,False
1847,1936-06-14,Denmark,Sweden,4,3,Nordic Championship,Copenhagen,Denmark,False
1976,1937-10-03,Sweden,Denmark,1,2,Nordic Championship,Solna,Sweden,False
2072,1938-06-21,Denmark,Sweden,0,1,Nordic Championship,Copenhagen,Denmark,False
2208,1939-10-01,Sweden,Denmark,4,1,Nordic Championship,Solna,Sweden,False
2266,1940-10-06,Sweden,Denmark,1,1,Friendly,Solna,Sweden,False
2268,1940-10-20,Denmark,Sweden,3,3,Friendly,Copenhagen,Denmark,False
2317,1941-09-14,Sweden,Denmark,2,2,Friendly,Solna,Sweden,False
2322,1941-10-19,Denmark,Sweden,2,1,Friendly,Copenhagen,Denmark,False
2363,1942-06-28,Denmark,Sweden,0,3,Friendly,Copenhagen,Denmark,False
2376,1942-10-04,Sweden,Denmark,2,1,Friendly,Solna,Sweden,False
2392,1943-06-20,Denmark,Sweden,3,2,Friendly,Copenhagen,Denmark,False
2478,1945-06-24,Sweden,Denmark,2,1,Friendly,Solna,Sweden,False
2480,1945-07-01,Denmark,Sweden,3,4,Friendly,Copenhagen,Denmark,False
2499,1945-09-30,Sweden,Denmark,4,1,Friendly,Solna,Sweden,False
2561,1946-06-23,Denmark,Sweden,3,1,Friendly,Copenhagen,Denmark,False
2578,1946-10-06,Sweden,Denmark,3,3,Friendly,Gothenburg,Sweden,False
2643,1947-06-15,Denmark,Sweden,1,4,Nordic Championship,Copenhagen,Denmark,False
2649,1947-06-26,Sweden,Denmark,6,1,Friendly,Solna,Sweden,False
2833,1948-10-10,Sweden,Denmark,1,0,Nordic Championship,Solna,Sweden,False
2983,1949-10-23,Denmark,Sweden,3,2,Nordic Championship,Copenhagen,Denmark,False
3114,1950-10-15,Sweden,Denmark,4,0,Nordic Championship,Solna,Sweden,False
3221,1951-10-21,Denmark,Sweden,3,1,Nordic Championship,Copenhagen,Denmark,False
3295,1952-06-11,Denmark,Sweden,0,2,Friendly,Oslo,Norway,True
3299,1952-06-22,Sweden,Denmark,4,3,Nordic Championship,Solna,Sweden,False
3442,1953-06-21,Denmark,Sweden,1,3,Nordic Championship,Copenhagen,Denmark,False
3647,1954-10-10,Sweden,Denmark,5,2,Nordic Championship,Solna,Sweden,False
3789,1955-10-16,Denmark,Sweden,3,3,Nordic Championship,Copenhagen,Denmark,False
3982,1956-10-21,Sweden,Denmark,1,1,Nordic Championship,Solna,Sweden,False
4122,1957-06-30,Denmark,Sweden,1,2,Nordic Championship,Copenhagen,Denmark,False
4384,1958-10-26,Sweden,Denmark,4,4,Nordic Championship,Solna,Sweden,False
4481,1959-06-21,Denmark,Sweden,0,6,Nordic Championship,Copenhagen,Denmark,False
4759,1960-10-23,Sweden,Denmark,2,0,Nordic Championship,Gothenburg,Sweden,False
4885,1961-06-18,Denmark,Sweden,1,2,Nordic Championship,Copenhagen,Denmark,False
5181,1962-10-28,Sweden,Denmark,4,2,Nordic Championship,Solna,Sweden,False
5414,1963-10-06,Denmark,Sweden,2,2,Nordic Championship,Copenhagen,Denmark,False
5573,1964-06-28,Sweden,Denmark,4,1,Nordic Championship,Malmö,Sweden,False
5822,1965-06-20,Denmark,Sweden,2,1,Nordic Championship,Copenhagen,Denmark,False
6250,1966-11-06,Sweden,Denmark,2,1,Nordic Championship,Solna,Sweden,False
6444,1967-06-25,Denmark,Sweden,1,1,Nordic Championship,Copenhagen,Denmark,False
6745,1968-06-27,Sweden,Denmark,2,1,Nordic Championship,Solna,Sweden,False
7068,1969-06-25,Denmark,Sweden,0,1,Nordic Championship,Copenhagen,Denmark,False
7417,1970-06-25,Sweden,Denmark,1,1,Nordic Championship,Gothenburg,Sweden,False
7732,1971-06-20,Denmark,Sweden,1,3,Nordic Championship,Copenhagen,Denmark,False
8160,1972-06-29,Sweden,Denmark,2,0,Nordic Championship,Malmö,Sweden,False
8467,1973-04-26,Denmark,Sweden,1,2,Friendly,Copenhagen,Denmark,False
8930,1974-06-03,Denmark,Sweden,0,2,Nordic Championship,Copenhagen,Denmark,False
9406,1975-09-25,Sweden,Denmark,0,0,Nordic Championship,Malmö,Sweden,False
9628,1976-05-11,Sweden,Denmark,1,2,Friendly,Gothenburg,Sweden,False
10087,1977-06-15,Denmark,Sweden,2,1,Nordic Championship,Copenhagen,Denmark,False
10198,1977-10-05,Sweden,Denmark,1,0,Friendly,Malmö,Sweden,False
10513,1978-08-16,Denmark,Sweden,2,1,Nordic Championship,Copenhagen,Denmark,False
10731,1979-05-09,Denmark,Sweden,2,2,Friendly,Copenhagen,Denmark,False
11135,1980-05-07,Sweden,Denmark,0,1,Nordic Championship,Gothenburg,Sweden,False
11676,1981-05-14,Sweden,Denmark,1,2,Nordic Championship,Malmö,Sweden,False
12128,1982-05-05,Denmark,Sweden,1,1,Nordic Championship,Copenhagen,Denmark,False
12964,1984-06-06,Sweden,Denmark,0,1,Friendly,Gothenburg,Sweden,False
13766,1985-09-11,Denmark,Sweden,0,3,Friendly,Copenhagen,Denmark,False
14514,1987-08-26,Sweden,Denmark,1,0,Friendly,Solna,Sweden,False
15007,1988-08-31,Sweden,Denmark,1,2,Friendly,Solna,Sweden,False
15499,1989-06-14,Denmark,Sweden,6,0,Friendly,Copenhagen,Denmark,False
16097,1990-09-05,Sweden,Denmark,0,1,Friendly,Västerås,Sweden,False
16418,1991-06-15,Sweden,Denmark,4,0,Friendly,Norrköping,Sweden,False
16866,1992-06-14,Sweden,Denmark,1,0,UEFA Euro,Solna,Sweden,False
18185,1994-05-26,Denmark,Sweden,1,0,Friendly,Copenhagen,Denmark,False
19630,1996-08-14,Sweden,Denmark,0,1,Friendly,Gothenburg,Sweden,False
21085,1998-05-28,Sweden,Denmark,3,0,Friendly,Malmö,Sweden,False
22613,2000-04-26,Denmark,Sweden,0,1,Friendly,Copenhagen,Denmark,False
26391,2004-06-22,Denmark,Sweden,2,2,UEFA Euro,Porto,Portugal,True
28813,2007-06-02,Denmark,Sweden,0,3,UEFA Euro qualification,Copenhagen,Denmark,False
29169,2007-09-08,Sweden,Denmark,0,0,UEFA Euro qualification,Solna,Sweden,False
30887,2009-06-06,Sweden,Denmark,0,1,FIFA World Cup qualification,Solna,Sweden,False
31178,2009-10-10,Denmark,Sweden,1,0,FIFA World Cup qualification,Copenhagen,Denmark,False
33125,2011-11-11,Denmark,Sweden,2,0,Friendly,Copenhagen,Denmark,False
35429,2014-05-28,Denmark,Sweden,1,0,Friendly,Copenhagen,Denmark,False
36923,2015-11-14,Sweden,Denmark,2,1,UEFA Euro qualification,Solna,Sweden,False
36947,2015-11-17,Denmark,Sweden,2,2,UEFA Euro qualification,Copenhagen,Denmark,False
38772,2018-01-11,Denmark,Sweden,0,1,Friendly,Abu Dhabi,United Arab Emirates,True
