,date,home_team,away_team,home_score,away_score,tournament,city,country,neutral
2823,1948-09-26,Denmark,England,0,0,Friendly,Copenhagen,Denmark,False
3781,1955-10-02,Denmark,England,1,5,Friendly,Copenhagen,Denmark,False
4008,1956-12-05,England,Denmark,5,2,FIFA World Cup qualification,Wolverhampton,England,False
4079,1957-05-15,Denmark,England,1,4,FIFA World Cup qualification,Copenhagen,Denmark,False
6129,1966-07-03,Denmark,England,0,2,Friendly,Copenhagen,Denmark,False
10542,1978-09-20,Denmark,England,3,4,UEFA Euro qualification,Copenhagen,Denmark,False
10888,1979-09-12,England,Denmark,1,0,UEFA Euro qualification,London,England,False
12267,1982-09-22,Denmark,England,2,2,UEFA Euro qualification,Copenhagen,Denmark,False
12672,1983-09-21,England,Denmark,0,1,UEFA Euro qualification,London,England,False
15011,1988-09-14,England,Denmark,1,0,Friendly,London,England,False
15481,1989-06-07,Denmark,England,1,1,Friendly,Copenhagen,Denmark,False
15932,1990-05-15,England,Denmark,1,0,Friendly,London,England,False
16855,1992-06-11,Denmark,England,0,0,UEFA Euro,Malmö,Sweden,True
18053,1994-03-09,England,Denmark,1,0,Friendly,London,England,False
24580,2002-06-15,Denmark,England,0,3,FIFA World Cup,Niigata,Japan,True
25776,2003-11-16,England,Denmark,2,3,Friendly,Manchester,England,False
27383,2005-08-17,Denmark,England,4,1,Friendly,Copenhagen,Denmark,False
32336,2011-02-09,Denmark,England,1,2,Friendly,Copenhagen,Denmark,False
35309,2014-03-05,England,Denmark,1,0,Friendly,London,England,False
