,date,home_team,away_team,home_score,away_score,tournament,city,country,neutral
705,1923-06-17,Denmark,Switzerland,3,2,Friendly,Copenhagen,Denmark,False
769,1924-04-21,Switzerland,Denmark,2,0,Friendly,Basel,Switzerland,False
3444,1953-06-27,Switzerland,Denmark,1,4,Friendly,Basel,Switzerland,False
3632,1954-09-19,Denmark,Switzerland,1,1,Friendly,Copenhagen,Denmark,False
8258,1972-10-04,Denmark,Switzerland,1,1,Friendly,Copenhagen,Denmark,False
11276,1980-08-27,Switzerland,Denmark,1,1,Friendly,Lausanne,Switzerland,False
13179,1984-10-17,Switzerland,Denmark,1,0,FIFA World Cup qualification,Berne,Switzerland,False
13804,1985-10-09,Denmark,Switzerland,0,0,FIFA World Cup qualification,Copenhagen,Denmark,False
21450,1998-10-14,Switzerland,Denmark,1,1,UEFA Euro qualification,Zürich,Switzerland,False
22025,1999-09-04,Denmark,Switzerland,2,1,UEFA Euro qualification,Copenhagen,Denmark,False
