,date,home_team,away_team,home_score,away_score,tournament,city,country,neutral
21464,1998-10-28,Japan,Egypt,1,0,Friendly,Osaka,Japan,False
29302,2007-10-17,Japan,Egypt,4,1,Friendly,Osaka,Japan,False
