,date,home_team,away_team,home_score,away_score,tournament,city,country,neutral
5461,1963-11-24,Egypt,Nigeria,6,3,African Cup of Nations,Kumasi,Ghana,True
9555,1976-03-14,Egypt,Nigeria,2,3,African Cup of Nations,Addis Abeba,Ethiopia,True
10205,1977-10-08,Nigeria,Egypt,4,0,FIFA World Cup qualification,Lagos,Nigeria,False
10229,1977-10-21,Egypt,Nigeria,3,1,FIFA World Cup qualification,Cairo,Egypt,False
11085,1980-03-15,Nigeria,Egypt,1,0,African Cup of Nations,Lagos,Nigeria,False
12373,1983-02-18,Nigeria,Egypt,0,0,Friendly,Lagos,Nigeria,False
12376,1983-02-20,Nigeria,Egypt,1,1,Friendly,Kaduna,Nigeria,False
12890,1984-03-14,Egypt,Nigeria,2,2,African Cup of Nations,Abidjan,Ivory Coast,True
14762,1988-03-20,Egypt,Nigeria,0,0,African Cup of Nations,Rabat,Morocco,True
15851,1990-03-05,Nigeria,Egypt,1,0,African Cup of Nations,Algiers,Algeria,True
16552,1991-09-21,Egypt,Nigeria,1,2,Friendly,Ismailia,Egypt,False
18088,1994-03-30,Nigeria,Egypt,0,0,African Cup of Nations,Tunis,Tunisia,True
24892,2002-11-25,Nigeria,Egypt,1,1,Friendly,Lagos,Nigeria,False
31434,2010-01-12,Egypt,Nigeria,3,1,African Cup of Nations,Benguela,Angola,True
33467,2012-04-12,Egypt,Nigeria,3,2,Friendly,Dubai,United Arab Emirates,True
37146,2016-03-25,Nigeria,Egypt,1,1,African Cup of Nations qualification,Kaduna,Nigeria,False
37196,2016-03-29,Egypt,Nigeria,1,0,African Cup of Nations qualification,Alexandria,Egypt,False
