,date,home_team,away_team,home_score,away_score,tournament,city,country,neutral
13920,1986-01-29,Egypt,England,0,4,Friendly,Cairo,Egypt,False
16019,1990-06-21,England,Egypt,1,0,FIFA World Cup,Cagliari,Italy,True
31514,2010-03-03,England,Egypt,3,1,Friendly,London,England,False
