,date,home_team,away_team,home_score,away_score,tournament,city,country,neutral
18465,1994-11-16,England,Nigeria,1,0,Friendly,London,England,False
24568,2002-06-12,Nigeria,England,0,0,FIFA World Cup,Osaka,Japan,True
