,date,home_team,away_team,home_score,away_score,tournament,city,country,neutral
5996,1966-01-05,England,Poland,1,1,Friendly,Liverpool,England,False
6133,1966-07-05,Poland,England,0,1,Friendly,Chorzów,Poland,False
8540,1973-06-06,Poland,England,2,0,FIFA World Cup qualification,Chorzów,Poland,False
8707,1973-10-17,England,Poland,1,1,FIFA World Cup qualification,London,England,False
14131,1986-06-11,England,Poland,3,0,FIFA World Cup,Monterrey,Mexico,True
15467,1989-06-03,England,Poland,3,0,FIFA World Cup qualification,London,England,False
15673,1989-10-11,Poland,England,0,0,FIFA World Cup qualification,Chorzów,Poland,False
16133,1990-10-17,England,Poland,2,0,UEFA Euro qualification,London,England,False
16608,1991-11-13,Poland,England,1,1,UEFA Euro qualification,Poznań,Poland,False
17610,1993-05-29,Poland,England,1,1,FIFA World Cup qualification,Chorzów,Poland,False
17827,1993-09-08,England,Poland,3,0,FIFA World Cup qualification,London,England,False
19792,1996-10-09,England,Poland,2,1,FIFA World Cup qualification,London,England,False
20339,1997-05-31,Poland,England,0,2,FIFA World Cup qualification,Chorzów,Poland,False
21664,1999-03-27,England,Poland,3,1,UEFA Euro qualification,London,England,False
22062,1999-09-08,Poland,England,0,0,UEFA Euro qualification,Warsaw,Poland,False
26633,2004-09-08,Poland,England,1,2,FIFA World Cup qualification,Chorzów,Poland,False
27567,2005-10-12,England,Poland,2,1,FIFA World Cup qualification,Manchester,England,False
34086,2012-10-17,Poland,England,1,1,FIFA World Cup qualification,Warsaw,Poland,False
35063,2013-10-15,England,Poland,2,0,FIFA World Cup qualification,London,England,False
