,date,home_team,away_team,home_score,away_score,tournament,city,country,neutral
1252,1930-05-10,Germany,England,3,3,Friendly,Berlin,Germany,False
1807,1935-12-04,England,Germany,3,0,Friendly,London,England,False
2038,1938-05-14,Germany,England,3,6,Friendly,Berlin,Germany,False
3665,1954-12-01,England,Germany,3,1,Friendly,London,England,False
5784,1965-05-12,Germany,England,0,1,Friendly,Nuremberg,Germany,False
6000,1966-02-23,England,Germany,1,0,Friendly,London,England,False
6172,1966-07-30,England,Germany,4,2,FIFA World Cup,London,England,False
6724,1968-06-01,Germany,England,1,0,Friendly,Hanover,Germany,False
7403,1970-06-14,England,Germany,2,3,FIFA World Cup,León,Mexico,True
8051,1972-04-29,England,Germany,1,3,UEFA Euro qualification,London,England,False
8071,1972-05-13,Germany,England,0,0,UEFA Euro qualification,Berlin,Germany,False
9173,1975-03-12,England,Germany,2,0,Friendly,London,England,False
10320,1978-02-22,Germany,England,2,1,Friendly,Munich,Germany,False
12215,1982-06-29,Germany,England,0,0,FIFA World Cup,Madrid,Spain,True
12290,1982-10-13,England,Germany,1,2,Friendly,London,England,False
13669,1985-06-12,England,Germany,3,0,Friendly,Mexico City,Mexico,True
14521,1987-09-09,Germany,England,3,1,Friendly,Düsseldorf,Germany,False
16035,1990-07-04,Germany,England,1,1,FIFA World Cup,Turin,Italy,True
16529,1991-09-11,England,Germany,0,1,Friendly,London,England,False
17683,1993-06-19,England,Germany,1,2,USA Cup,Pontiac,USA,True
19561,1996-06-26,England,Germany,1,1,UEFA Euro,London,England,False
22793,2000-06-17,England,Germany,1,0,UEFA Euro,Charleroi,Belgium,True
23071,2000-10-07,England,Germany,0,1,FIFA World Cup qualification,London,England,False
24011,2001-09-01,Germany,England,1,5,FIFA World Cup qualification,Munich,Germany,False
29073,2007-08-22,England,Germany,1,2,Friendly,London,England,False
30474,2008-11-19,Germany,England,1,2,Friendly,Berlin,Germany,False
31724,2010-06-27,Germany,England,4,1,FIFA World Cup,Bloemfontein,South Africa,True
35168,2013-11-19,England,Germany,0,1,Friendly,London,England,False
37163,2016-03-26,Germany,England,2,3,Friendly,Berlin,Germany,False
37993,2017-03-22,Germany,England,1,0,Friendly,Dortmund,Germany,False
38622,2017-11-10,England,Germany,0,0,Friendly,London,England,False
