,date,home_team,away_team,home_score,away_score,tournament,city,country,neutral
28065,2006-06-23,Saudi Arabia,Spain,0,1,FIFA World Cup,Kaiserslautern,Germany,True
31618,2010-05-29,Spain,Saudi Arabia,3,2,Friendly,Innsbruck,Austria,True
33864,2012-09-07,Spain,Saudi Arabia,5,0,Friendly,Pontevedra,Spain,False
