,date,home_team,away_team,home_score,away_score,tournament,city,country,neutral
3083,1950-07-09,Spain,Uruguay,2,2,FIFA World Cup,São Paulo,Brazil,True
6116,1966-06-23,Spain,Uruguay,1,1,Friendly,La Coruña,Spain,False
8089,1972-05-23,Spain,Uruguay,2,0,Friendly,Madrid,Spain,False
10420,1978-05-24,Uruguay,Spain,0,0,Friendly,Montevideo,Uruguay,False
15998,1990-06-13,Uruguay,Spain,0,0,FIFA World Cup,Udine,Italy,True
16521,1991-09-04,Spain,Uruguay,2,1,Friendly,Oviedo,Spain,False
18561,1995-01-18,Spain,Uruguay,2,2,Friendly,La Coruña,Spain,False
27412,2005-08-17,Spain,Uruguay,2,0,Friendly,Gijón,Spain,False
34417,2013-02-06,Spain,Uruguay,3,1,Friendly,Doha,Qatar,True
34726,2013-06-16,Spain,Uruguay,2,1,Confederations Cup,Recife,Brazil,True
