,date,home_team,away_team,home_score,away_score,tournament,city,country,neutral
3089,1950-07-16,Spain,Sweden,1,3,FIFA World Cup,São Paulo,Brazil,True
3186,1951-06-17,Sweden,Spain,0,0,Friendly,Solna,Sweden,False
3507,1953-11-08,Spain,Sweden,2,2,Friendly,Bilbao,Spain,False
6665,1968-02-28,Spain,Sweden,3,1,Friendly,Seville,Spain,False
6699,1968-05-02,Sweden,Spain,1,1,Friendly,Malmö,Sweden,False
10448,1978-06-11,Spain,Sweden,1,0,FIFA World Cup,Buenos Aires,Argentina,True
14867,1988-06-01,Spain,Sweden,1,3,Friendly,Salamanca,Spain,False
20995,1998-03-25,Spain,Sweden,4,0,Friendly,Vigo,Spain,False
22729,2000-06-03,Sweden,Spain,1,1,Friendly,Gothenburg,Sweden,False
28345,2006-10-07,Sweden,Spain,2,0,UEFA Euro qualification,Solna,Sweden,False
29386,2007-11-17,Spain,Sweden,3,0,UEFA Euro qualification,Madrid,Spain,False
29961,2008-06-14,Sweden,Spain,1,2,UEFA Euro,Innsbruck,Austria,True
