,date,home_team,away_team,home_score,away_score,tournament,city,country,neutral
1601,1933-12-03,Germany,Poland,1,0,Friendly,Berlin,Germany,False
1686,1934-09-09,Poland,Germany,2,5,Friendly,Warsaw,Poland,False
1784,1935-09-15,Germany,Poland,1,0,Friendly,Breslau,Germany,False
1868,1936-09-13,Poland,Germany,1,1,Friendly,Warsaw,Poland,False
2110,1938-09-18,Germany,Poland,4,1,Friendly,Chemnitz,Germany,False
4462,1959-05-20,Germany,Poland,1,1,Friendly,Hamburg,Germany,False
4937,1961-10-08,Poland,Germany,0,2,Friendly,Warsaw,Poland,False
7862,1971-10-10,Poland,Germany,1,3,UEFA Euro qualification,Warsaw,Poland,False
7904,1971-11-17,Germany,Poland,0,0,UEFA Euro qualification,Hamburg,Germany,False
8975,1974-07-03,Germany,Poland,1,0,FIFA World Cup,Frankfurt am Main,Germany,False
10423,1978-06-01,Germany,Poland,0,0,FIFA World Cup,Buenos Aires,Argentina,True
11143,1980-05-13,Germany,Poland,3,1,Friendly,Frankfurt am Main,Germany,False
11809,1981-09-02,Poland,Germany,0,2,Friendly,Chorzów,Poland,False
19691,1996-09-04,Poland,Germany,0,2,Friendly,Zabrze,Poland,False
28035,2006-06-14,Germany,Poland,1,0,FIFA World Cup,Dortmund,Germany,False
29906,2008-06-08,Germany,Poland,2,0,UEFA Euro,Klagenfurt,Austria,True
32947,2011-09-06,Poland,Germany,2,2,Friendly,Gdańsk,Poland,False
35372,2014-05-13,Germany,Poland,0,0,Friendly,Hamburg,Germany,False
35818,2014-10-11,Poland,Germany,2,0,UEFA Euro qualification,Warsaw,Poland,False
36597,2015-09-04,Germany,Poland,3,1,UEFA Euro qualification,Frankfurt am Main,Germany,False
37450,2016-06-16,Germany,Poland,0,0,UEFA Euro,Saint-Denis,France,True
