,date,home_team,away_team,home_score,away_score,tournament,city,country,neutral
15803,1990-02-02,Iran,Poland,0,2,Friendly,Teheran,Iran,False
15807,1990-02-04,Iran,Poland,0,1,Friendly,Teheran,Iran,False
