,date,home_team,away_team,home_score,away_score,tournament,city,country,neutral
10747,1979-05-22,Switzerland,Iceland,2,0,UEFA Euro qualification,Berne,Switzerland,False
10766,1979-06-09,Iceland,Switzerland,1,2,UEFA Euro qualification,Reykjavík,Iceland,False
18478,1994-11-16,Switzerland,Iceland,1,0,UEFA Euro qualification,Lausanne,Switzerland,False
18936,1995-08-16,Iceland,Switzerland,0,2,UEFA Euro qualification,Reykjavík,Iceland,False
34056,2012-10-16,Iceland,Switzerland,0,2,FIFA World Cup qualification,Reykjavík,Iceland,False
34932,2013-09-06,Switzerland,Iceland,4,4,FIFA World Cup qualification,Berne,Switzerland,False
