,date,home_team,away_team,home_score,away_score,tournament,city,country,neutral
18814,1995-06-10,Sweden,Japan,2,2,Friendly,Nottingham,England,True
19255,1996-02-22,Japan,Sweden,1,1,Lunar New Year Cup,So Kon Po,Hong Kong,True
20057,1997-02-13,Japan,Sweden,0,1,King's Cup,Bangkok,Thailand,True
24521,2002-05-25,Japan,Sweden,1,1,Friendly,Tokyo,Japan,False
