,date,home_team,away_team,home_score,away_score,tournament,city,country,neutral
17163,1992-11-08,Japan,Saudi Arabia,1,0,AFC Asian Cup,Hiroshima,Japan,False
17886,1993-10-15,Saudi Arabia,Japan,0,0,FIFA World Cup qualification,Doha,Qatar,True
19034,1995-10-24,Japan,Saudi Arabia,2,1,Friendly,Tokyo,Japan,False
19038,1995-10-28,Japan,Saudi Arabia,2,1,Friendly,Matsuyama,Japan,False
23138,2000-10-14,Saudi Arabia,Japan,1,4,AFC Asian Cup,Sidon,Lebanon,True
23167,2000-10-29,Japan,Saudi Arabia,1,0,AFC Asian Cup,Beirut,Lebanon,True
28225,2006-09-03,Saudi Arabia,Japan,1,0,AFC Asian Cup qualification,Jeddah,Saudi Arabia,False
28447,2006-11-15,Japan,Saudi Arabia,3,1,AFC Asian Cup qualification,Sapporo,Japan,False
29042,2007-07-25,Japan,Saudi Arabia,2,3,AFC Asian Cup,Hanoi,Vietnam,True
32293,2011-01-17,Saudi Arabia,Japan,0,5,AFC Asian Cup,Rayyan,Qatar,True
37871,2016-11-15,Japan,Saudi Arabia,2,1,FIFA World Cup qualification,Saitama,Japan,False
38481,2017-09-05,Saudi Arabia,Japan,1,0,FIFA World Cup qualification,Jeddah,Saudi Arabia,False
