,date,home_team,away_team,home_score,away_score,tournament,city,country,neutral
10610,1978-11-19,Japan,Russia,1,4,Friendly,Tokyo,Japan,False
10613,1978-11-23,Japan,Russia,1,4,Friendly,Tokyo,Japan,False
10616,1978-11-26,Japan,Russia,0,3,Friendly,Osaka,Japan,False
24558,2002-06-09,Japan,Russia,1,0,FIFA World Cup,Yokohama,Japan,False
