,date,home_team,away_team,home_score,away_score,tournament,city,country,neutral
5235,1963-01-13,Morocco,Switzerland,1,0,Friendly,Casablanca,Morocco,False
26001,2004-02-18,Morocco,Switzerland,2,1,Friendly,Rabat,Morocco,False
