,date,home_team,away_team,home_score,away_score,tournament,city,country,neutral
21088,1998-05-29,Serbia,Nigeria,3,0,Friendly,Belgrade,Yugoslavia,False
38908,2018-03-27,Serbia,Nigeria,2,0,Friendly,London,England,True
