,date,home_team,away_team,home_score,away_score,tournament,city,country,neutral
5958,1965-11-14,Tunisia,Senegal,0,0,African Cup of Nations,Tunis,Tunisia,False
11015,1979-12-26,Tunisia,Senegal,3,1,Friendly,Tunis,Tunisia,False
11112,1980-04-05,Senegal,Tunisia,0,2,Friendly,Dakar,Senegal,False
11619,1981-04-12,Tunisia,Senegal,1,0,African Cup of Nations qualification,Tunis,Tunisia,False
11651,1981-04-26,Senegal,Tunisia,0,0,African Cup of Nations qualification,Dakar,Senegal,False
15576,1989-07-16,Senegal,Tunisia,3,0,African Cup of Nations qualification,Dakar,Senegal,False
15586,1989-07-30,Tunisia,Senegal,0,1,African Cup of Nations qualification,Tunis,Tunisia,False
18543,1995-01-07,Senegal,Tunisia,0,0,African Cup of Nations qualification,Ziguinchor,Senegal,False
18871,1995-07-15,Tunisia,Senegal,4,0,African Cup of Nations qualification,Tunis,Tunisia,False
19414,1996-05-26,Tunisia,Senegal,2,0,Friendly,Tunis,Tunisia,False
22773,2000-06-11,Tunisia,Senegal,4,1,Friendly,Tunis,Tunisia,False
24317,2002-01-31,Senegal,Tunisia,0,0,African Cup of Nations,Kayes,Mali,True
25260,2003-04-30,Tunisia,Senegal,1,0,Friendly,Tunis,Tunisia,False
25957,2004-02-07,Tunisia,Senegal,1,0,African Cup of Nations,Radès,Tunisia,False
29519,2008-01-23,Tunisia,Senegal,2,2,African Cup of Nations,Tamale,Ghana,True
35794,2014-10-10,Senegal,Tunisia,0,0,African Cup of Nations qualification,Dakar,Senegal,False
35889,2014-10-15,Tunisia,Senegal,1,0,African Cup of Nations qualification,Monastir,Tunisia,False
37938,2017-01-15,Tunisia,Senegal,0,2,African Cup of Nations,Franceville,Gabon,True
