iso,year,value
ISL,2009,86.2
ISL,2002,84.8
ISL,2001,79.9
ISL,2000,81.0
ISL,1999,79.6
ISL,1998,72.9
ISL,1997,69.5
ISL,1996,60.1
ISL,1995,70
ISL,1994,68.9
ISL,1993,69.8
ISL,1992,65.7
ISL,1991,66
ISL,1990,64.2
ISL,1989,68
ISL,1988,69.6
ISL,1987,67.9
ISL,1986,81.7
ISL,1985,79.2
ISL,1984,67.6
ISL,1983,76.1
ISL,1982,77.8
ISL,1981,77.3
ISL,1980,68.4
ISL,1979,74
ISL,1978,73.4
ISL,1977,66.3
ISL,1976,65.8
ISL,1975,79.4
ISL,1974,70.1
ISL,1973,70.6
ISL,1972,70.8
ISL,1971,65.5
ISL,1970,64.2
ISL,1969,55.1
ISL,1968,56.8
ISL,1967,69.5
ISL,1966,80.9
ISL,1965,84.1
ISL,1964,76.2
ISL,1963,79.6
ISL,1962,84
ISL,1961,85.8
