iso,year,value
MEX,2009,63.8
MEX,2002,58.6
MEX,2001,56.8
MEX,2000,55.2
MEX,1999,52.6
MEX,1998,50.6
MEX,1997,46.9
MEX,1996,43.5
MEX,1995,45.1
MEX,1994,45.4
MEX,1993,42.4
MEX,1992,41.2
MEX,1991,39.8
MEX,1990,35.8
MEX,1989,35
MEX,1988,38.8
MEX,1987,38.9
MEX,1986,40
MEX,1985,39.5
MEX,1984,41.2
MEX,1983,42.4
MEX,1982,40.4
MEX,1981,39.8
MEX,1980,37.5
MEX,1979,35
MEX,1978,35
MEX,1977,34.6
MEX,1976,32.8
MEX,1975,30.1
MEX,1974,27.5
MEX,1973,25.9
MEX,1972,25.1
MEX,1971,24.3
MEX,1970,24.4
MEX,1969,24.8
MEX,1968,25.1
MEX,1967,25.8
MEX,1966,25.8
MEX,1965,26.4
MEX,1964,26.5
MEX,1963,26.3
MEX,1962,26.6
MEX,1961,25.4
