iso,year,value
PRT,2009,93.4
PRT,2002,91.1
PRT,2001,92.7
PRT,2000,92.8
PRT,1999,92.1
PRT,1998,88.7
PRT,1997,82.4
PRT,1996,80.5
PRT,1995,78.2
PRT,1994,80.7
PRT,1993,76.5
PRT,1992,72.2
PRT,1991,65.5
PRT,1990,64.6
PRT,1989,58
PRT,1988,53
PRT,1987,50.9
PRT,1986,46.7
PRT,1985,44.7
PRT,1984,43
PRT,1983,46.7
PRT,1982,47.9
PRT,1981,48.1
PRT,1980,46.3
PRT,1979,44.8
PRT,1978,44.8
PRT,1977,48.7
PRT,1976,44.1
PRT,1975,43
PRT,1974,42.5
PRT,1973,37.7
PRT,1972,37.5
PRT,1971,35
PRT,1970,32.3
PRT,1969,31.6
PRT,1968,28.3
PRT,1967,27.7
PRT,1966,25.5
PRT,1965,24.8
PRT,1964,22.6
PRT,1963,22.3
PRT,1962,21.4
PRT,1961,20.6
