

Messi, convicted, 4100000,2, 21, 2016
Ronaldo, convicted, 14700000, 18.8, 24, 2018
Neymar, 56000000, 15.9, , 2016
Mascherano, convited, 1500000 EUR, 0.8, 12, 2016
Di Maira, convicted, 1300000, 2.0, 12, 2017	
Romario, convicted, 500000 USD, 0.5, 36
Alexis Sanchez, convicted, 1000000 EUR, , 16, 2018

Cavani, suspected, 0, 1500000 EUR
Eto'o, suspected, 3500000 EUR
Xabi Alonso, suspected, 2400000 EUR
Javier Pastore, suspected,
Pogba, suspected
Özil, suspected


I just played football," Messi told the judge
