,date,home_team,away_team,home_score,away_score,tournament,city,country,neutral
144,1902-07-20,Uruguay,Argentina,0,6,Friendly,Montevideo,Uruguay,False
152,1903-09-13,Argentina,Uruguay,2,3,Friendly,Buenos Aires,Argentina,False
173,1905-08-15,Argentina,Uruguay,0,0,Copa Lipton,Buenos Aires,Argentina,False
184,1906-08-15,Uruguay,Argentina,0,2,Copa Lipton,Montevideo,Uruguay,False
186,1906-10-21,Argentina,Uruguay,2,1,Copa Newton,Buenos Aires,Argentina,False
221,1908-08-15,Uruguay,Argentina,2,2,Copa Lipton,Montevideo,Uruguay,False
222,1908-09-13,Argentina,Uruguay,2,1,Copa Newton,Buenos Aires,Argentina,False
223,1908-10-04,Argentina,Uruguay,0,1,Copa Premio Honor Argentino,Buenos Aires,Argentina,False
243,1909-08-15,Argentina,Uruguay,2,1,Copa Lipton,Buenos Aires,Argentina,False
244,1909-09-19,Uruguay,Argentina,2,2,Copa Newton,Montevideo,Uruguay,False
245,1909-10-10,Argentina,Uruguay,3,1,Copa Premio Honor Argentino,Buenos Aires,Argentina,False
264,1910-06-12,Argentina,Uruguay,4,1,Friendly,Buenos Aires,Argentina,False
265,1910-08-15,Uruguay,Argentina,3,1,Copa Lipton,Montevideo,Uruguay,False
270,1910-11-13,Argentina,Uruguay,1,1,Copa Premio Honor Argentino,Buenos Aires,Argentina,False
271,1910-11-27,Argentina,Uruguay,2,6,Copa Premio Honor Argentino,Buenos Aires,Argentina,False
292,1911-08-15,Argentina,Uruguay,0,2,Copa Lipton,Buenos Aires,Argentina,False
294,1911-09-17,Uruguay,Argentina,2,3,Copa Newton,Montevideo,Uruguay,False
295,1911-10-08,Uruguay,Argentina,1,1,Copa Premio Honor Uruguayo,Montevideo,Uruguay,False
297,1911-10-22,Argentina,Uruguay,2,0,Copa Premio Honor Argentino,Buenos Aires,Argentina,False
302,1911-10-29,Uruguay,Argentina,3,0,Copa Premio Honor Uruguayo,Montevideo,Uruguay,False
328,1912-08-15,Uruguay,Argentina,2,0,Copa Lipton,Montevideo,Uruguay,False
329,1912-08-25,Uruguay,Argentina,3,0,Copa Premio Honor Uruguayo,Montevideo,Uruguay,False
330,1912-09-22,Argentina,Uruguay,0,1,Copa Premio Honor Argentino,Buenos Aires,Argentina,False
331,1912-10-06,Argentina,Uruguay,3,3,Copa Newton,Avellaneda,Argentina,False
336,1912-12-01,Uruguay,Argentina,1,3,Friendly,Montevideo,Uruguay,False
358,1913-06-15,Argentina,Uruguay,1,1,Friendly,Avellaneda,Argentina,False
360,1913-07-09,Argentina,Uruguay,2,1,Friendly,Avellaneda,Argentina,False
361,1913-08-15,Argentina,Uruguay,4,0,Copa Lipton,Avellaneda,Argentina,False
362,1913-08-31,Argentina,Uruguay,2,0,Copa Premio Honor Argentino,Buenos Aires,Argentina,False
366,1913-10-05,Uruguay,Argentina,1,0,Copa Premio Honor Uruguayo,Montevideo,Uruguay,False
370,1913-10-26,Uruguay,Argentina,1,0,Copa Newton,Montevideo,Uruguay,False
396,1914-08-30,Uruguay,Argentina,3,2,Copa Premio Honor Uruguayo,Montevideo,Uruguay,False
397,1914-09-13,Argentina,Uruguay,2,1,Copa Premio Honor Argentino,Buenos Aires,Argentina,False
408,1915-07-18,Uruguay,Argentina,2,3,Copa Premio Honor Uruguayo,Montevideo,Uruguay,False
409,1915-08-15,Argentina,Uruguay,2,1,Copa Lipton,Buenos Aires,Argentina,False
410,1915-09-12,Uruguay,Argentina,2,0,Copa Newton,Montevideo,Uruguay,False
428,1916-07-17,Argentina,Uruguay,0,0,Copa América,Avellaneda,Argentina,False
430,1916-08-15,Argentina,Uruguay,3,1,Copa Newton,Avellaneda,Argentina,False
431,1916-08-15,Uruguay,Argentina,1,2,Copa Lipton,Montevideo,Uruguay,False
434,1916-10-01,Argentina,Uruguay,7,2,Friendly,Avellaneda,Argentina,False
437,1916-10-01,Uruguay,Argentina,0,1,Copa Premio Honor Uruguayo,Montevideo,Uruguay,False
440,1916-10-29,Uruguay,Argentina,3,1,Friendly,Montevideo,Uruguay,False
448,1917-07-18,Uruguay,Argentina,0,2,Copa Premio Honor Uruguayo,Montevideo,Uruguay,False
449,1917-08-15,Argentina,Uruguay,1,0,Copa Lipton,Avellaneda,Argentina,False
451,1917-09-02,Uruguay,Argentina,1,0,Copa Newton,Montevideo,Uruguay,False
461,1917-10-14,Uruguay,Argentina,1,0,Copa América,Montevideo,Uruguay,False
473,1918-07-18,Uruguay,Argentina,1,1,Copa Premio Honor Uruguayo,Montevideo,Uruguay,False
474,1918-07-28,Uruguay,Argentina,3,1,Copa Premio Honor Uruguayo,Montevideo,Uruguay,False
475,1918-08-15,Argentina,Uruguay,0,0,Copa Premio Honor Argentino,Buenos Aires,Argentina,False
476,1918-08-25,Argentina,Uruguay,2,1,Copa Premio Honor Argentino,Buenos Aires,Argentina,False
478,1918-09-20,Uruguay,Argentina,1,1,Copa Lipton,Montevideo,Uruguay,False
479,1918-09-29,Argentina,Uruguay,2,0,Copa Newton,Buenos Aires,Argentina,False
487,1919-05-13,Argentina,Uruguay,2,3,Copa América,Rio de Janeiro,Brazil,True
502,1919-07-18,Uruguay,Argentina,4,1,Copa Premio Honor Uruguayo,Montevideo,Uruguay,False
504,1919-08-24,Uruguay,Argentina,2,1,Copa Newton,Montevideo,Uruguay,False
506,1919-09-07,Argentina,Uruguay,1,2,Copa Lipton,Buenos Aires,Argentina,False
512,1919-10-19,Argentina,Uruguay,6,1,Copa Premio Honor Argentino,Buenos Aires,Argentina,False
515,1919-12-07,Uruguay,Argentina,4,2,Friendly,Montevideo,Uruguay,False
534,1920-07-18,Uruguay,Argentina,2,0,Copa Premio Honor Uruguayo,Montevideo,Uruguay,False
535,1920-07-25,Argentina,Uruguay,1,3,Copa Newton,Buenos Aires,Argentina,False
536,1920-08-08,Argentina,Uruguay,1,0,Copa Premio Honor Argentino,Buenos Aires,Argentina,False
538,1920-09-12,Uruguay,Argentina,1,1,Copa América,Viña del Mar,Chile,True
595,1921-10-30,Argentina,Uruguay,1,0,Copa América,Buenos Aires,Argentina,False
652,1922-10-08,Argentina,Uruguay,0,1,Copa América,Rio de Janeiro,Brazil,True
661,1922-11-12,Uruguay,Argentina,1,0,Copa Lipton,Montevideo,Uruguay,False
665,1922-12-10,Uruguay,Argentina,1,0,Copa Premio Honor Uruguayo,Montevideo,Uruguay,False
666,1922-12-17,Argentina,Uruguay,2,2,Copa Newton,Buenos Aires,Argentina,False
709,1923-06-24,Argentina,Uruguay,0,0,Copa Lipton,Buenos Aires,Argentina,False
714,1923-07-15,Argentina,Uruguay,2,2,Friendly,Buenos Aires,Argentina,False
715,1923-07-22,Uruguay,Argentina,2,2,Copa Premio Honor Uruguayo,Montevideo,Uruguay,False
728,1923-09-30,Uruguay,Argentina,0,2,Copa Premio Honor Uruguayo,Montevideo,Uruguay,False
748,1923-12-02,Uruguay,Argentina,2,0,Copa América,Montevideo,Uruguay,False
779,1924-05-25,Argentina,Uruguay,4,0,Copa Newton,Buenos Aires,Argentina,False
780,1924-05-25,Uruguay,Argentina,2,0,Copa Lipton,Montevideo,Uruguay,False
812,1924-09-21,Uruguay,Argentina,1,1,Friendly,Montevideo,Uruguay,False
815,1924-10-02,Argentina,Uruguay,2,1,Friendly,Buenos Aires,Argentina,False
825,1924-11-02,Uruguay,Argentina,0,0,Copa América,Montevideo,Uruguay,False
981,1926-10-24,Argentina,Uruguay,0,2,Copa América,Santiago,Chile,True
1037,1927-07-14,Uruguay,Argentina,0,1,Copa Newton,Montevideo,Uruguay,False
1045,1927-08-30,Argentina,Uruguay,0,1,Copa Lipton,Buenos Aires,Argentina,False
1070,1927-11-20,Argentina,Uruguay,3,2,Copa América,Lima,Peru,True
1125,1928-08-30,Argentina,Uruguay,1,0,Copa Newton,Avellaneda,Argentina,False
1129,1928-09-21,Uruguay,Argentina,2,2,Copa Lipton,Montevideo,Uruguay,False
1184,1929-06-16,Argentina,Uruguay,2,0,Friendly,Buenos Aires,Argentina,False
1186,1929-06-16,Uruguay,Argentina,1,1,Friendly,Montevideo,Uruguay,False
1204,1929-09-20,Uruguay,Argentina,2,1,Copa Newton,Montevideo,Uruguay,False
1205,1929-09-28,Argentina,Uruguay,0,0,Copa Lipton,Buenos Aires,Argentina,False
1227,1929-11-17,Argentina,Uruguay,2,0,Copa América,Buenos Aires,Argentina,False
1259,1930-05-25,Argentina,Uruguay,1,1,Copa Newton,Buenos Aires,Argentina,False
1296,1930-07-30,Uruguay,Argentina,4,2,FIFA World Cup,Montevideo,Uruguay,False
1453,1932-05-15,Argentina,Uruguay,2,0,Friendly,Buenos Aires,Argentina,False
1455,1932-05-18,Uruguay,Argentina,1,0,Friendly,Montevideo,Uruguay,False
1515,1933-01-21,Uruguay,Argentina,2,1,Friendly,Montevideo,Uruguay,False
1518,1933-02-05,Argentina,Uruguay,4,1,Friendly,Avellaneda,Argentina,False
1605,1933-12-14,Uruguay,Argentina,0,1,Friendly,Montevideo,Uruguay,False
1672,1934-07-18,Uruguay,Argentina,2,2,Friendly,Montevideo,Uruguay,False
1680,1934-08-15,Argentina,Uruguay,1,0,Friendly,Avellaneda,Argentina,False
1717,1935-01-27,Argentina,Uruguay,0,3,Copa América,Lima,Peru,True
1768,1935-07-18,Uruguay,Argentina,1,1,Friendly,Montevideo,Uruguay,False
1771,1935-08-15,Argentina,Uruguay,3,0,Friendly,Avellaneda,Argentina,False
1860,1936-08-09,Argentina,Uruguay,1,0,Friendly,Buenos Aires,Argentina,False
1870,1936-09-20,Uruguay,Argentina,2,1,Friendly,Montevideo,Uruguay,False
1910,1937-01-23,Argentina,Uruguay,2,3,Copa América,Buenos Aires,Argentina,False
1983,1937-10-10,Uruguay,Argentina,0,3,Copa Newton,Montevideo,Uruguay,False
1996,1937-11-11,Argentina,Uruguay,5,1,Copa Lipton,Avellaneda,Argentina,False
2069,1938-06-18,Argentina,Uruguay,1,0,Friendly,Buenos Aires,Argentina,False
2121,1938-10-12,Uruguay,Argentina,2,3,Friendly,Montevideo,Uruguay,False
2254,1940-07-18,Uruguay,Argentina,3,0,Friendly,Montevideo,Uruguay,False
2256,1940-08-15,Argentina,Uruguay,5,0,Friendly,Buenos Aires,Argentina,False
2291,1941-02-23,Argentina,Uruguay,1,0,Copa América,Santiago,Chile,True
2351,1942-02-07,Uruguay,Argentina,1,0,Copa América,Montevideo,Uruguay,False
2359,1942-05-25,Argentina,Uruguay,4,1,Copa Newton,Buenos Aires,Argentina,False
2373,1942-08-25,Uruguay,Argentina,1,1,Copa Lipton,Montevideo,Uruguay,False
2384,1943-03-28,Argentina,Uruguay,3,3,Friendly,Buenos Aires,Argentina,False
2386,1943-04-04,Uruguay,Argentina,0,1,Friendly,Montevideo,Uruguay,False
2469,1945-02-25,Argentina,Uruguay,1,0,Copa América,Santiago,Chile,True
2483,1945-07-18,Uruguay,Argentina,2,2,Copa Lipton,Montevideo,Uruguay,False
2485,1945-08-15,Argentina,Uruguay,6,2,Copa Newton,Buenos Aires,Argentina,False
2523,1946-02-02,Argentina,Uruguay,3,1,Copa América,Buenos Aires,Argentina,False
2734,1947-12-28,Argentina,Uruguay,3,1,Copa América,Guayaquil,Ecuador,True
3692,1955-03-27,Argentina,Uruguay,6,1,Copa América,Santiago,Chile,True
3841,1956-02-15,Uruguay,Argentina,1,0,Copa América,Montevideo,Uruguay,False
3920,1956-07-01,Uruguay,Argentina,1,2,Atlantic Cup,Montevideo,Uruguay,False
3974,1956-10-10,Uruguay,Argentina,1,2,Friendly,Paysandú,Uruguay,False
3994,1956-11-14,Argentina,Uruguay,2,2,Friendly,Buenos Aires,Argentina,False
4042,1957-03-20,Argentina,Uruguay,4,0,Copa América,Lima,Peru,True
4088,1957-05-23,Uruguay,Argentina,0,0,Copa Newton,Montevideo,Uruguay,False
4100,1957-06-05,Argentina,Uruguay,1,1,Copa Lipton,Buenos Aires,Argentina,False
4252,1958-04-06,Uruguay,Argentina,1,0,Friendly,Montevideo,Uruguay,False
4264,1958-04-30,Argentina,Uruguay,2,0,Friendly,Buenos Aires,Argentina,False
4436,1959-03-30,Argentina,Uruguay,4,1,Copa América,Buenos Aires,Argentina,False
4573,1959-12-16,Argentina,Uruguay,0,5,Copa América,Guayaquil,Ecuador,True
4702,1960-08-17,Argentina,Uruguay,4,0,Atlantic Cup,Buenos Aires,Argentina,False
5014,1962-03-13,Uruguay,Argentina,1,1,Friendly,Montevideo,Uruguay,False
5118,1962-08-15,Argentina,Uruguay,3,1,Copa Lipton,Buenos Aires,Argentina,False
6349,1967-02-02,Uruguay,Argentina,1,0,Copa América,Montevideo,Uruguay,False
6727,1968-06-05,Argentina,Uruguay,2,0,Copa Lipton,Buenos Aires,Argentina,False
6741,1968-06-20,Uruguay,Argentina,2,1,Copa Newton,Montevideo,Uruguay,False
7335,1970-04-08,Argentina,Uruguay,2,1,Friendly,Buenos Aires,Argentina,False
7344,1970-04-15,Uruguay,Argentina,2,1,Friendly,Montevideo,Uruguay,False
7754,1971-07-14,Argentina,Uruguay,1,0,Friendly,Buenos Aires,Argentina,False
7765,1971-07-18,Uruguay,Argentina,1,1,Friendly,Montevideo,Uruguay,False
8171,1972-07-06,Argentina,Uruguay,1,0,Brazil Independence Cup,Porto Alegre,Brazil,True
8506,1973-05-17,Argentina,Uruguay,1,1,Copa Lipton,Buenos Aires,Argentina,False
8521,1973-05-23,Uruguay,Argentina,1,1,Copa Newton,Montevideo,Uruguay,False
9313,1975-07-18,Uruguay,Argentina,2,3,Copa Newton,Montevideo,Uruguay,False
9591,1976-04-08,Argentina,Uruguay,4,1,Copa Lipton,Buenos Aires,Argentina,False
9663,1976-06-09,Uruguay,Argentina,0,3,Copa Newton,Montevideo,Uruguay,False
10382,1978-04-25,Uruguay,Argentina,2,0,Friendly,Montevideo,Uruguay,False
10390,1978-05-03,Argentina,Uruguay,3,0,Friendly,Buenos Aires,Argentina,False
13020,1984-07-18,Uruguay,Argentina,1,0,Friendly,Montevideo,Uruguay,False
13040,1984-08-02,Argentina,Uruguay,0,0,Friendly,Buenos Aires,Argentina,False
14143,1986-06-16,Argentina,Uruguay,1,0,FIFA World Cup,Puebla,Mexico,True
14491,1987-07-09,Argentina,Uruguay,0,1,Copa América,Buenos Aires,Argentina,False
15556,1989-07-08,Uruguay,Argentina,0,1,Copa América,Goiânia,Brazil,True
15568,1989-07-14,Argentina,Uruguay,0,2,Copa América,Rio de Janeiro,Brazil,True
17056,1992-09-23,Uruguay,Argentina,0,0,Copa Lipton,Montevideo,Uruguay,False
20004,1997-01-12,Uruguay,Argentina,0,0,FIFA World Cup qualification,Montevideo,Uruguay,False
20714,1997-10-12,Argentina,Uruguay,0,0,FIFA World Cup qualification,Buenos Aires,Argentina,False
21922,1999-07-07,Uruguay,Argentina,0,2,Copa América,Luque,Paraguay,True
23094,2000-10-08,Argentina,Uruguay,2,1,FIFA World Cup qualification,Buenos Aires,Argentina,False
24189,2001-11-14,Uruguay,Argentina,1,1,FIFA World Cup qualification,Montevideo,Uruguay,False
25474,2003-07-16,Argentina,Uruguay,2,2,Friendly,La Plata,Argentina,False
25502,2003-08-20,Argentina,Uruguay,3,2,Friendly,Florence,Italy,True
26449,2004-07-13,Argentina,Uruguay,4,2,Copa América,Piura,Peru,True
26663,2004-10-09,Argentina,Uruguay,4,2,FIFA World Cup qualification,Buenos Aires,Argentina,False
27592,2005-10-12,Uruguay,Argentina,1,0,FIFA World Cup qualification,Montevideo,Uruguay,False
30311,2008-10-11,Argentina,Uruguay,2,1,FIFA World Cup qualification,Buenos Aires,Argentina,False
31250,2009-10-14,Uruguay,Argentina,0,1,FIFA World Cup qualification,Montevideo,Uruguay,False
32692,2011-07-16,Argentina,Uruguay,1,1,Copa América,Santa Fe,Argentina,False
33987,2012-10-12,Argentina,Uruguay,3,0,FIFA World Cup qualification,Mendoza,Argentina,False
35100,2013-10-15,Uruguay,Argentina,3,2,FIFA World Cup qualification,Montevideo,Uruguay,False
36457,2015-06-16,Argentina,Uruguay,1,0,Copa América,La Serena,Chile,True
37536,2016-09-01,Argentina,Uruguay,1,0,FIFA World Cup qualification,Mendoza,Argentina,False
38385,2017-08-31,Uruguay,Argentina,0,0,FIFA World Cup qualification,Montevideo,Uruguay,False
