,date,home_team,away_team,home_score,away_score,tournament,city,country,neutral
1088,1928-04-01,Portugal,Argentina,0,0,Friendly,Lisbon,Portugal,False
3351,1952-12-14,Portugal,Argentina,1,3,Friendly,Oeiras,Portugal,False
3664,1954-11-28,Portugal,Argentina,1,3,Friendly,Oeiras,Portugal,False
4878,1961-06-04,Portugal,Argentina,0,2,Friendly,Oeiras,Portugal,False
5556,1964-05-31,Argentina,Portugal,2,0,Friendly,Rio de Janeiro,Brazil,True
8158,1972-06-29,Argentina,Portugal,1,3,Brazil Independence Cup,Rio de Janeiro,Brazil,True
32325,2011-02-09,Argentina,Portugal,2,1,Friendly,Geneva,Switzerland,True
36007,2014-11-18,Portugal,Argentina,1,0,Friendly,Manchester,England,True
