,date,home_team,away_team,home_score,away_score,tournament,city,country,neutral
18184,1994-05-26,Australia,France,0,1,Kirin Cup,Kobe,Japan,True
23747,2001-06-01,Australia,France,1,0,Confederations Cup,Daegu,Korea Republic,True
24166,2001-11-11,Australia,France,1,1,Friendly,Melbourne,Australia,False
35024,2013-10-11,France,Australia,6,0,Friendly,Saint-Denis,France,False
