,date,home_team,away_team,home_score,away_score,tournament,city,country,neutral
7532,1970-11-04,Iran,Australia,1,2,Friendly,Teheran,Iran,False
8636,1973-08-18,Australia,Iran,3,0,FIFA World Cup qualification,Sydney,Australia,False
8650,1973-08-24,Iran,Australia,2,0,FIFA World Cup qualification,Teheran,Iran,False
10142,1977-08-14,Australia,Iran,0,1,FIFA World Cup qualification,Melbourne,Australia,False
10276,1977-11-25,Iran,Australia,1,0,FIFA World Cup qualification,Teheran,Iran,False
20776,1997-11-22,Iran,Australia,1,1,FIFA World Cup qualification,Teheran,Iran,False
20781,1997-11-29,Australia,Iran,2,2,FIFA World Cup qualification,Melbourne,Australia,False
