,date,home_team,away_team,home_score,away_score,tournament,city,country,neutral
6997,1969-04-16,Belgium,Mexico,2,0,Friendly,Brussels,Belgium,False
7215,1969-11-05,Mexico,Belgium,1,0,Friendly,Mexico City,Mexico,False
7400,1970-06-11,Mexico,Belgium,1,0,FIFA World Cup,Mexico City,Mexico,False
14106,1986-06-03,Mexico,Belgium,2,1,FIFA World Cup,Mexico City,Mexico,False
15975,1990-06-02,Belgium,Mexico,3,0,Friendly,Brussels,Belgium,False
21149,1998-06-20,Belgium,Mexico,2,2,FIFA World Cup,Bordeaux,France,True
38619,2017-11-10,Belgium,Mexico,3,3,Friendly,Brussels,Belgium,False
