,date,home_team,away_team,home_score,away_score,tournament,city,country,neutral
674,1923-02-04,Belgium,Spain,1,0,Friendly,Antwerp,Belgium,False
2862,1949-01-02,Spain,Belgium,1,1,Friendly,Barcelona,Spain,False
3181,1951-06-10,Belgium,Spain,3,3,Friendly,Brussels,Belgium,False
3393,1953-03-19,Spain,Belgium,3,1,Friendly,Barcelona,Spain,False
4052,1957-03-31,Belgium,Spain,0,5,Friendly,Brussels,Belgium,False
5214,1962-12-02,Belgium,Spain,1,1,Friendly,Brussels,Belgium,False
5471,1963-12-01,Spain,Belgium,1,2,Friendly,Valencia,Spain,False
6922,1968-12-11,Spain,Belgium,1,1,FIFA World Cup qualification,Madrid,Spain,False
6976,1969-02-23,Belgium,Spain,2,1,FIFA World Cup qualification,Liège,Belgium,False
11194,1980-06-15,Belgium,Spain,2,1,UEFA Euro,Milan,Italy,True
11972,1981-12-16,Spain,Belgium,2,0,Friendly,Valencia,Spain,False
13954,1986-02-19,Spain,Belgium,3,0,Friendly,Elche,Spain,False
14154,1986-06-22,Spain,Belgium,1,1,FIFA World Cup,Puebla,Mexico,True
16018,1990-06-21,Belgium,Spain,1,2,FIFA World Cup,Verona,Italy,True
18523,1994-12-17,Belgium,Spain,1,4,UEFA Euro qualification,Brussels,Belgium,False
18657,1995-03-29,Spain,Belgium,1,1,UEFA Euro qualification,Seville,Spain,False
26695,2004-10-09,Spain,Belgium,2,0,FIFA World Cup qualification,Santander,Spain,False
27510,2005-10-08,Belgium,Spain,0,2,FIFA World Cup qualification,Brussels,Belgium,False
30380,2008-10-15,Belgium,Spain,1,2,FIFA World Cup qualification,Brussels,Belgium,False
31106,2009-09-05,Spain,Belgium,5,0,FIFA World Cup qualification,La Coruña,Spain,False
37539,2016-09-01,Belgium,Spain,0,2,Friendly,Brussels,Belgium,False
