,date,home_team,away_team,home_score,away_score,tournament,city,country,neutral
3889,1956-05-09,England,Brazil,4,2,Friendly,London,England,False
4305,1958-06-11,Brazil,England,0,0,FIFA World Cup,Gothenburg,Sweden,True
4457,1959-05-13,Brazil,England,2,0,Friendly,Rio de Janeiro,Brazil,False
5090,1962-06-10,Brazil,England,3,1,FIFA World Cup,Viña del Mar,Chile,True
5338,1963-05-08,England,Brazil,1,1,Friendly,London,England,False
5555,1964-05-30,Brazil,England,5,1,Friendly,Rio de Janeiro,Brazil,False
7057,1969-06-12,Brazil,England,2,1,Friendly,Rio de Janeiro,Brazil,False
7389,1970-06-07,Brazil,England,1,0,FIFA World Cup,Guadalajara,Mexico,True
9642,1976-05-23,Brazil,England,1,0,Friendly,Los Angeles,USA,True
10073,1977-06-08,Brazil,England,0,0,Friendly,Rio de Janeiro,Brazil,False
10376,1978-04-19,England,Brazil,1,1,Friendly,London,England,False
11673,1981-05-12,England,Brazil,0,1,Friendly,London,England,False
12971,1984-06-10,Brazil,England,0,2,Friendly,Rio de Janeiro,Brazil,False
14426,1987-05-19,England,Brazil,1,1,Rous Cup,London,England,False
15880,1990-03-28,England,Brazil,1,0,Friendly,London,England,False
16800,1992-05-17,England,Brazil,1,1,Friendly,London,England,False
17659,1993-06-13,Brazil,England,1,1,USA Cup,Washington,USA,True
18815,1995-06-11,England,Brazil,1,3,Friendly,London,England,False
20402,1997-06-10,England,Brazil,0,1,Tournoi de France,Paris,France,True
22688,2000-05-27,England,Brazil,1,1,Friendly,London,England,False
24588,2002-06-21,England,Brazil,1,2,FIFA World Cup,Fukuroi,Japan,True
28799,2007-06-01,England,Brazil,1,1,Friendly,London,England,False
31288,2009-11-14,Brazil,England,1,0,Friendly,Doha,Qatar,True
34384,2013-02-06,England,Brazil,2,1,Friendly,London,England,False
34603,2013-06-02,Brazil,England,2,2,Friendly,Rio de Janeiro,Brazil,False
38674,2017-11-14,England,Brazil,0,0,Friendly,London,England,False
