,date,home_team,away_team,home_score,away_score,tournament,city,country,neutral
2070,1938-06-19,Brazil,Sweden,4,2,FIFA World Cup,Bordeaux,France,True
3082,1950-07-09,Brazil,Sweden,7,1,FIFA World Cup,Rio de Janeiro,Brazil,False
4332,1958-06-29,Sweden,Brazil,2,5,FIFA World Cup,Solna,Sweden,False
5829,1965-06-30,Sweden,Brazil,1,2,Friendly,Solna,Sweden,False
6126,1966-06-30,Sweden,Brazil,2,3,Friendly,Gothenburg,Sweden,False
8561,1973-06-25,Sweden,Brazil,1,0,Friendly,Solna,Sweden,False
10428,1978-06-03,Brazil,Sweden,1,1,FIFA World Cup,Mar del Plata,Argentina,True
12533,1983-06-22,Sweden,Brazil,3,3,Friendly,Gothenburg,Sweden,False
15503,1989-06-16,Brazil,Sweden,1,2,Friendly,Copenhagen,Denmark,True
15990,1990-06-10,Brazil,Sweden,2,1,FIFA World Cup,Turin,Italy,True
18258,1994-06-28,Brazil,Sweden,1,1,FIFA World Cup,Pontiac,USA,True
18291,1994-07-13,Sweden,Brazil,0,1,FIFA World Cup,Pasadena,USA,True
18781,1995-06-04,Brazil,Sweden,1,0,Friendly,Birmingham,England,True
29659,2008-03-26,Brazil,Sweden,1,0,Friendly,London,England,True
33799,2012-08-15,Sweden,Brazil,0,3,Friendly,Solna,Sweden,False
