,date,home_team,away_team,home_score,away_score,tournament,city,country,neutral
14944,1988-07-13,Brazil,Saudi Arabia,4,1,Friendly,Melbourne,Australia,True
20800,1997-12-12,Saudi Arabia,Brazil,0,3,Confederations Cup,Riyadh,Saudi Arabia,False
21971,1999-08-01,Brazil,Saudi Arabia,8,2,Confederations Cup,Guadalajara,Mexico,True
24325,2002-02-06,Saudi Arabia,Brazil,0,1,Friendly,Riyadh,Saudi Arabia,False
