,date,home_team,away_team,home_score,away_score,tournament,city,country,neutral
2456,1945-01-28,Colombia,Uruguay,0,7,Copa América,Santiago,Chile,True
2708,1947-12-02,Colombia,Uruguay,0,2,Copa América,Guayaquil,Ecuador,True
2897,1949-04-25,Uruguay,Colombia,2,2,Copa América,São Paulo,Brazil,True
4041,1957-03-17,Colombia,Uruguay,1,0,Copa América,Lima,Peru,True
4107,1957-06-16,Colombia,Uruguay,1,1,FIFA World Cup qualification,Bogotá,Colombia,False
4124,1957-06-30,Uruguay,Colombia,1,0,FIFA World Cup qualification,Montevideo,Uruguay,False
5065,1962-05-30,Colombia,Uruguay,1,2,FIFA World Cup,Arica,Chile,True
7075,1969-07-02,Colombia,Uruguay,0,1,Friendly,Cali,Colombia,False
8560,1973-06-24,Colombia,Uruguay,0,0,FIFA World Cup qualification,Bogotá,Colombia,False
8568,1973-07-05,Uruguay,Colombia,0,1,FIFA World Cup qualification,Montevideo,Uruguay,False
9402,1975-09-21,Colombia,Uruguay,3,0,Copa América,Bogotá,Colombia,False
9411,1975-10-01,Uruguay,Colombia,1,0,Copa América,Montevideo,Uruguay,False
9798,1976-10-15,Colombia,Uruguay,1,2,Friendly,Bogotá,Colombia,False
11779,1981-08-09,Uruguay,Colombia,3,2,FIFA World Cup qualification,Montevideo,Uruguay,False
11838,1981-09-13,Colombia,Uruguay,1,1,FIFA World Cup qualification,Bogotá,Colombia,False
13421,1985-02-24,Uruguay,Colombia,3,0,Friendly,Montevideo,Uruguay,False
13582,1985-04-28,Colombia,Uruguay,2,1,Friendly,Bogotá,Colombia,False
14991,1988-08-07,Colombia,Uruguay,2,1,Friendly,Bogotá,Colombia,False
15590,1989-08-06,Uruguay,Colombia,0,0,Friendly,Montevideo,Uruguay,False
15801,1990-02-02,Colombia,Uruguay,0,2,Friendly,Miami,USA,True
16485,1991-07-15,Colombia,Uruguay,0,1,Copa América,Viña del Mar,Chile,True
17705,1993-06-26,Colombia,Uruguay,1,1,Copa América,Guayaquil,Ecuador,True
18624,1995-03-22,Colombia,Uruguay,2,1,Friendly,Medellín,Colombia,False
18884,1995-07-19,Uruguay,Colombia,2,0,Copa América,Montevideo,Uruguay,False
19583,1996-07-07,Colombia,Uruguay,3,1,FIFA World Cup qualification,Barranquilla,Colombia,False
20397,1997-06-08,Uruguay,Colombia,1,1,FIFA World Cup qualification,Montevideo,Uruguay,False
21906,1999-07-01,Uruguay,Colombia,0,1,Copa América,Asunción,Paraguay,True
22943,2000-08-15,Colombia,Uruguay,1,0,FIFA World Cup qualification,Bogotá,Colombia,False
24118,2001-10-07,Uruguay,Colombia,1,1,FIFA World Cup qualification,Montevideo,Uruguay,False
26295,2004-06-06,Colombia,Uruguay,5,0,FIFA World Cup qualification,Barranquilla,Colombia,False
26478,2004-07-24,Colombia,Uruguay,1,2,Copa América,Cusco,Peru,True
27468,2005-09-04,Uruguay,Colombia,3,2,FIFA World Cup qualification,Montevideo,Uruguay,False
28609,2007-02-07,Colombia,Uruguay,1,3,Friendly,Cúcuta,Colombia,False
29606,2008-02-06,Uruguay,Colombia,2,2,Friendly,Montevideo,Uruguay,False
30192,2008-09-06,Colombia,Uruguay,0,1,FIFA World Cup qualification,Bogotá,Colombia,False
33833,2012-09-07,Colombia,Uruguay,4,0,FIFA World Cup qualification,Barranquilla,Colombia,False
34997,2013-09-10,Uruguay,Colombia,2,0,FIFA World Cup qualification,Montevideo,Uruguay,False
35577,2014-06-28,Colombia,Uruguay,2,0,FIFA World Cup,Rio de Janeiro,Brazil,True
36823,2015-10-13,Uruguay,Colombia,3,0,FIFA World Cup qualification,Montevideo,Uruguay,False
37734,2016-10-11,Colombia,Uruguay,2,2,FIFA World Cup qualification,Barranquilla,Colombia,False
