,date,home_team,away_team,home_score,away_score,tournament,city,country,neutral
8138,1972-06-18,Colombia,France,2,3,Brazil Independence Cup,Salvador,Brazil,True
25371,2003-06-18,France,Colombia,1,0,Confederations Cup,Lyon,France,False
29852,2008-06-03,France,Colombia,1,0,Friendly,Saint-Denis,France,False
38815,2018-03-23,France,Colombia,2,3,Friendly,Saint-Denis,France,False
