,date,home_team,away_team,home_score,away_score,tournament,city,country,neutral
15924,1990-05-06,Costa Rica,Poland,0,2,Friendly,Chicago,USA,True
28053,2006-06-20,Costa Rica,Poland,1,2,FIFA World Cup,Hanover,Germany,True
