,date,home_team,away_team,home_score,away_score,tournament,city,country,neutral
3014,1950-02-26,Croatia,Serbia,4,1,Friendly,Zagreb,Yugoslavia,False
22005,1999-08-18,Serbia,Croatia,0,0,UEFA Euro qualification,Belgrade,Yugoslavia,False
22089,1999-10-09,Croatia,Serbia,2,2,UEFA Euro qualification,Zagreb,Croatia,False
34475,2013-03-22,Croatia,Serbia,2,0,FIFA World Cup qualification,Zagreb,Croatia,False
34928,2013-09-06,Serbia,Croatia,1,1,FIFA World Cup qualification,Belgrade,Serbia,False
