,date,home_team,away_team,home_score,away_score,tournament,city,country,neutral
6111,1966-06-21,Denmark,Portugal,1,3,Friendly,Esbjerg,Denmark,False
7506,1970-10-14,Denmark,Portugal,0,1,UEFA Euro qualification,Copenhagen,Denmark,False
7665,1971-05-12,Portugal,Denmark,5,0,UEFA Euro qualification,Porto,Portugal,False
9855,1976-11-17,Portugal,Denmark,1,0,FIFA World Cup qualification,Lisbon,Portugal,False
10206,1977-10-09,Denmark,Portugal,2,4,FIFA World Cup qualification,Copenhagen,Denmark,False
19483,1996-06-09,Denmark,Portugal,1,1,UEFA Euro,Sheffield,England,True
22483,2000-03-29,Portugal,Denmark,2,1,Friendly,Leiria,Portugal,False
28180,2006-09-01,Denmark,Portugal,4,2,Friendly,Brøndby,Denmark,False
30271,2008-09-10,Portugal,Denmark,2,3,FIFA World Cup qualification,Lisbon,Portugal,False
31082,2009-09-05,Denmark,Portugal,1,1,FIFA World Cup qualification,Copenhagen,Denmark,False
31980,2010-10-08,Portugal,Denmark,3,1,UEFA Euro qualification,Porto,Portugal,False
33060,2011-10-11,Denmark,Portugal,2,1,UEFA Euro qualification,Copenhagen,Denmark,False
33681,2012-06-13,Denmark,Portugal,2,3,UEFA Euro,L'viv,Ukraine,True
35857,2014-10-14,Denmark,Portugal,0,1,UEFA Euro qualification,Copenhagen,Denmark,False
36717,2015-10-08,Portugal,Denmark,1,0,UEFA Euro qualification,Braga,Portugal,False
