,date,home_team,away_team,home_score,away_score,tournament,city,country,neutral
18552,1995-01-08,Saudi Arabia,Denmark,0,2,Confederations Cup,Riyadh,Saudi Arabia,False
21130,1998-06-12,Saudi Arabia,Denmark,0,1,FIFA World Cup,Lens,France,True
24360,2002-02-13,Saudi Arabia,Denmark,0,1,Friendly,Riyadh,Saudi Arabia,False
