,date,home_team,away_team,home_score,away_score,tournament,city,country,neutral
16649,1991-12-03,Egypt,Poland,4,0,Friendly,Cairo,Egypt,False
16654,1991-12-05,Egypt,Poland,0,0,Friendly,Cairo,Egypt,False
