,date,home_team,away_team,home_score,away_score,tournament,city,country,neutral
5453,1963-11-18,Egypt,Saudi Arabia,7,0,Friendly,Jakarta,Indonesia,True
9479,1975-12-23,Egypt,Saudi Arabia,2,1,Friendly,Tunis,Tunisia,True
14933,1988-07-09,Egypt,Saudi Arabia,0,0,UAFA Cup,Amman,Jordan,True
15117,1988-11-14,Saudi Arabia,Egypt,0,0,Friendly,Riyadh,Saudi Arabia,False
21962,1999-07-29,Egypt,Saudi Arabia,1,5,Confederations Cup,Mexico City,Mexico,True
27070,2005-03-14,Saudi Arabia,Egypt,0,1,Friendly,Dammam,Saudi Arabia,False
