,date,home_team,away_team,home_score,away_score,tournament,city,country,neutral
4461,1959-05-17,Peru,England,4,1,Friendly,Lima,Peru,False
5056,1962-05-20,Peru,England,0,4,Friendly,Lima,Peru,False
35442,2014-05-30,England,Peru,3,0,Friendly,London,England,False
