,date,home_team,away_team,home_score,away_score,tournament,city,country,neutral
4289,1958-05-18,Russia,England,1,1,Friendly,Moscow,Soviet Union,False
4298,1958-06-08,England,Russia,2,2,FIFA World Cup,Gothenburg,Sweden,True
4321,1958-06-17,England,Russia,0,1,FIFA World Cup,Gothenburg,Sweden,True
4378,1958-10-22,England,Russia,5,0,Friendly,London,England,False
6626,1967-12-06,England,Russia,2,2,Friendly,London,England,False
6731,1968-06-08,England,Russia,2,0,UEFA Euro,Rome,Italy,True
8545,1973-06-10,Russia,England,1,2,Friendly,Moscow,Soviet Union,False
12957,1984-06-02,England,Russia,0,2,Friendly,London,England,False
14028,1986-03-26,Russia,England,0,1,Friendly,Tbilisi,Soviet Union,False
14903,1988-06-18,England,Russia,1,3,UEFA Euro,Frankfurt am Main,Germany,True
16360,1991-05-21,England,Russia,3,1,Friendly,London,England,False
16780,1992-04-29,Russia,England,2,2,Friendly,Moscow,Russia,False
29201,2007-09-12,England,Russia,3,0,UEFA Euro qualification,London,England,False
29313,2007-10-17,Russia,England,2,1,UEFA Euro qualification,Moscow,Russia,False
37415,2016-06-11,England,Russia,1,1,UEFA Euro,Marseille,France,True
