,date,home_team,away_team,home_score,away_score,tournament,city,country,neutral
12303,1982-10-27,Spain,Iceland,1,0,UEFA Euro qualification,Málaga,Spain,False
12495,1983-05-29,Iceland,Spain,0,1,UEFA Euro qualification,Reykjavík,Iceland,False
13670,1985-06-12,Iceland,Spain,1,2,FIFA World Cup qualification,Reykjavík,Iceland,False
13788,1985-09-25,Spain,Iceland,2,1,FIFA World Cup qualification,Seville,Spain,False
16127,1990-10-10,Spain,Iceland,2,1,UEFA Euro qualification,Seville,Spain,False
16563,1991-09-25,Iceland,Spain,2,0,UEFA Euro qualification,Reykjavík,Iceland,False
28122,2006-08-15,Iceland,Spain,0,0,Friendly,Reykjavík,Iceland,False
28752,2007-03-28,Spain,Iceland,1,0,UEFA Euro qualification,Palma de Mallorca,Spain,False
29149,2007-09-08,Iceland,Spain,1,1,UEFA Euro qualification,Reykjavík,Iceland,False
