,date,home_team,away_team,home_score,away_score,tournament,city,country,neutral
3794,1955-10-23,Russia,France,2,2,Friendly,Moscow,Soviet Union,False
3981,1956-10-21,France,Russia,2,1,Friendly,Colombes,France,False
6084,1966-06-05,Russia,France,3,3,Friendly,Moscow,Soviet Union,False
6436,1967-06-03,France,Russia,2,4,Friendly,Paris,France,False
8275,1972-10-13,France,Russia,1,0,FIFA World Cup qualification,Paris,France,False
8525,1973-05-26,Russia,France,2,0,FIFA World Cup qualification,Moscow,Soviet Union,True
10202,1977-10-08,France,Russia,0,0,Friendly,Paris,France,False
11158,1980-05-23,Russia,France,1,0,Friendly,Moscow,Soviet Union,False
12402,1983-03-23,France,Russia,1,1,Friendly,Paris,France,False
14113,1986-06-05,France,Russia,1,1,FIFA World Cup,León,Mexico,True
14238,1986-10-11,France,Russia,0,2,UEFA Euro qualification,Paris,France,False
14526,1987-09-09,Russia,France,1,1,UEFA Euro qualification,Moscow,Soviet Union,False
17783,1993-07-28,France,Russia,3,1,Friendly,Caen,France,False
20993,1998-03-25,Russia,France,1,0,Friendly,Moscow,Russia,False
21424,1998-10-10,Russia,France,2,3,UEFA Euro qualification,Moscow,Russia,False
21802,1999-06-05,France,Russia,2,3,UEFA Euro qualification,Saint-Denis,France,False
24444,2002-04-17,France,Russia,0,0,Friendly,Saint-Denis,France,False
37199,2016-03-29,France,Russia,4,2,Friendly,Saint-Denis,France,False
38906,2018-03-27,Russia,France,1,3,Friendly,St. Petersburg,Russia,False
