,date,home_team,away_team,home_score,away_score,tournament,city,country,neutral
162,1905-02-12,France,Switzerland,1,0,Friendly,Paris,France,False
203,1908-03-08,Switzerland,France,1,2,Friendly,Geneva,Switzerland,False
286,1911-04-23,Switzerland,France,5,2,Friendly,Geneva,Switzerland,False
307,1912-02-18,France,Switzerland,4,1,Friendly,Saint-Ouen,France,False
344,1913-03-09,Switzerland,France,1,4,Friendly,Geneva,Switzerland,False
379,1914-03-08,France,Switzerland,2,2,Friendly,Saint-Ouen,France,False
519,1920-02-29,Switzerland,France,0,2,Friendly,Geneva,Switzerland,False
686,1923-04-22,France,Switzerland,2,2,Friendly,Vincennes,France,False
764,1924-03-23,Switzerland,France,3,0,Friendly,Geneva,Switzerland,False
931,1926-04-25,France,Switzerland,1,0,Friendly,Colombes,France,False
1082,1928-03-11,Switzerland,France,4,3,Friendly,Lausanne,Switzerland,False
1240,1930-03-23,France,Switzerland,3,3,Friendly,Colombes,France,False
1432,1932-03-20,Switzerland,France,3,3,Friendly,Berne,Switzerland,False
1614,1934-03-11,France,Switzerland,0,1,Friendly,Paris,France,False
1798,1935-10-27,Switzerland,France,2,1,Friendly,Geneva,Switzerland,False
1979,1937-10-10,France,Switzerland,2,1,Friendly,Paris,France,False
2352,1942-03-08,France,Switzerland,0,2,Friendly,Marseille,France,False
2472,1945-04-08,Switzerland,France,1,0,Friendly,Lausanne,Switzerland,False
2639,1947-06-08,Switzerland,France,1,2,Friendly,Lausanne,Switzerland,False
2934,1949-06-04,France,Switzerland,4,2,Friendly,Colombes,France,False
3217,1951-10-14,Switzerland,France,1,2,Friendly,Geneva,Switzerland,False
3510,1953-11-11,France,Switzerland,2,4,Friendly,Colombes,France,False
3785,1955-10-09,Switzerland,France,1,2,Friendly,Basel,Switzerland,False
4256,1958-04-16,France,Switzerland,0,0,Friendly,Paris,France,False
4747,1960-10-12,Switzerland,France,6,2,Friendly,Basel,Switzerland,False
5445,1963-11-11,France,Switzerland,2,2,Friendly,Paris,France,False
7358,1970-05-03,Switzerland,France,2,1,Friendly,Basel,Switzerland,False
10031,1977-04-23,Switzerland,France,0,4,Friendly,Geneva,Switzerland,False
14189,1986-08-19,Switzerland,France,2,0,Friendly,Lausanne,Switzerland,False
14683,1988-02-02,France,Switzerland,2,1,Tournoi de France,Toulouse,France,False
16821,1992-05-27,Switzerland,France,2,1,Friendly,Lausanne,Switzerland,False
25527,2003-08-20,Switzerland,France,0,2,Friendly,Geneva,Switzerland,False
26390,2004-06-21,Switzerland,France,1,3,UEFA Euro,Coimbra,Portugal,True
27097,2005-03-26,France,Switzerland,0,0,FIFA World Cup qualification,Saint-Denis,France,False
27546,2005-10-08,Switzerland,France,1,1,FIFA World Cup qualification,Berne,Switzerland,False
28033,2006-06-13,France,Switzerland,0,0,FIFA World Cup,Stuttgart,Germany,True
35550,2014-06-20,Switzerland,France,2,5,FIFA World Cup,Salvador,Brazil,True
37465,2016-06-19,France,Switzerland,0,0,UEFA Euro,Villeneuve-d'Ascq,France,False
