,date,home_team,away_team,home_score,away_score,tournament,city,country,neutral
1340,1931-03-15,France,Germany,1,0,Friendly,Colombes,France,False
1523,1933-03-19,Germany,France,3,3,Friendly,Berlin,Germany,False
1724,1935-03-17,France,Germany,1,3,Friendly,Paris,France,False
1921,1937-03-21,Germany,France,4,0,Friendly,Stuttgart,Germany,False
3332,1952-10-05,France,Germany,3,1,Friendly,Colombes,France,False
3648,1954-10-16,Germany,France,1,3,Friendly,Hanover,Germany,False
4329,1958-06-28,France,Germany,6,3,FIFA World Cup,Gothenburg,Sweden,True
4382,1958-10-26,France,Germany,2,2,Friendly,Colombes,France,False
5175,1962-10-24,Germany,France,2,2,Friendly,Stuttgart,Germany,False
6523,1967-09-27,Germany,France,5,1,Friendly,Berlin,Germany,False
6816,1968-09-25,France,Germany,1,1,Friendly,Marseille,France,False
8702,1973-10-13,Germany,France,2,1,Friendly,Gelsenkirchen,Germany,False
9945,1977-02-23,France,Germany,1,0,Friendly,Paris,France,False
11434,1980-11-19,Germany,France,4,1,Friendly,Hanover,Germany,False
12226,1982-07-08,Germany,France,3,3,FIFA World Cup,Seville,Spain,True
12933,1984-04-18,France,Germany,1,0,Friendly,Strasbourg,France,False
14156,1986-06-25,France,Germany,0,2,FIFA World Cup,Guadalajara,Mexico,True
14510,1987-08-12,Germany,France,2,1,Friendly,Berlin,Germany,False
15840,1990-02-28,France,Germany,2,1,Friendly,Montpellier,France,False
19437,1996-06-01,Germany,France,0,1,Friendly,Stuttgart,Germany,False
23393,2001-02-27,France,Germany,1,0,Friendly,Saint-Denis,France,False
25759,2003-11-15,Germany,France,0,3,Friendly,Gelsenkirchen,Germany,False
27610,2005-11-12,France,Germany,0,0,Friendly,Saint-Denis,France,False
33393,2012-02-29,Germany,France,1,2,Friendly,Bremen,Germany,False
34385,2013-02-06,France,Germany,1,2,Friendly,Saint-Denis,France,False
35587,2014-07-04,France,Germany,0,1,FIFA World Cup,Rio de Janeiro,Brazil,True
36899,2015-11-13,France,Germany,2,0,Friendly,Saint-Denis,France,False
37509,2016-07-07,France,Germany,2,0,UEFA Euro,Marseille,France,False
38676,2017-11-14,Germany,France,2,2,Friendly,Cologne,Germany,False
