,date,home_team,away_team,home_score,away_score,tournament,city,country,neutral
10441,1978-06-10,Germany,Tunisia,0,0,FIFA World Cup,Córdoba,Argentina,True
17852,1993-09-22,Tunisia,Germany,1,1,Friendly,Tunis,Tunisia,False
27300,2005-06-18,Germany,Tunisia,3,0,Confederations Cup,Cologne,Germany,False
