,date,home_team,away_team,home_score,away_score,tournament,city,country,neutral
10134,1977-07-27,Iran,Morocco,1,1,Friendly,Beijing,China,True
24759,2002-09-17,Iran,Morocco,1,1,Friendly,Tabriz,Iran,False
