,date,home_team,away_team,home_score,away_score,tournament,city,country,neutral
3188,1951-06-29,Iceland,Sweden,4,3,Friendly,Reykjavík,Iceland,False
3625,1954-08-24,Sweden,Iceland,3,2,Friendly,Kalmar,Sweden,False
8573,1973-07-11,Sweden,Iceland,1,0,Friendly,Uddevalla,Sweden,False
10121,1977-07-20,Iceland,Sweden,0,1,Friendly,Reykjavík,Iceland,False
11243,1980-07-17,Sweden,Iceland,1,1,Friendly,Halmstad,Sweden,False
12612,1983-08-17,Iceland,Sweden,0,4,Friendly,Reykjavík,Iceland,False
18350,1994-09-07,Iceland,Sweden,0,1,UEFA Euro qualification,Reykjavík,Iceland,False
18772,1995-06-01,Sweden,Iceland,1,1,UEFA Euro qualification,Solna,Sweden,False
22957,2000-08-16,Iceland,Sweden,2,1,Nordic Championship,Reykjavík,Iceland,False
26726,2004-10-13,Iceland,Sweden,1,4,FIFA World Cup qualification,Reykjavík,Iceland,False
27589,2005-10-12,Sweden,Iceland,3,1,FIFA World Cup qualification,Solna,Sweden,False
28374,2006-10-11,Iceland,Sweden,1,2,UEFA Euro qualification,Reykjavík,Iceland,False
28883,2007-06-06,Sweden,Iceland,5,0,UEFA Euro qualification,Solna,Sweden,False
33534,2012-05-30,Sweden,Iceland,3,2,Friendly,Gothenburg,Sweden,False
35271,2014-01-21,Iceland,Sweden,0,2,Friendly,Abu Dhabi,United Arab Emirates,True
