,date,home_team,away_team,home_score,away_score,tournament,city,country,neutral
32038,2010-10-12,Iceland,Portugal,1,3,UEFA Euro qualification,Reykjavík,Iceland,False
33015,2011-10-07,Portugal,Iceland,5,3,UEFA Euro qualification,Porto,Portugal,False
37441,2016-06-14,Portugal,Iceland,1,1,UEFA Euro,Saint-Étienne,France,True
