,date,home_team,away_team,home_score,away_score,tournament,city,country,neutral
19644,1996-08-25,Japan,Uruguay,5,3,Friendly,Osaka,Japan,False
25140,2003-03-28,Japan,Uruguay,2,2,Friendly,Tokyo,Japan,False
30133,2008-08-20,Japan,Uruguay,1,3,Friendly,Sapporo,Japan,False
34838,2013-08-14,Japan,Uruguay,2,4,Friendly,Rifu,Japan,False
35668,2014-09-05,Japan,Uruguay,0,2,Friendly,Sapporo,Japan,False
