,date,home_team,away_team,home_score,away_score,tournament,city,country,neutral
11897,1981-10-28,Saudi Arabia,Sweden,1,2,Friendly,Riyadh,Saudi Arabia,False
18271,1994-07-03,Saudi Arabia,Sweden,1,3,FIFA World Cup,Dallas,USA,True
27730,2006-01-18,Saudi Arabia,Sweden,1,1,Friendly,Riyadh,Saudi Arabia,False
