,date,home_team,away_team,home_score,away_score,tournament,city,country,neutral
3254,1952-03-23,Mexico,Uruguay,1,3,Pan American Championship,Santiago,Chile,True
6159,1966-07-19,Mexico,Uruguay,0,0,FIFA World Cup,London,England,True
6720,1968-05-21,Mexico,Uruguay,3,3,Friendly,Mexico City,Mexico,False
6722,1968-05-28,Mexico,Uruguay,2,2,Friendly,Mexico City,Mexico,False
6856,1968-10-26,Uruguay,Mexico,0,2,Friendly,Montevideo,Uruguay,False
13207,1984-10-31,Uruguay,Mexico,1,1,Friendly,Montevideo,Uruguay,False
14050,1986-04-13,Mexico,Uruguay,1,0,Friendly,Los Angeles,USA,True
15874,1990-03-20,Mexico,Uruguay,2,1,Friendly,Los Angeles,USA,True
16335,1991-05-07,Mexico,Uruguay,0,2,Friendly,Los Angeles,USA,True
16621,1991-11-20,Mexico,Uruguay,1,1,Friendly,Veracruz,Mexico,False
18577,1995-02-01,Mexico,Uruguay,1,0,Friendly,San Diego,USA,True
18865,1995-07-13,Uruguay,Mexico,1,1,Copa América,Montevideo,Uruguay,False
23929,2001-07-25,Mexico,Uruguay,2,1,Copa América,Pereira,Colombia,True
25702,2003-10-15,Mexico,Uruguay,0,2,Friendly,Chicago,USA,True
26429,2004-07-07,Mexico,Uruguay,2,2,Copa América,Chiclayo,Peru,True
27597,2005-10-26,Mexico,Uruguay,3,1,Friendly,Guadalajara,Mexico,False
29021,2007-07-14,Mexico,Uruguay,3,1,Copa América,Caracas,Venezuela,True
31705,2010-06-22,Mexico,Uruguay,0,1,FIFA World Cup,Rustenburg,South Africa,True
32683,2011-07-12,Uruguay,Mexico,1,0,Copa América,La Plata,Argentina,True
37369,2016-06-05,Mexico,Uruguay,3,1,Copa América,Glendale,USA,True
