,date,home_team,away_team,home_score,away_score,tournament,city,country,neutral
4120,1957-06-23,Russia,Poland,3,0,FIFA World Cup qualification,Moscow,Soviet Union,True
4208,1957-10-20,Poland,Russia,2,1,FIFA World Cup qualification,Chorzów,Poland,False
4228,1957-11-24,Poland,Russia,0,2,FIFA World Cup qualification,Leipzig,German DR,True
4646,1960-05-19,Russia,Poland,7,1,Friendly,Moscow,Soviet Union,False
4867,1961-05-21,Poland,Russia,1,0,Friendly,Warsaw,Poland,False
10163,1977-09-07,Russia,Poland,4,1,Friendly,Volgograd,Soviet Union,False
12222,1982-07-04,Poland,Russia,0,0,FIFA World Cup,Barcelona,Spain,True
12487,1983-05-22,Poland,Russia,1,1,UEFA Euro qualification,Chorzów,Poland,False
12703,1983-10-09,Russia,Poland,2,0,UEFA Euro qualification,Moscow,Soviet Union,False
14866,1988-06-01,Russia,Poland,2,1,Friendly,Moscow,Soviet Union,False
15613,1989-08-23,Poland,Russia,1,1,Friendly,Lubin,Poland,False
19462,1996-06-02,Russia,Poland,2,0,Friendly,Moscow,Russia,False
21083,1998-05-27,Poland,Russia,3,1,Friendly,Chorzów,Poland,False
29094,2007-08-22,Russia,Poland,2,2,Friendly,Moscow,Russia,False
33680,2012-06-12,Poland,Russia,1,1,UEFA Euro,Warsaw,Poland,False
