,date,home_team,away_team,home_score,away_score,tournament,city,country,neutral
21121,1998-06-06,Switzerland,Serbia,1,1,Friendly,Basel,Switzerland,False
21304,1998-09-02,Serbia,Switzerland,1,1,Friendly,Niš,Yugoslavia,False
23488,2001-03-24,Serbia,Switzerland,1,1,FIFA World Cup qualification,Belgrade,Yugoslavia,True
24023,2001-09-01,Switzerland,Serbia,1,2,FIFA World Cup qualification,Basel,Switzerland,False
