,temp,year,id,name
0,14.4,2017,63827612000,MOSKVA
1,18.2,2016,63827612000,MOSKVA
2,17.9,2015,63827612000,MOSKVA
3,16.1,2014,63827612000,MOSKVA
4,19.8,2013,63827612000,MOSKVA
5,17.1,2012,63827612000,MOSKVA
6,19.0,2011,63827612000,MOSKVA
7,18.8,2010,63827612000,MOSKVA
8,17.3,2009,63827612000,MOSKVA
9,15.6,2008,63827612000,MOSKVA
10,17.4,2007,63827612000,MOSKVA
11,18.2,2006,63827612000,MOSKVA
12,16.5,2005,63827612000,MOSKVA
13,15.3,2004,63827612000,MOSKVA
14,12.8,2003,63827612000,MOSKVA
15,17.2,2002,63827612000,MOSKVA
16,16.3,2001,63827612000,MOSKVA
17,16.2,2000,63827612000,MOSKVA
18,21.4,1999,63827612000,MOSKVA
19,20.0,1998,63827612000,MOSKVA
20,17.8,1997,63827612000,MOSKVA
21,16.5,1996,63827612000,MOSKVA
22,19.7,1995,63827612000,MOSKVA
23,14.5,1994,63827612000,MOSKVA
24,14.0,1993,63827612000,MOSKVA
25,16.7,1992,63827612000,MOSKVA
26,18.8,1991,63827612000,MOSKVA
27,14.5,1990,63827612000,MOSKVA
28,20.1,1989,63827612000,MOSKVA
29,19.5,1988,63827612000,MOSKVA
30,17.7,1987,63827612000,MOSKVA
31,18.6,1986,63827612000,MOSKVA
32,14.7,1985,63827612000,MOSKVA
33,15.6,1984,63827612000,MOSKVA
34,14.6,1983,63827612000,MOSKVA
35,13.9,1982,63827612000,MOSKVA
36,19.8,1981,63827612000,MOSKVA
37,17.9,1980,63827612000,MOSKVA
38,17.2,1979,63827612000,MOSKVA
39,14.3,1978,63827612000,MOSKVA
40,16.8,1977,63827612000,MOSKVA
41,13.7,1976,63827612000,MOSKVA
42,17.8,1975,63827612000,MOSKVA
43,16.4,1974,63827612000,MOSKVA
44,18.2,1973,63827612000,MOSKVA
45,19.0,1972,63827612000,MOSKVA
46,16.4,1971,63827612000,MOSKVA
47,15.8,1970,63827612000,MOSKVA
48,14.8,1969,63827612000,MOSKVA
49,18.3,1968,63827612000,MOSKVA
50,16.4,1967,63827612000,MOSKVA
51,16.6,1966,63827612000,MOSKVA
52,16.0,1965,63827612000,MOSKVA
53,19.0,1964,63827612000,MOSKVA
54,13.5,1963,63827612000,MOSKVA
55,13.5,1962,63827612000,MOSKVA
56,19.2,1961,63827612000,MOSKVA
57,18.5,1960,63827612000,MOSKVA
58,16.9,1959,63827612000,MOSKVA
59,14.9,1958,63827612000,MOSKVA
60,15.2,1957,63827612000,MOSKVA
61,20.6,1956,63827612000,MOSKVA
62,15.1,1955,63827612000,MOSKVA
63,19.0,1954,63827612000,MOSKVA
64,19.2,1953,63827612000,MOSKVA
65,17.4,1952,63827612000,MOSKVA
66,17.7,1951,63827612000,MOSKVA
67,14.8,1950,63827612000,MOSKVA
68,16.8,1949,63827612000,MOSKVA
69,20.0,1948,63827612000,MOSKVA
70,17.3,1947,63827612000,MOSKVA
71,20.0,1946,63827612000,MOSKVA
72,15.2,1945,63827612000,MOSKVA
73,15.3,1944,63827612000,MOSKVA
74,16.0,1943,63827612000,MOSKVA
75,13.9,1942,63827612000,MOSKVA
76,12.3,1941,63827612000,MOSKVA
77,15.7,1940,63827612000,MOSKVA
78,17.8,1939,63827612000,MOSKVA
79,16.1,1938,63827612000,MOSKVA
80,18.2,1937,63827612000,MOSKVA
81,19.2,1936,63827612000,MOSKVA
82,17.2,1935,63827612000,MOSKVA
83,13.4,1934,63827612000,MOSKVA
84,15.1,1933,63827612000,MOSKVA
85,16.9,1932,63827612000,MOSKVA
86,14.9,1931,63827612000,MOSKVA
87,13.5,1930,63827612000,MOSKVA
88,14.0,1929,63827612000,MOSKVA
89,12.7,1928,63827612000,MOSKVA
90,16.7,1927,63827612000,MOSKVA
91,17.3,1926,63827612000,MOSKVA
92,15.0,1925,63827612000,MOSKVA
93,17.7,1924,63827612000,MOSKVA
94,15.2,1923,63827612000,MOSKVA
95,15.9,1922,63827612000,MOSKVA
96,17.6,1921,63827612000,MOSKVA
97,14.7,1920,63827612000,MOSKVA
98,16.8,1919,63827612000,MOSKVA
99,15.31,1918,63827612000,MOSKVA
100,19.61,1917,63827612000,MOSKVA
101,15.51,1916,63827612000,MOSKVA
102,14.41,1915,63827612000,MOSKVA
103,17.21,1914,63827612000,MOSKVA
104,14.41,1913,63827612000,MOSKVA
105,18.71,1912,63827612000,MOSKVA
106,15.61,1911,63827612000,MOSKVA
107,16.51,1910,63827612000,MOSKVA
108,15.41,1909,63827612000,MOSKVA
109,15.01,1908,63827612000,MOSKVA
110,15.91,1907,63827612000,MOSKVA
111,17.01,1906,63827612000,MOSKVA
112,18.01,1905,63827612000,MOSKVA
113,12.61,1904,63827612000,MOSKVA
114,18.91,1903,63827612000,MOSKVA
115,16.61,1902,63827612000,MOSKVA
116,20.61,1901,63827612000,MOSKVA
117,14.21,1900,63827612000,MOSKVA
118,13.51,1899,63827612000,MOSKVA
119,16.41,1898,63827612000,MOSKVA
120,18.31,1897,63827612000,MOSKVA
121,18.61,1896,63827612000,MOSKVA
122,17.81,1895,63827612000,MOSKVA
123,14.61,1894,63827612000,MOSKVA
124,15.81,1893,63827612000,MOSKVA
125,17.81,1892,63827612000,MOSKVA
126,15.91,1891,63827612000,MOSKVA
127,17.61,1890,63827612000,MOSKVA
128,15.11,1889,63827612000,MOSKVA
129,13.41,1888,63827612000,MOSKVA
130,13.91,1887,63827612000,MOSKVA
131,15.81,1886,63827612000,MOSKVA
132,14.81,1885,63827612000,MOSKVA
133,17.31,1884,63827612000,MOSKVA
134,17.91,1883,63827612000,MOSKVA
135,16.11,1882,63827612000,MOSKVA
136,15.91,1881,63827612000,MOSKVA
137,18.01,1856,63827612000,MOSKVA
138,20.41,1855,63827612000,MOSKVA
139,19.31,1854,63827612000,MOSKVA
140,16.61,1853,63827612000,MOSKVA
141,21.01,1852,63827612000,MOSKVA
142,16.91,1851,63827612000,MOSKVA
143,19.81,1850,63827612000,MOSKVA
144,16.91,1849,63827612000,MOSKVA
145,19.01,1848,63827612000,MOSKVA
146,19.41,1847,63827612000,MOSKVA
147,14.61,1846,63827612000,MOSKVA
148,16.81,1845,63827612000,MOSKVA
149,15.51,1844,63827612000,MOSKVA
150,16.51,1842,63827612000,MOSKVA
151,18.11,1840,63827612000,MOSKVA
152,17.91,1839,63827612000,MOSKVA
153,16.51,1838,63827612000,MOSKVA
154,17.71,1837,63827612000,MOSKVA
155,14.81,1836,63827612000,MOSKVA
156,17.31,1835,63827612000,MOSKVA
157,17.71,1834,63827612000,MOSKVA
158,21.31,1833,63827612000,MOSKVA
159,16.01,1832,63827612000,MOSKVA
160,19.11,1831,63827612000,MOSKVA
161,17.21,1830,63827612000,MOSKVA
162,18.31,1829,63827612000,MOSKVA
163,18.91,1828,63827612000,MOSKVA
164,19.21,1827,63827612000,MOSKVA
165,15.51,1826,63827612000,MOSKVA
166,12.91,1825,63827612000,MOSKVA
167,15.51,1824,63827612000,MOSKVA
168,19.01,1823,63827612000,MOSKVA
169,14.81,1822,63827612000,MOSKVA
170,16.71,1821,63827612000,MOSKVA
171,18.01,1792,63827612000,MOSKVA
172,18.21,1791,63827612000,MOSKVA
173,16.21,1789,63827612000,MOSKVA
174,17.21,1788,63827612000,MOSKVA
175,16.01,1786,63827612000,MOSKVA
176,16.51,1785,63827612000,MOSKVA
177,20.01,1783,63827612000,MOSKVA
178,15.41,1782,63827612000,MOSKVA
179,14.71,1781,63827612000,MOSKVA
180,15.41,1780,63827612000,MOSKVA
