,temp,year,id,name
0,26.3,2017,13761641000,DAKAR/YOFF
1,24.7,2016,13761641000,DAKAR/YOFF
2,26.3,2015,13761641000,DAKAR/YOFF
3,25.5,2014,13761641000,DAKAR/YOFF
4,26.0,2013,13761641000,DAKAR/YOFF
5,26.0,2012,13761641000,DAKAR/YOFF
6,26.0,2011,13761641000,DAKAR/YOFF
7,26.6,2010,13761641000,DAKAR/YOFF
8,25.8,2009,13761641000,DAKAR/YOFF
9,26.3,2008,13761641000,DAKAR/YOFF
10,24.8,2007,13761641000,DAKAR/YOFF
11,26.3,2006,13761641000,DAKAR/YOFF
12,27.0,2005,13761641000,DAKAR/YOFF
13,25.5,2004,13761641000,DAKAR/YOFF
14,25.4,2003,13761641000,DAKAR/YOFF
15,26.0,2002,13761641000,DAKAR/YOFF
16,26.2,2001,13761641000,DAKAR/YOFF
17,25.8,2000,13761641000,DAKAR/YOFF
18,27.3,1999,13761641000,DAKAR/YOFF
19,25.7,1998,13761641000,DAKAR/YOFF
20,26.7,1997,13761641000,DAKAR/YOFF
21,26.4,1996,13761641000,DAKAR/YOFF
22,25.9,1995,13761641000,DAKAR/YOFF
23,25.0,1994,13761641000,DAKAR/YOFF
24,25.8,1993,13761641000,DAKAR/YOFF
25,25.5,1992,13761641000,DAKAR/YOFF
26,25.0,1991,13761641000,DAKAR/YOFF
27,26.0,1990,13761641000,DAKAR/YOFF
28,26.6,1989,13761641000,DAKAR/YOFF
29,26.6,1988,13761641000,DAKAR/YOFF
30,27.1,1987,13761641000,DAKAR/YOFF
31,25.0,1986,13761641000,DAKAR/YOFF
32,24.9,1985,13761641000,DAKAR/YOFF
33,24.78,1982,13761641000,DAKAR/YOFF
34,24.68,1980,13761641000,DAKAR/YOFF
35,26.68,1979,13761641000,DAKAR/YOFF
36,26.38,1978,13761641000,DAKAR/YOFF
37,25.48,1977,13761641000,DAKAR/YOFF
38,24.98,1976,13761641000,DAKAR/YOFF
39,24.58,1975,13761641000,DAKAR/YOFF
40,24.08,1974,13761641000,DAKAR/YOFF
41,26.78,1973,13761641000,DAKAR/YOFF
42,26.58,1970,13761641000,DAKAR/YOFF
43,26.48,1969,13761641000,DAKAR/YOFF
44,24.18,1968,13761641000,DAKAR/YOFF
45,25.98,1966,13761641000,DAKAR/YOFF
46,25.88,1965,13761641000,DAKAR/YOFF
47,26.78,1964,13761641000,DAKAR/YOFF
48,26.28,1963,13761641000,DAKAR/YOFF
49,26.08,1962,13761641000,DAKAR/YOFF
50,27.28,1961,13761641000,DAKAR/YOFF
51,25.48,1960,13761641000,DAKAR/YOFF
52,26.08,1959,13761641000,DAKAR/YOFF
53,27.28,1958,13761641000,DAKAR/YOFF
54,24.98,1957,13761641000,DAKAR/YOFF
55,25.78,1956,13761641000,DAKAR/YOFF
56,26.88,1955,13761641000,DAKAR/YOFF
57,26.68,1954,13761641000,DAKAR/YOFF
58,25.58,1953,13761641000,DAKAR/YOFF
59,27.38,1952,13761641000,DAKAR/YOFF
60,26.12,1951,13761641000,DAKAR/YOFF
61,27.22,1950,13761641000,DAKAR/YOFF
62,26.42,1949,13761641000,DAKAR/YOFF
63,26.02,1948,13761641000,DAKAR/YOFF
64,24.62,1947,13761641000,DAKAR/YOFF
65,26.12,1946,13761641000,DAKAR/YOFF
66,25.51,1945,13761641000,DAKAR/YOFF
67,27.11,1944,13761641000,DAKAR/YOFF
68,27.81,1943,13761641000,DAKAR/YOFF
69,26.31,1942,13761641000,DAKAR/YOFF
70,25.37,1941,13761641000,DAKAR/YOFF
71,27.37,1940,13761641000,DAKAR/YOFF
72,26.77,1939,13761641000,DAKAR/YOFF
73,26.37,1938,13761641000,DAKAR/YOFF
74,27.67,1937,13761641000,DAKAR/YOFF
75,27.27,1936,13761641000,DAKAR/YOFF
76,26.67,1935,13761641000,DAKAR/YOFF
77,25.57,1934,13761641000,DAKAR/YOFF
78,26.97,1933,13761641000,DAKAR/YOFF
79,27.47,1932,13761641000,DAKAR/YOFF
80,26.47,1931,13761641000,DAKAR/YOFF
81,27.37,1930,13761641000,DAKAR/YOFF
82,27.97,1929,13761641000,DAKAR/YOFF
83,28.87,1928,13761641000,DAKAR/YOFF
84,28.48,1927,13761641000,DAKAR/YOFF
85,28.48,1926,13761641000,DAKAR/YOFF
86,28.88,1925,13761641000,DAKAR/YOFF
87,27.38,1924,13761641000,DAKAR/YOFF
88,26.38,1923,13761641000,DAKAR/YOFF
89,26.28,1921,13761641000,DAKAR/YOFF
90,26.88,1920,13761641000,DAKAR/YOFF
91,28.28,1919,13761641000,DAKAR/YOFF
92,28.48,1918,13761641000,DAKAR/YOFF
93,25.88,1917,13761641000,DAKAR/YOFF
94,26.98,1916,13761641000,DAKAR/YOFF
95,27.68,1915,13761641000,DAKAR/YOFF
96,30.48,1914,13761641000,DAKAR/YOFF
97,27.28,1913,13761641000,DAKAR/YOFF
98,26.78,1912,13761641000,DAKAR/YOFF
99,27.08,1911,13761641000,DAKAR/YOFF
100,25.98,1910,13761641000,DAKAR/YOFF
101,27.28,1909,13761641000,DAKAR/YOFF
102,26.08,1908,13761641000,DAKAR/YOFF
103,24.98,1907,13761641000,DAKAR/YOFF
104,27.78,1906,13761641000,DAKAR/YOFF
105,26.78,1905,13761641000,DAKAR/YOFF
106,25.48,1904,13761641000,DAKAR/YOFF
107,26.38,1903,13761641000,DAKAR/YOFF
108,27.48,1901,13761641000,DAKAR/YOFF
109,27.88,1900,13761641000,DAKAR/YOFF
110,26.98,1899,13761641000,DAKAR/YOFF
