,temp,year,id,name
0,14.2,1994,64502464000,STOCKHOLM
1,13.1,1993,64502464000,STOCKHOLM
2,17.7,1992,64502464000,STOCKHOLM
3,12.1,1991,64502464000,STOCKHOLM
4,14.9,1990,64502464000,STOCKHOLM
5,16.1,1989,64502464000,STOCKHOLM
6,16.1,1988,64502464000,STOCKHOLM
7,12.4,1987,64502464000,STOCKHOLM
8,16.2,1986,64502464000,STOCKHOLM
9,14.5,1985,64502464000,STOCKHOLM
10,14.5,1984,64502464000,STOCKHOLM
11,15.0,1983,64502464000,STOCKHOLM
12,13.7,1982,64502464000,STOCKHOLM
13,13.8,1981,64502464000,STOCKHOLM
14,16.7,1980,64502464000,STOCKHOLM
15,17.4,1979,64502464000,STOCKHOLM
16,15.4,1978,64502464000,STOCKHOLM
17,15.4,1977,64502464000,STOCKHOLM
18,14.7,1976,64502464000,STOCKHOLM
19,14.7,1975,64502464000,STOCKHOLM
20,14.9,1974,64502464000,STOCKHOLM
21,17.0,1973,64502464000,STOCKHOLM
22,16.5,1972,64502464000,STOCKHOLM
23,14.8,1971,64502464000,STOCKHOLM
24,17.7,1970,64502464000,STOCKHOLM
25,17.2,1969,64502464000,STOCKHOLM
26,17.6,1968,64502464000,STOCKHOLM
27,14.9,1967,64502464000,STOCKHOLM
28,17.9,1966,64502464000,STOCKHOLM
29,15.2,1965,64502464000,STOCKHOLM
30,14.8,1964,64502464000,STOCKHOLM
31,15.3,1963,64502464000,STOCKHOLM
32,13.7,1962,64502464000,STOCKHOLM
33,16.6,1961,64502464000,STOCKHOLM
34,16.8,1960,64502464000,STOCKHOLM
35,15.3,1959,64502464000,STOCKHOLM
36,13.8,1958,64502464000,STOCKHOLM
37,13.4,1957,64502464000,STOCKHOLM
38,14.2,1956,64502464000,STOCKHOLM
39,13.3,1955,64502464000,STOCKHOLM
40,14.8,1954,64502464000,STOCKHOLM
41,17.4,1953,64502464000,STOCKHOLM
42,14.0,1952,64502464000,STOCKHOLM
43,14.4,1951,64502464000,STOCKHOLM
44,15.9,1950,64502464000,STOCKHOLM
45,13.4,1949,64502464000,STOCKHOLM
46,15.2,1948,64502464000,STOCKHOLM
47,17.1,1947,64502464000,STOCKHOLM
48,14.6,1946,64502464000,STOCKHOLM
49,14.1,1945,64502464000,STOCKHOLM
50,13.6,1944,64502464000,STOCKHOLM
51,15.8,1943,64502464000,STOCKHOLM
52,13.0,1942,64502464000,STOCKHOLM
53,14.6,1941,64502464000,STOCKHOLM
54,16.2,1940,64502464000,STOCKHOLM
55,15.5,1939,64502464000,STOCKHOLM
56,14.7,1938,64502464000,STOCKHOLM
57,16.2,1937,64502464000,STOCKHOLM
58,18.1,1936,64502464000,STOCKHOLM
59,16.1,1935,64502464000,STOCKHOLM
60,15.1,1934,64502464000,STOCKHOLM
61,15.3,1933,64502464000,STOCKHOLM
62,12.5,1932,64502464000,STOCKHOLM
63,12.5,1931,64502464000,STOCKHOLM
64,16.1,1930,64502464000,STOCKHOLM
65,12.8,1929,64502464000,STOCKHOLM
66,10.8,1928,64502464000,STOCKHOLM
67,12.8,1927,64502464000,STOCKHOLM
68,14.1,1926,64502464000,STOCKHOLM
69,14.3,1925,64502464000,STOCKHOLM
70,13.0,1924,64502464000,STOCKHOLM
71,10.4,1923,64502464000,STOCKHOLM
72,14.5,1922,64502464000,STOCKHOLM
73,13.7,1921,64502464000,STOCKHOLM
74,13.5,1920,64502464000,STOCKHOLM
75,13.8,1919,64502464000,STOCKHOLM
76,12.4,1918,64502464000,STOCKHOLM
77,18.1,1917,64502464000,STOCKHOLM
78,12.0,1916,64502464000,STOCKHOLM
79,13.0,1915,64502464000,STOCKHOLM
80,14.7,1914,64502464000,STOCKHOLM
81,13.8,1913,64502464000,STOCKHOLM
82,14.0,1912,64502464000,STOCKHOLM
83,13.1,1911,64502464000,STOCKHOLM
84,14.9,1910,64502464000,STOCKHOLM
85,13.4,1909,64502464000,STOCKHOLM
86,13.6,1908,64502464000,STOCKHOLM
87,13.0,1907,64502464000,STOCKHOLM
88,14.5,1906,64502464000,STOCKHOLM
89,16.8,1905,64502464000,STOCKHOLM
90,12.5,1904,64502464000,STOCKHOLM
91,14.1,1903,64502464000,STOCKHOLM
92,12.1,1902,64502464000,STOCKHOLM
93,15.7,1901,64502464000,STOCKHOLM
94,15.2,1900,64502464000,STOCKHOLM
95,11.7,1899,64502464000,STOCKHOLM
96,14.3,1898,64502464000,STOCKHOLM
97,15.5,1897,64502464000,STOCKHOLM
98,17.8,1896,64502464000,STOCKHOLM
99,16.3,1895,64502464000,STOCKHOLM
100,14.1,1894,64502464000,STOCKHOLM
101,14.3,1893,64502464000,STOCKHOLM
102,13.3,1892,64502464000,STOCKHOLM
103,13.1,1891,64502464000,STOCKHOLM
104,13.9,1890,64502464000,STOCKHOLM
105,17.3,1889,64502464000,STOCKHOLM
106,12.7,1888,64502464000,STOCKHOLM
107,13.4,1887,64502464000,STOCKHOLM
108,14.3,1886,64502464000,STOCKHOLM
109,13.3,1885,64502464000,STOCKHOLM
110,12.6,1884,64502464000,STOCKHOLM
111,15.1,1883,64502464000,STOCKHOLM
112,14.3,1882,64502464000,STOCKHOLM
113,12.8,1881,64502464000,STOCKHOLM
114,14.1,1880,64502464000,STOCKHOLM
115,14.4,1879,64502464000,STOCKHOLM
116,13.6,1878,64502464000,STOCKHOLM
117,14.7,1877,64502464000,STOCKHOLM
118,16.9,1876,64502464000,STOCKHOLM
119,14.9,1875,64502464000,STOCKHOLM
120,13.9,1874,64502464000,STOCKHOLM
121,15.0,1873,64502464000,STOCKHOLM
122,15.0,1872,64502464000,STOCKHOLM
123,10.9,1871,64502464000,STOCKHOLM
124,13.6,1870,64502464000,STOCKHOLM
125,12.1,1869,64502464000,STOCKHOLM
126,14.9,1868,64502464000,STOCKHOLM
127,11.7,1867,64502464000,STOCKHOLM
128,15.3,1866,64502464000,STOCKHOLM
129,10.7,1865,64502464000,STOCKHOLM
130,14.4,1864,64502464000,STOCKHOLM
131,14.4,1863,64502464000,STOCKHOLM
132,12.9,1862,64502464000,STOCKHOLM
133,15.6,1861,64502464000,STOCKHOLM
134,14.2,1860,64502464000,STOCKHOLM
135,15.6,1859,64502464000,STOCKHOLM
136,16.6,1858,64502464000,STOCKHOLM
137,13.9,1857,64502464000,STOCKHOLM
138,14.2,1856,64502464000,STOCKHOLM
139,15.5,1855,64502464000,STOCKHOLM
140,15.0,1854,64502464000,STOCKHOLM
141,16.9,1853,64502464000,STOCKHOLM
142,16.0,1852,64502464000,STOCKHOLM
143,14.3,1851,64502464000,STOCKHOLM
144,16.3,1850,64502464000,STOCKHOLM
145,12.9,1849,64502464000,STOCKHOLM
146,15.3,1848,64502464000,STOCKHOLM
147,14.4,1847,64502464000,STOCKHOLM
148,14.5,1846,64502464000,STOCKHOLM
149,14.9,1845,64502464000,STOCKHOLM
150,12.6,1844,64502464000,STOCKHOLM
151,12.8,1843,64502464000,STOCKHOLM
152,14.1,1842,64502464000,STOCKHOLM
153,14.2,1841,64502464000,STOCKHOLM
154,14.7,1840,64502464000,STOCKHOLM
155,14.8,1839,64502464000,STOCKHOLM
156,14.9,1838,64502464000,STOCKHOLM
157,12.8,1837,64502464000,STOCKHOLM
158,13.7,1836,64502464000,STOCKHOLM
159,15.6,1835,64502464000,STOCKHOLM
160,14.3,1834,64502464000,STOCKHOLM
161,14.7,1833,64502464000,STOCKHOLM
162,12.6,1832,64502464000,STOCKHOLM
163,14.9,1831,64502464000,STOCKHOLM
164,13.3,1830,64502464000,STOCKHOLM
165,15.53,1829,64502464000,STOCKHOLM
166,15.83,1828,64502464000,STOCKHOLM
167,17.23,1827,64502464000,STOCKHOLM
168,17.33,1826,64502464000,STOCKHOLM
169,14.23,1825,64502464000,STOCKHOLM
170,14.73,1824,64502464000,STOCKHOLM
171,16.13,1823,64502464000,STOCKHOLM
172,14.93,1822,64502464000,STOCKHOLM
173,11.33,1821,64502464000,STOCKHOLM
174,14.43,1820,64502464000,STOCKHOLM
175,16.63,1819,64502464000,STOCKHOLM
176,14.93,1818,64502464000,STOCKHOLM
177,13.93,1817,64502464000,STOCKHOLM
178,14.83,1816,64502464000,STOCKHOLM
179,11.93,1815,64502464000,STOCKHOLM
180,11.93,1814,64502464000,STOCKHOLM
181,12.33,1813,64502464000,STOCKHOLM
182,13.63,1812,64502464000,STOCKHOLM
183,17.33,1811,64502464000,STOCKHOLM
184,13.73,1810,64502464000,STOCKHOLM
185,14.13,1809,64502464000,STOCKHOLM
186,15.13,1808,64502464000,STOCKHOLM
187,13.93,1807,64502464000,STOCKHOLM
188,11.33,1806,64502464000,STOCKHOLM
189,11.73,1805,64502464000,STOCKHOLM
190,14.53,1804,64502464000,STOCKHOLM
191,13.83,1803,64502464000,STOCKHOLM
192,12.93,1802,64502464000,STOCKHOLM
193,13.73,1801,64502464000,STOCKHOLM
194,11.53,1800,64502464000,STOCKHOLM
195,14.03,1799,64502464000,STOCKHOLM
196,16.63,1798,64502464000,STOCKHOLM
197,14.53,1797,64502464000,STOCKHOLM
198,15.13,1796,64502464000,STOCKHOLM
199,14.13,1795,64502464000,STOCKHOLM
200,16.23,1794,64502464000,STOCKHOLM
201,14.03,1793,64502464000,STOCKHOLM
202,14.63,1792,64502464000,STOCKHOLM
203,14.13,1791,64502464000,STOCKHOLM
204,13.23,1790,64502464000,STOCKHOLM
205,17.43,1789,64502464000,STOCKHOLM
206,15.73,1788,64502464000,STOCKHOLM
207,14.13,1787,64502464000,STOCKHOLM
208,14.43,1786,64502464000,STOCKHOLM
209,14.23,1785,64502464000,STOCKHOLM
210,13.13,1784,64502464000,STOCKHOLM
211,16.83,1783,64502464000,STOCKHOLM
212,13.63,1782,64502464000,STOCKHOLM
213,15.53,1781,64502464000,STOCKHOLM
214,13.53,1780,64502464000,STOCKHOLM
215,13.63,1779,64502464000,STOCKHOLM
216,14.43,1778,64502464000,STOCKHOLM
217,14.13,1777,64502464000,STOCKHOLM
218,16.43,1776,64502464000,STOCKHOLM
219,16.73,1775,64502464000,STOCKHOLM
220,17.53,1774,64502464000,STOCKHOLM
221,14.03,1773,64502464000,STOCKHOLM
222,13.93,1772,64502464000,STOCKHOLM
223,16.13,1771,64502464000,STOCKHOLM
224,14.03,1770,64502464000,STOCKHOLM
225,14.73,1769,64502464000,STOCKHOLM
226,13.63,1768,64502464000,STOCKHOLM
227,13.53,1767,64502464000,STOCKHOLM
228,15.93,1766,64502464000,STOCKHOLM
229,14.23,1765,64502464000,STOCKHOLM
230,13.03,1764,64502464000,STOCKHOLM
231,14.23,1763,64502464000,STOCKHOLM
232,17.13,1762,64502464000,STOCKHOLM
233,16.73,1761,64502464000,STOCKHOLM
234,14.33,1760,64502464000,STOCKHOLM
235,15.63,1759,64502464000,STOCKHOLM
236,14.03,1758,64502464000,STOCKHOLM
237,15.13,1757,64502464000,STOCKHOLM
238,15.83,1756,64502464000,STOCKHOLM
