iso,year,value
TUN,2009,25.9
TUN,2002,25.5
TUN,2001,26.5
TUN,2000,26.2
TUN,1999,24.8
TUN,1998,23.5
TUN,1997,22.3
TUN,1996,21
TUN,1995,20.8
TUN,1994,20.5
TUN,1993,21
TUN,1992,20.5
TUN,1991,19.3
TUN,1990,19.4
TUN,1989,19.6
TUN,1988,19.2
TUN,1987,18.8
TUN,1986,18.9
TUN,1985,18.9
TUN,1984,20.1
TUN,1983,17.1
TUN,1982,17.1
TUN,1981,17.6
TUN,1980,15.6
TUN,1979,14.4
TUN,1978,16.6
TUN,1977,17.6
TUN,1976,17.6
TUN,1975,16
TUN,1974,14.5
TUN,1973,14.4
TUN,1972,12.8
TUN,1971,11.7
TUN,1970,10.6
TUN,1969,11.7
TUN,1968,11.2
TUN,1967,12.3
TUN,1966,12.8
TUN,1965,12.2
TUN,1964,11.8
TUN,1963,11.6
TUN,1962,11.6
TUN,1961,12.3
