iso,year,value
URY,2009,55.3
URY,2002,98.6
URY,2001,91.3
URY,2000,105.8
URY,1999,118.9
URY,1998,110.8
URY,1997,106.1
URY,1996,109.3
URY,1995,103
URY,1994,112.5
URY,1993,108.1
URY,1992,107.5
URY,1991,104.7
URY,1990,81.3
URY,1989,97.6
URY,1988,103
URY,1987,93.4
URY,1986,77.8
URY,1985,99.6
URY,1984,87.1
URY,1983,105.2
URY,1982,112.4
URY,1981,104.6
URY,1980,101.5
URY,1979,94.1
URY,1978,99.7
URY,1977,105.9
URY,1976,110.3
URY,1975,116.3
URY,1974,111.8
URY,1973,100
URY,1972,100.6
URY,1971,107.6
URY,1970,123.6
URY,1969,112.5
URY,1968,114.6
URY,1967,96.6
URY,1966,99.3
URY,1965,107.7
URY,1964,119.5
URY,1963,109.1
URY,1962,108.7
URY,1961,115
