Players,Values
Hugo Lloris,250000000
Alphonse Areola,150000000
Steve Mandanda,25000000
Raphaël Varane,700000000
Samuel Umtiti,600000000
Benjamin Pavard,300000000
Presnel Kimpembe,300000000
Adil Rami,70000000
Benjamin Mendy,400000000
Lucas Hernández,350000000
Djibril Sidibé,230000000
N'Golo Kanté,600000000
Steven Nzonzi,300000000
Paul Pogba,900000000
Corentin Tolisso,400000000
Blaise Matuidi,300000000
Nabil Fekir,600000000
Thomas Lemar,650000000
Kylian Mbappé,1200000000
Ousmane Dembélé,800000000
Florian Thauvin,500000000
Antoine Griezmann,1000000000
Olivier Giroud,180000000
