Players,Values
Marc-André ter Stegen,600000000
Manuel Neuer,350000000
Kevin Trapp,80000000
Mats Hummels,600000000
Jérôme Boateng,450000000
Antonio Rüdiger,400000000
Niklas Süle,380000000
Matthias Ginter,250000000
Marvin Plattenhardt,150000000
Jonas Hector,150000000
Joshua Kimmich,550000000
Sebastian Rudy,150000000
Toni Kroos,800000000
Leon Goretzka,400000000
Ilkay Gündogan,400000000
Sami Khedira,260000000
Mesut Özil,500000000
Julian Brandt,400000000
Julian Draxler,350000000
Marco Reus,350000000
Thomas Müller,600000000
Timo Werner,600000000
Mario Gómez,60000000
