Players,Values
Alireza Beiranvand,12000000
Mohammad Rashid Mazaheri,900000
Amir Abedzadeh,500000
Morteza Pouraliganji,950000
Majid Hosseini,800000
Mohammad Reza Khanzadeh,500000
Pejman Montazeri,400000
Milad Mohammadi,28000000
Ehsan Hajsafi,15000000
Ramin Rezaeian,10000000
Omid Ebrahimi,12000000
Roozbeh Cheshmi,800000
Saeid Ezatolahi,12000000
Ashkan Dejagah,800000
Masoud Shojaei,700000
Vahid Amiri,12000000
Mehdi Torabi,800000
Alireza Jahanbakhsh,80000000
Sardar Azmoun,90000000
Karim Ansarifard,40000000
Mehdi Taremi,17000000
Saman Ghoddos,16000000
Reza Ghoochannejhad,15000000
