Players,Values
Anthony Lopes,200000000
Rui Patrício,160000000
Beto,600000
Rúben Dias,140000000
Pepe,20000000
José Fonte,20000000
Bruno Alves,500000
Raphaël Guerreiro,180000000
Mário Rui,140000000
Cédric Soares,150000000
Ricardo Pereira,130000000
William Carvalho,250000000
Adrien Silva,200000000
João Moutinho,100000000
Manuel Fernandes,54000000
João Mário,250000000
Bruno Fernandes,200000000
Gonçalo Guedes,400000000
Bernardo Silva,500000000
Gelson Martins,300000000
Ricardo Quaresma,20000000
Cristiano Ronaldo,1000000000
André Silva,220000000
