,temp,year,name
0,27.9,2017,BARCELONA
1,28.1,2015,BARCELONA
2,28.7,2014,BARCELONA
3,27.8,2013,BARCELONA
4,27.7,2011,BARCELONA
5,28.0,2010,BARCELONA
6,28.4,2009,BARCELONA
7,28.1,2008,BARCELONA
8,25.8,2006,BARCELONA
9,27.5,2005,BARCELONA
10,26.7,2004,BARCELONA
11,25.3,2003,BARCELONA
12,26.83,2001,BARCELONA
13,27.67,1999,BARCELONA
14,28.17,1998,BARCELONA
15,27.67,1997,BARCELONA
16,27.07,1996,BARCELONA
17,27.47,1993,BARCELONA
18,27.37,1992,BARCELONA
19,26.97,1991,BARCELONA
20,27.17,1990,BARCELONA
21,28.77,1989,BARCELONA
22,28.37,1988,BARCELONA
23,27.77,1987,BARCELONA
24,27.01,1986,BARCELONA
25,26.71,1985,BARCELONA
26,20.3,1985,BARCELONA           SPAIN
27,19.7,1984,BARCELONA           SPAIN
28,27.71,1984,BARCELONA
29,21.4,1983,BARCELONA           SPAIN
30,26.8,1982,BARCELONA
31,22.5,1982,BARCELONA           SPAIN
32,21.6,1981,BARCELONA           SPAIN
33,26.1,1981,BARCELONA
34,26.8,1980,BARCELONA
35,19.1,1980,BARCELONA           SPAIN
36,21.7,1979,BARCELONA           SPAIN
37,26.8,1979,BARCELONA
38,26.6,1978,BARCELONA
39,19.5,1978,BARCELONA           SPAIN
40,26.28,1977,BARCELONA
41,19.4,1977,BARCELONA           SPAIN
42,23.4,1976,BARCELONA           SPAIN
43,26.18,1976,BARCELONA
44,27.32,1975,BARCELONA
45,19.9,1975,BARCELONA           SPAIN
46,26.02,1974,BARCELONA
47,20.9,1974,BARCELONA           SPAIN
48,21.4,1973,BARCELONA           SPAIN
49,26.72,1973,BARCELONA
50,27.01,1972,BARCELONA
51,19.0,1972,BARCELONA           SPAIN
52,20.3,1971,BARCELONA           SPAIN
53,26.31,1971,BARCELONA
54,26.51,1970,BARCELONA
55,27.61,1969,BARCELONA
56,20.5,1968,BARCELONA           SPAIN
57,26.01,1968,BARCELONA
58,20.4,1967,BARCELONA           SPAIN
59,26.64,1967,BARCELONA
60,26.54,1966,BARCELONA
61,22.3,1966,BARCELONA           SPAIN
62,21.9,1965,BARCELONA           SPAIN
63,26.04,1965,BARCELONA
64,26.84,1964,BARCELONA
65,22.4,1964,BARCELONA           SPAIN
66,20.6,1963,BARCELONA           SPAIN
67,26.09,1963,BARCELONA
68,26.69,1962,BARCELONA
69,20.6,1962,BARCELONA           SPAIN
70,22.1,1961,BARCELONA           SPAIN
71,26.39,1961,BARCELONA
72,22.7,1960,BARCELONA           SPAIN
73,26.69,1960,BARCELONA
74,20.9,1959,BARCELONA           SPAIN
75,25.59,1959,BARCELONA
76,20.8,1958,BARCELONA           SPAIN
77,26.29,1958,BARCELONA
78,26.69,1957,BARCELONA
79,20.1,1957,BARCELONA           SPAIN
80,19.7,1956,BARCELONA           SPAIN
81,21.6,1955,BARCELONA           SPAIN
82,21.2,1954,BARCELONA           SPAIN
83,19.9,1953,BARCELONA           SPAIN
84,23.7,1952,BARCELONA           SPAIN
85,21.3,1951,BARCELONA           SPAIN
86,21.8,1948,BARCELONA           SPAIN
87,23.7,1947,BARCELONA           SPAIN
88,20.4,1946,BARCELONA           SPAIN
89,22.8,1945,BARCELONA           SPAIN
90,21.5,1944,BARCELONA           SPAIN
91,22.7,1943,BARCELONA           SPAIN
92,22.3,1942,BARCELONA           SPAIN
93,20.8,1941,BARCELONA           SPAIN
94,20.5,1940,BARCELONA           SPAIN
95,22.7,1934,BARCELONA           SPAIN
96,19.2,1933,BARCELONA           SPAIN
97,20.5,1932,BARCELONA           SPAIN
98,23.2,1931,BARCELONA           SPAIN
99,22.1,1930,BARCELONA           SPAIN
100,22.5,1929,BARCELONA           SPAIN
101,21.4,1928,BARCELONA           SPAIN
102,21.2,1927,BARCELONA           SPAIN
103,20.1,1926,BARCELONA           SPAIN
104,22.2,1900,BARCELONA           SPAIN
105,20.4,1899,BARCELONA           SPAIN
106,20.3,1898,BARCELONA           SPAIN
107,23.08,1897,BARCELONA           SPAIN
108,21.08,1896,BARCELONA           SPAIN
109,20.98,1895,BARCELONA           SPAIN
110,21.28,1894,BARCELONA           SPAIN
111,22.14,1892,BARCELONA           SPAIN
112,20.74,1891,BARCELONA           SPAIN
113,21.84,1890,BARCELONA           SPAIN
114,19.64,1888,BARCELONA           SPAIN
115,22.74,1887,BARCELONA           SPAIN
116,20.34,1886,BARCELONA           SPAIN
117,20.06,1884,BARCELONA           SPAIN
118,19.86,1883,BARCELONA           SPAIN
119,20.66,1882,BARCELONA           SPAIN
120,20.26,1881,BARCELONA           SPAIN
121,19.56,1880,BARCELONA           SPAIN
122,21.06,1879,BARCELONA           SPAIN
123,21.03,1878,BARCELONA           SPAIN
124,22.03,1877,BARCELONA           SPAIN
125,20.33,1876,BARCELONA           SPAIN
126,21.34,1875,BARCELONA           SPAIN
127,21.44,1874,BARCELONA           SPAIN
128,20.54,1873,BARCELONA           SPAIN
129,20.64,1872,BARCELONA           SPAIN
130,18.34,1871,BARCELONA           SPAIN
131,23.02,1870,BARCELONA           SPAIN
132,20.02,1869,BARCELONA           SPAIN
133,23.42,1868,BARCELONA           SPAIN
134,21.07,1867,BARCELONA           SPAIN
135,21.87,1866,BARCELONA           SPAIN
136,25.07,1842,BARCELONA           SPAIN
137,21.87,1841,BARCELONA           SPAIN
138,22.67,1840,BARCELONA           SPAIN
139,23.17,1839,BARCELONA           SPAIN
140,22.98,1838,BARCELONA           SPAIN
141,23.58,1837,BARCELONA           SPAIN
142,21.98,1836,BARCELONA           SPAIN
143,19.78,1835,BARCELONA           SPAIN
