player,value
K. Navas,18000000
L. Moreira,350000
P. Pemberton,275000
G. González,1400000
Ó. Duarte,1000000
K. Waston,850000
F. Calvo,750000
J. Acosta,200000
B. Oviedo,2000000
R. Matarrita,600000
C. Gamboa,1250000
Ian Smith,250000
D. Guzmán,800000
Y. Tejeda,750000
R. Azofeifa,300000
C. Borges,4000000
J. Venegas,600000
B. Ruíz,2000000
R. Wallace,1000000
D. Colindres,325000
J. Campbell,3000000
C. Bolaños,375000
M. Ureña,900000
