player,value
K. Nakamura,1500000
M. Higashiguchi,1250000
E. Kawashima,250000
M. Yoshida,7000000
Gen Shoji,1700000
T. Makino,1650000
W. Endo,1450000
N. Ueda,1100000
Y. Nagatomo,3500000
H. Sakai,6000000
G. Sakai,1500000
H. Yamaguchi,1500000
M. Hasebe,1000000
G. Shibasaki,1800000
R. Oshima,1150000
S. Kagawa,13000000
T. Inui,5000000
G. Haraguchi,1750000
T. Usami,800000
K. Honda,4000000
Y. Osako,4500000
S. Okazaki,6000000
Y. Muto,6000000
