player,value
G. Ochoa,3000000
A. Talavera,1800000
J. Corona,1500000
C. Salcedo,7000000
D. Reyes,5500000
H. Moreno,4000000
H. Ayala,2500000
E. Álvarez,2000000
R. Márquez,800000
M. Layún,5000000
H. Herrera,18000000
A. Guardado,5000000
J. dos Santos,4750000
M. Fabián,4500000
H. Lozano,22000000
J. Aquino,5000000
J. Gallardo,3000000
J. Corona,12000000
C. Vela,8500000
G. dos Santos,2750000
Chicharito,15000000
R. Jiménez,10000000
O. Peralta,1500000
