player,value
D. Akpeyi,650000
F. Uzoho,300000
I. Ezenwa,150000
C. Awaziem,6000000
L. Balogun,2000000
K. Omeruo,1750000
W. Troost-Ekong,1600000
Elderson,700000
Bryan Idowu,1500000
T. Ebuehi,1500000
W. Ndidi,25000000
J. Obi,5500000
O. Onazi,3500000
A. Shehu,700000
Joel Obi,5000000
John Ogu,1500000
V. Moses,20000000
O. Etebo,1500000
A. Iwobi,15000000
A. Musa,15000000
K. Iheanacho,15000000
O. Ighalo,9500000
Simy,1500000
