player,value
J. Penedo,300000
J. Calderón,200000
Á. Rodríguez,175000
R. Torres,650000
A. Machado,400000
H. Cummings,250000
F. Escobar,175000
F. Baloy,175000
L. Ovalle,550000
É. Davis,425000
M. Murillo,500000
A. Godoy,800000
G. Gómez,500000
R. Ávila,250000
A. Cooper,450000
J. Rodríguez,200000
Y. Bárcenas,500000
I. Díaz,500000
V. Pimentel,350000
G. Torres,500000
A. Arroyo,250000
L. Tejada,175000
B. Pérez,150000
