player,value
Alisson,60000000
Ederson,50000000
Cássio,4000000
Marquinhos,55000000
T. Silva,10000000
Miranda,8000000
P. Geromel,5000000
Marcelo,60000000
Filipe Luís,8000000
Danilo,20000000
Fágner,5000000
Casemiro,60000000
Fernandinho,15000000
Paulinho,40000000
Fred,32000000
R. Augusto,11000000
Neymar,180000000
P. Coutinho,100000000
Taison,11000000
Douglas Costa,55000000
Willian,32000000
Roberto Firmino,80000000
G. Jesus,80000000
