player,value
M. Dmitrovic,4000000
P. Rajkovic,2500000
V. Stojkovic,750000
N. Milenkovic,9000000
M. Veljkovic,6500000
U. Spajic,5000000
B. Ivanovic,3000000
D. Tosic,2000000
A. Kolarov,12000000
M. Rodic,1200000
A. Rukavina,1000000
N. Matic,40000000
L. Milivojevic,15000000
S. Milinkovic-Savic,90000000
M. Grujic,5000000
D. Tadic,15000000
A. Ljajic,13000000
A. Zivkovic,12000000
F. Kostic,6000000
N. Radonjic,2500000
A. Mitrovic,8000000
L. Jovic,8000000
A. Prijovic,6000000
