,year,value
2088,1961,0.25647105818966703
2089,1962,0.295617874675608
2090,1963,0.31359821774427604
2091,1964,0.32631798433659703
2092,1965,0.344938827795213
2093,1966,0.346850564541681
2094,1967,0.308438472440465
2095,1968,0.31647924834130803
2096,1969,0.29835697565860503
2097,1970,0.310170352637862
2098,1971,0.33503856780455804
2099,1972,0.344566202181941
2100,1973,0.31998744914047
2101,1974,0.374595247098485
2102,1975,0.41037119560713803
2103,1976,0.438367972410646
2104,1977,0.451500730962745
2105,1978,0.47445412159952305
2106,1979,0.47197188370910803
2107,1980,0.511035674104809
2108,1981,0.5731129227635721
2109,1982,0.5685891730936531
2110,1983,0.6363495913664341
2111,1984,0.660293986950741
2112,1985,0.673214794502197
2113,1986,0.6604918082766711
2114,1987,0.6669376100773611
2115,1988,0.6718581040149451
2116,1989,0.663925484268397
2117,1990,0.6915103332959931
2118,1991,0.6922608228682491
2119,1992,0.7010869567923571
2120,1993,0.7051062977053171
2121,1994,0.72273561331545
2122,1995,0.7535216703884761
2123,1996,0.7807176591350321
2124,1997,0.8295123477222651
2125,1998,0.859573647623291
2126,1999,0.8926874244181491
2127,2000,0.8797507114523281
2128,2001,0.878767295052424
2129,2002,0.884051106439928
2130,2003,0.863273920508086
2131,2004,0.8846671119078661
2132,2005,1.01266201747534
2133,2006,1.07164044901315
2134,2007,1.11785853353249
2135,2008,1.10123051014632
2136,2009,1.05126509012933
2137,2010,1.1748636967336
2138,2011,1.1596494312098
2139,2012,1.20256770927843
2140,2013,1.18699437717269
2141,2014,1.17959615916442
